Rozwiązanie dla problemu tsp_48:
Scieżka: 25 - 47 - 26 - 31 - 11 - 43 - 42 - 21 - 2 - 19 - 22 - 1 - 38 - 24 - 13 - 46 - 34 - 12 - 20 - 36 - 23 - 16 - 17 - 3 - 5 - 29 - 4 - 28 - 9 - 0 - 40 - 45 - 32 - 6 - 18 - 35 - 14 - 37 - 7 - 10 - 44 - 39 - 27 - 30 - 8 - 33 - 41 - 15 - 25
Koszt: 5239
Czas znalezienia[takty]: 31294146
Czas znalezienia[ms]: 14599
Czas znalezienia[s]: 14
Iteracja znalezienia: 19517
Błąd względny = 194,988738738739
