Rozwiązanie dla problemu tsp_48:
Scieżka: 42 - 43 - 36 - 7 - 35 - 14 - 0 - 8 - 13 - 33 - 2 - 41 - 44 - 21 - 1 - 31 - 45 - 40 - 47 - 28 - 16 - 26 - 19 - 39 - 18 - 10 - 46 - 22 - 9 - 24 - 4 - 27 - 29 - 38 - 32 - 15 - 23 - 34 - 5 - 37 - 17 - 20 - 25 - 11 - 30 - 3 - 6 - 12 - 42
Koszt: 5339
Czas znalezienia[takty]: 22870510
Czas znalezienia[ms]: 10669
Czas znalezienia[s]: 10
Iteracja znalezienia: 43449
Błąd względny = 200,619369369369
