Rozwiązanie dla problemu tsp_48:
Scieżka: 41 - 11 - 46 - 36 - 32 - 23 - 24 - 30 - 2 - 22 - 37 - 7 - 14 - 45 - 35 - 21 - 0 - 31 - 4 - 3 - 42 - 43 - 26 - 47 - 40 - 16 - 18 - 13 - 8 - 38 - 34 - 5 - 29 - 39 - 20 - 1 - 44 - 15 - 19 - 12 - 33 - 10 - 27 - 9 - 17 - 6 - 28 - 25 - 41
Koszt: 5275
Czas znalezienia[takty]: 59332220
Czas znalezienia[ms]: 27680
Czas znalezienia[s]: 27
Iteracja znalezienia: 20580
Błąd względny = 197,015765765766
