Rozwiązanie dla problemu tsp_403:
Scieżka: 230 - 21 - 64 - 259 - 2 - 126 - 240 - 234 - 283 - 9 - 209 - 47 - 115 - 159 - 3 - 354 - 80 - 306 - 317 - 118 - 63 - 340 - 237 - 284 - 215 - 4 - 298 - 269 - 93 - 370 - 146 - 379 - 236 - 310 - 394 - 136 - 397 - 66 - 238 - 12 - 268 - 377 - 212 - 60 - 103 - 87 - 312 - 307 - 59 - 303 - 181 - 8 - 172 - 304 - 202 - 248 - 186 - 26 - 152 - 130 - 267 - 356 - 274 - 292 - 41 - 335 - 7 - 328 - 164 - 125 - 13 - 184 - 89 - 101 - 139 - 154 - 190 - 225 - 39 - 153 - 296 - 141 - 265 - 109 - 56 - 233 - 84 - 170 - 378 - 29 - 163 - 359 - 178 - 33 - 309 - 142 - 241 - 49 - 144 - 97 - 133 - 390 - 263 - 114 - 10 - 131 - 221 - 235 - 250 - 349 - 197 - 251 - 16 - 339 - 286 - 62 - 173 - 353 - 71 - 380 - 122 - 401 - 305 - 94 - 226 - 385 - 171 - 348 - 34 - 338 - 127 - 91 - 357 - 75 - 355 - 148 - 110 - 288 - 46 - 206 - 58 - 388 - 72 - 150 - 199 - 32 - 392 - 112 - 76 - 239 - 25 - 81 - 135 - 293 - 134 - 55 - 54 - 15 - 258 - 192 - 185 - 0 - 61 - 261 - 245 - 242 - 281 - 395 - 177 - 24 - 373 - 161 - 155 - 65 - 308 - 123 - 393 - 360 - 257 - 363 - 160 - 297 - 270 - 271 - 120 - 331 - 352 - 207 - 369 - 107 - 182 - 384 - 85 - 158 - 299 - 187 - 211 - 67 - 198 - 345 - 70 - 333 - 371 - 321 - 189 - 188 - 223 - 319 - 121 - 111 - 266 - 366 - 11 - 143 - 132 - 224 - 194 - 38 - 96 - 314 - 361 - 99 - 276 - 196 - 195 - 191 - 325 - 166 - 367 - 374 - 396 - 372 - 128 - 113 - 79 - 279 - 92 - 386 - 102 - 44 - 322 - 382 - 256 - 48 - 203 - 262 - 5 - 383 - 243 - 290 - 218 - 398 - 205 - 329 - 19 - 40 - 20 - 337 - 387 - 368 - 36 - 50 - 300 - 204 - 389 - 324 - 35 - 347 - 151 - 217 - 311 - 176 - 350 - 108 - 287 - 264 - 315 - 362 - 156 - 174 - 100 - 129 - 254 - 208 - 358 - 330 - 82 - 138 - 375 - 302 - 247 - 106 - 213 - 344 - 77 - 42 - 86 - 37 - 45 - 294 - 51 - 327 - 301 - 320 - 14 - 313 - 260 - 343 - 157 - 145 - 1 - 78 - 210 - 232 - 400 - 277 - 399 - 193 - 228 - 219 - 214 - 289 - 332 - 341 - 175 - 6 - 104 - 220 - 249 - 83 - 18 - 119 - 183 - 244 - 278 - 180 - 255 - 365 - 147 - 149 - 229 - 285 - 95 - 295 - 201 - 116 - 23 - 200 - 326 - 364 - 137 - 73 - 316 - 391 - 28 - 227 - 162 - 402 - 346 - 273 - 117 - 57 - 168 - 22 - 30 - 98 - 222 - 88 - 52 - 169 - 323 - 90 - 342 - 246 - 105 - 275 - 27 - 53 - 167 - 17 - 280 - 282 - 376 - 318 - 31 - 252 - 351 - 216 - 124 - 43 - 74 - 336 - 179 - 272 - 291 - 68 - 334 - 140 - 165 - 381 - 69 - 231 - 253 - 230
Koszt: 7168
Czas znalezienia[takty]: 22597743
Czas znalezienia[ms]: 10542
Czas znalezienia[s]: 10
Iteracja znalezienia: 6617
Błąd względny = 190,79107505071
