Rozwiązanie dla problemu tsp_403:
Scieżka: 101 - 236 - 235 - 263 - 167 - 322 - 127 - 39 - 351 - 163 - 221 - 254 - 377 - 323 - 387 - 267 - 183 - 94 - 88 - 357 - 243 - 180 - 348 - 299 - 257 - 227 - 16 - 274 - 272 - 228 - 151 - 202 - 72 - 118 - 271 - 196 - 95 - 284 - 194 - 14 - 330 - 185 - 176 - 58 - 191 - 198 - 390 - 49 - 296 - 219 - 187 - 149 - 74 - 230 - 264 - 386 - 100 - 333 - 97 - 159 - 59 - 47 - 170 - 399 - 360 - 18 - 136 - 304 - 203 - 46 - 188 - 325 - 115 - 84 - 164 - 306 - 392 - 165 - 116 - 77 - 312 - 286 - 334 - 156 - 44 - 138 - 262 - 158 - 313 - 56 - 217 - 4 - 45 - 245 - 320 - 212 - 55 - 259 - 252 - 241 - 279 - 133 - 114 - 130 - 281 - 232 - 285 - 35 - 291 - 329 - 177 - 104 - 181 - 233 - 98 - 370 - 347 - 308 - 316 - 373 - 276 - 398 - 147 - 234 - 402 - 162 - 37 - 311 - 126 - 397 - 301 - 83 - 352 - 6 - 175 - 68 - 92 - 182 - 229 - 201 - 367 - 401 - 261 - 9 - 78 - 211 - 155 - 63 - 31 - 69 - 378 - 319 - 231 - 52 - 61 - 157 - 119 - 206 - 266 - 365 - 388 - 75 - 91 - 3 - 213 - 29 - 30 - 71 - 54 - 160 - 224 - 128 - 17 - 60 - 141 - 242 - 179 - 41 - 355 - 371 - 173 - 372 - 393 - 208 - 28 - 184 - 278 - 302 - 300 - 145 - 218 - 366 - 2 - 249 - 225 - 111 - 199 - 324 - 210 - 62 - 89 - 237 - 103 - 64 - 106 - 283 - 70 - 376 - 80 - 346 - 11 - 131 - 270 - 342 - 140 - 93 - 166 - 42 - 331 - 197 - 318 - 110 - 255 - 345 - 341 - 364 - 125 - 335 - 268 - 36 - 153 - 12 - 146 - 380 - 251 - 109 - 25 - 209 - 310 - 102 - 48 - 354 - 0 - 353 - 79 - 307 - 205 - 384 - 359 - 240 - 96 - 303 - 161 - 395 - 139 - 327 - 57 - 86 - 90 - 265 - 134 - 82 - 143 - 148 - 349 - 344 - 73 - 154 - 152 - 253 - 226 - 214 - 336 - 33 - 99 - 339 - 124 - 332 - 273 - 288 - 379 - 343 - 23 - 207 - 305 - 200 - 298 - 5 - 129 - 246 - 256 - 394 - 220 - 7 - 315 - 186 - 20 - 105 - 356 - 389 - 8 - 34 - 40 - 248 - 87 - 13 - 76 - 108 - 51 - 53 - 190 - 168 - 19 - 223 - 294 - 27 - 247 - 383 - 189 - 238 - 216 - 358 - 374 - 292 - 67 - 1 - 142 - 282 - 24 - 382 - 290 - 289 - 375 - 368 - 277 - 15 - 193 - 222 - 26 - 123 - 250 - 321 - 295 - 244 - 21 - 400 - 326 - 22 - 192 - 337 - 81 - 287 - 107 - 391 - 260 - 171 - 65 - 258 - 269 - 385 - 369 - 132 - 338 - 396 - 174 - 66 - 309 - 120 - 85 - 204 - 350 - 293 - 239 - 178 - 381 - 43 - 135 - 112 - 215 - 195 - 328 - 317 - 32 - 280 - 150 - 137 - 117 - 340 - 314 - 10 - 169 - 38 - 297 - 361 - 50 - 122 - 363 - 362 - 172 - 144 - 275 - 113 - 121 - 101
Koszt: 7185
Czas znalezienia[takty]: 0
Czas znalezienia[ms]: 0
Czas znalezienia[s]: 0
Iteracja znalezienia: 1546
Błąd względny = 191,480730223124
