Rozwiązanie dla problemu tsp_403:
Scieżka: 102 - 297 - 353 - 377 - 181 - 336 - 215 - 196 - 127 - 113 - 399 - 107 - 154 - 93 - 27 - 214 - 212 - 64 - 76 - 322 - 97 - 343 - 255 - 45 - 230 - 25 - 193 - 239 - 274 - 162 - 32 - 291 - 172 - 310 - 42 - 257 - 141 - 59 - 118 - 87 - 281 - 213 - 348 - 131 - 357 - 378 - 199 - 276 - 17 - 86 - 164 - 259 - 382 - 394 - 373 - 16 - 160 - 265 - 117 - 184 - 125 - 396 - 75 - 262 - 385 - 387 - 338 - 70 - 312 - 195 - 344 - 67 - 293 - 158 - 0 - 232 - 243 - 270 - 365 - 188 - 74 - 170 - 247 - 311 - 292 - 234 - 56 - 180 - 49 - 152 - 114 - 51 - 349 - 201 - 359 - 367 - 28 - 137 - 121 - 116 - 198 - 186 - 173 - 80 - 22 - 229 - 224 - 285 - 298 - 23 - 96 - 167 - 309 - 317 - 252 - 20 - 48 - 225 - 124 - 77 - 288 - 11 - 207 - 115 - 106 - 295 - 275 - 69 - 244 - 242 - 73 - 354 - 143 - 200 - 226 - 289 - 6 - 175 - 376 - 90 - 104 - 236 - 183 - 192 - 78 - 208 - 223 - 53 - 290 - 194 - 176 - 216 - 296 - 1 - 263 - 159 - 245 - 19 - 369 - 21 - 92 - 329 - 306 - 14 - 66 - 60 - 82 - 4 - 251 - 240 - 111 - 304 - 71 - 264 - 360 - 191 - 169 - 303 - 258 - 135 - 284 - 57 - 109 - 178 - 12 - 342 - 231 - 279 - 278 - 168 - 7 - 41 - 294 - 358 - 393 - 88 - 197 - 185 - 261 - 177 - 2 - 128 - 315 - 129 - 235 - 62 - 305 - 283 - 133 - 187 - 333 - 361 - 171 - 219 - 345 - 260 - 326 - 105 - 350 - 139 - 112 - 30 - 273 - 395 - 352 - 43 - 136 - 3 - 31 - 316 - 364 - 249 - 400 - 145 - 402 - 341 - 79 - 72 - 155 - 101 - 150 - 202 - 5 - 268 - 209 - 189 - 58 - 301 - 61 - 9 - 300 - 379 - 222 - 363 - 280 - 370 - 153 - 132 - 339 - 210 - 149 - 307 - 271 - 204 - 233 - 148 - 37 - 381 - 140 - 157 - 272 - 253 - 383 - 218 - 321 - 320 - 246 - 221 - 347 - 44 - 351 - 398 - 179 - 161 - 63 - 144 - 313 - 55 - 18 - 241 - 163 - 91 - 38 - 254 - 392 - 147 - 50 - 26 - 35 - 100 - 103 - 220 - 299 - 384 - 397 - 68 - 323 - 308 - 391 - 368 - 33 - 324 - 130 - 266 - 248 - 340 - 10 - 142 - 330 - 287 - 52 - 65 - 156 - 362 - 36 - 83 - 227 - 165 - 314 - 89 - 84 - 256 - 331 - 205 - 120 - 54 - 318 - 126 - 238 - 81 - 203 - 346 - 356 - 146 - 24 - 337 - 366 - 29 - 40 - 151 - 267 - 174 - 15 - 332 - 108 - 228 - 355 - 166 - 380 - 110 - 217 - 46 - 286 - 99 - 34 - 401 - 190 - 182 - 8 - 85 - 250 - 389 - 95 - 277 - 319 - 325 - 13 - 302 - 206 - 47 - 138 - 122 - 211 - 119 - 269 - 39 - 390 - 371 - 282 - 98 - 334 - 335 - 328 - 375 - 327 - 123 - 134 - 237 - 372 - 374 - 388 - 94 - 386 - 102
Koszt: 7176
Czas znalezienia[takty]: 0
Czas znalezienia[ms]: 0
Czas znalezienia[s]: 0
Iteracja znalezienia: 263
Błąd względny = 191,115618661258
