Rozwiązanie dla problemu tsp_403:
Scieżka: 119 - 29 - 198 - 328 - 107 - 242 - 325 - 217 - 402 - 13 - 320 - 345 - 32 - 326 - 312 - 391 - 128 - 181 - 238 - 177 - 170 - 276 - 396 - 105 - 131 - 184 - 265 - 145 - 287 - 318 - 84 - 307 - 176 - 90 - 94 - 88 - 364 - 165 - 191 - 316 - 383 - 234 - 344 - 115 - 102 - 239 - 397 - 354 - 156 - 270 - 214 - 99 - 97 - 35 - 196 - 30 - 167 - 103 - 0 - 39 - 341 - 333 - 311 - 62 - 371 - 352 - 284 - 80 - 91 - 384 - 389 - 68 - 400 - 174 - 353 - 112 - 319 - 6 - 175 - 346 - 85 - 114 - 20 - 300 - 273 - 146 - 132 - 298 - 390 - 339 - 179 - 225 - 358 - 285 - 11 - 34 - 308 - 266 - 240 - 243 - 83 - 71 - 54 - 173 - 331 - 381 - 79 - 61 - 9 - 160 - 49 - 211 - 350 - 106 - 186 - 158 - 55 - 260 - 306 - 221 - 264 - 120 - 210 - 259 - 66 - 257 - 282 - 205 - 290 - 374 - 395 - 199 - 299 - 190 - 254 - 194 - 124 - 340 - 255 - 57 - 224 - 161 - 64 - 43 - 392 - 26 - 164 - 3 - 230 - 129 - 69 - 237 - 303 - 401 - 209 - 367 - 150 - 256 - 111 - 59 - 327 - 291 - 135 - 154 - 8 - 117 - 18 - 126 - 127 - 272 - 187 - 202 - 137 - 322 - 394 - 41 - 118 - 269 - 108 - 70 - 17 - 201 - 247 - 294 - 192 - 48 - 148 - 357 - 75 - 261 - 324 - 101 - 271 - 51 - 366 - 398 - 60 - 144 - 155 - 385 - 172 - 301 - 334 - 347 - 219 - 335 - 218 - 382 - 122 - 22 - 244 - 356 - 379 - 233 - 16 - 134 - 31 - 100 - 359 - 116 - 73 - 47 - 121 - 163 - 275 - 63 - 152 - 159 - 2 - 314 - 197 - 377 - 293 - 213 - 336 - 166 - 189 - 4 - 110 - 245 - 313 - 297 - 332 - 373 - 263 - 342 - 141 - 14 - 337 - 1 - 93 - 157 - 142 - 279 - 208 - 56 - 67 - 182 - 19 - 138 - 140 - 38 - 393 - 76 - 370 - 178 - 349 - 171 - 288 - 289 - 204 - 45 - 248 - 193 - 365 - 252 - 143 - 317 - 246 - 46 - 104 - 310 - 278 - 72 - 360 - 37 - 28 - 77 - 268 - 42 - 267 - 40 - 98 - 183 - 195 - 380 - 200 - 251 - 378 - 162 - 388 - 74 - 78 - 12 - 295 - 338 - 58 - 151 - 277 - 36 - 23 - 10 - 223 - 329 - 53 - 5 - 136 - 387 - 368 - 281 - 375 - 250 - 133 - 180 - 226 - 399 - 149 - 304 - 215 - 296 - 87 - 355 - 253 - 185 - 153 - 315 - 231 - 123 - 188 - 235 - 113 - 130 - 286 - 309 - 258 - 232 - 15 - 216 - 249 - 24 - 95 - 203 - 207 - 363 - 348 - 33 - 369 - 21 - 92 - 376 - 25 - 96 - 227 - 147 - 386 - 44 - 27 - 125 - 81 - 229 - 274 - 169 - 362 - 139 - 292 - 222 - 220 - 212 - 89 - 7 - 52 - 262 - 241 - 372 - 283 - 280 - 82 - 323 - 168 - 321 - 228 - 65 - 206 - 305 - 302 - 86 - 50 - 343 - 109 - 330 - 361 - 236 - 351 - 119
Koszt: 7200
Czas znalezienia[takty]: 0
Czas znalezienia[ms]: 0
Czas znalezienia[s]: 0
Iteracja znalezienia: 108
Błąd względny = 192,089249492901
