Rozwiązanie dla problemu tsp_403:
Populacja ; 500 ; Mutacja ; 0,01 ; Krzyzowanie ; 0,5 ; Rozmiar Turnieju ; 5

Ograniczenie czasowe ; 30
Koszt ; Błąd[%] ; Iteracja ; Czas[takty zegara] ; Czas[ms] ; Czas [s]
7260 ; 100 ; 0 ; 3339 ; 1 ; 0,001
7260 ; 100 ; 1 ; 103757 ; 48 ; 0,048
7260 ; 100 ; 2 ; 203549 ; 94 ; 0,094
7260 ; 100 ; 3 ; 294292 ; 137 ; 0,137
7260 ; 100 ; 4 ; 397886 ; 185 ; 0,185
7260 ; 100 ; 5 ; 488934 ; 228 ; 0,228
7260 ; 100 ; 6 ; 596438 ; 278 ; 0,278
7260 ; 100 ; 7 ; 703072 ; 328 ; 0,328
7260 ; 100 ; 8 ; 804688 ; 375 ; 0,375
7260 ; 100 ; 9 ; 891789 ; 416 ; 0,416
7260 ; 100 ; 10 ; 978930 ; 456 ; 0,456
7260 ; 100 ; 11 ; 1064800 ; 496 ; 0,496
7260 ; 100 ; 12 ; 1164790 ; 543 ; 0,543
7260 ; 100 ; 13 ; 1263457 ; 589 ; 0,589
7260 ; 100 ; 14 ; 1355553 ; 632 ; 0,632
7260 ; 100 ; 15 ; 1457939 ; 680 ; 0,68
7260 ; 100 ; 16 ; 1550457 ; 723 ; 0,723
7260 ; 100 ; 17 ; 1641566 ; 765 ; 0,765
7260 ; 100 ; 18 ; 1742051 ; 812 ; 0,812
7260 ; 100 ; 19 ; 1833201 ; 855 ; 0,855
7260 ; 100 ; 20 ; 1846289 ; 861 ; 0,861
7260 ; 100 ; 21 ; 1932787 ; 901 ; 0,901
7260 ; 100 ; 22 ; 2047119 ; 955 ; 0,955
7260 ; 100 ; 23 ; 2133498 ; 995 ; 0,995
7260 ; 100 ; 24 ; 2236601 ; 1043 ; 1,043
7260 ; 100 ; 25 ; 2342421 ; 1092 ; 1,092
7260 ; 100 ; 26 ; 2445303 ; 1140 ; 1,14
7260 ; 100 ; 27 ; 2551665 ; 1190 ; 1,19
7260 ; 100 ; 28 ; 2654262 ; 1238 ; 1,238
7260 ; 100 ; 29 ; 2748596 ; 1282 ; 1,282
7260 ; 100 ; 30 ; 2866014 ; 1337 ; 1,337
7260 ; 100 ; 31 ; 2975852 ; 1388 ; 1,388
7260 ; 100 ; 32 ; 3070063 ; 1432 ; 1,432
7260 ; 100 ; 33 ; 3179918 ; 1483 ; 1,483
7260 ; 100 ; 34 ; 3276164 ; 1528 ; 1,528
7260 ; 100 ; 35 ; 3383789 ; 1578 ; 1,578
7260 ; 100 ; 36 ; 3465197 ; 1616 ; 1,616
7260 ; 100 ; 37 ; 3565456 ; 1663 ; 1,663
7260 ; 100 ; 38 ; 3672710 ; 1713 ; 1,713
7260 ; 100 ; 39 ; 3755241 ; 1751 ; 1,751
7260 ; 100 ; 40 ; 3853318 ; 1797 ; 1,797
7260 ; 100 ; 41 ; 3866854 ; 1804 ; 1,804
7260 ; 100 ; 42 ; 3961409 ; 1848 ; 1,848
7260 ; 100 ; 43 ; 4075090 ; 1901 ; 1,901
7260 ; 100 ; 44 ; 4216320 ; 1967 ; 1,967
7260 ; 100 ; 45 ; 4331211 ; 2020 ; 2,02
7260 ; 100 ; 46 ; 4440359 ; 2071 ; 2,071
7260 ; 100 ; 47 ; 4547733 ; 2121 ; 2,121
7260 ; 100 ; 48 ; 4626290 ; 2158 ; 2,158
7260 ; 100 ; 49 ; 4710456 ; 2197 ; 2,197
7260 ; 100 ; 50 ; 4798108 ; 2238 ; 2,238
7260 ; 100 ; 51 ; 4899520 ; 2285 ; 2,285
7260 ; 100 ; 52 ; 5002602 ; 2333 ; 2,333
7260 ; 100 ; 53 ; 5095751 ; 2377 ; 2,377
7260 ; 100 ; 54 ; 5188590 ; 2420 ; 2,42
7260 ; 100 ; 55 ; 5287492 ; 2466 ; 2,466
7260 ; 100 ; 56 ; 5382264 ; 2511 ; 2,511
7260 ; 100 ; 57 ; 5489511 ; 2561 ; 2,561
7260 ; 100 ; 58 ; 5577256 ; 2601 ; 2,601
7260 ; 100 ; 59 ; 5691255 ; 2655 ; 2,655
7260 ; 100 ; 60 ; 5778218 ; 2695 ; 2,695
7260 ; 100 ; 61 ; 5872999 ; 2739 ; 2,739
7260 ; 100 ; 62 ; 5943901 ; 2773 ; 2,773
7260 ; 100 ; 63 ; 6027038 ; 2811 ; 2,811
7260 ; 100 ; 64 ; 6118149 ; 2854 ; 2,854
7260 ; 100 ; 65 ; 6208960 ; 2896 ; 2,896
7260 ; 100 ; 66 ; 6290871 ; 2934 ; 2,934
7260 ; 100 ; 67 ; 6390308 ; 2981 ; 2,981
7260 ; 100 ; 68 ; 6495980 ; 3030 ; 3,03
7260 ; 100 ; 69 ; 6584890 ; 3072 ; 3,072
7260 ; 100 ; 70 ; 6668101 ; 3110 ; 3,11
7260 ; 100 ; 71 ; 6749540 ; 3148 ; 3,148
7260 ; 100 ; 72 ; 6826843 ; 3184 ; 3,184
7260 ; 100 ; 73 ; 6920612 ; 3228 ; 3,228
7260 ; 100 ; 74 ; 7005616 ; 3268 ; 3,268
7260 ; 100 ; 75 ; 7099554 ; 3312 ; 3,312
7260 ; 100 ; 76 ; 7193237 ; 3355 ; 3,355
7260 ; 100 ; 77 ; 7289457 ; 3400 ; 3,4
7260 ; 100 ; 78 ; 7301516 ; 3406 ; 3,406
7260 ; 100 ; 79 ; 7313440 ; 3411 ; 3,411
7260 ; 100 ; 80 ; 7400435 ; 3452 ; 3,452
7260 ; 100 ; 81 ; 7509673 ; 3503 ; 3,503
7260 ; 100 ; 82 ; 7601121 ; 3546 ; 3,546
7260 ; 100 ; 83 ; 7694956 ; 3589 ; 3,589
7260 ; 100 ; 84 ; 7775637 ; 3627 ; 3,627
7260 ; 100 ; 85 ; 7872203 ; 3672 ; 3,672
7260 ; 100 ; 86 ; 7968329 ; 3717 ; 3,717
7260 ; 100 ; 87 ; 7980283 ; 3723 ; 3,723
7260 ; 100 ; 88 ; 8064193 ; 3762 ; 3,762
7260 ; 100 ; 89 ; 8161686 ; 3807 ; 3,807
7260 ; 100 ; 90 ; 8260555 ; 3853 ; 3,853
7260 ; 100 ; 91 ; 8368484 ; 3904 ; 3,904
7260 ; 100 ; 92 ; 8462173 ; 3947 ; 3,947
7260 ; 100 ; 93 ; 8474672 ; 3953 ; 3,953
7260 ; 100 ; 94 ; 8566996 ; 3996 ; 3,996
7260 ; 100 ; 95 ; 8656220 ; 4038 ; 4,038
7260 ; 100 ; 96 ; 8754231 ; 4084 ; 4,084
7260 ; 100 ; 97 ; 8847042 ; 4127 ; 4,127
7260 ; 100 ; 98 ; 8941066 ; 4171 ; 4,171
7260 ; 100 ; 99 ; 9033015 ; 4214 ; 4,214
7260 ; 100 ; 100 ; 9132375 ; 4260 ; 4,26
7260 ; 100 ; 101 ; 9221666 ; 4302 ; 4,302
7260 ; 100 ; 102 ; 9314322 ; 4345 ; 4,345
7260 ; 100 ; 103 ; 9400453 ; 4385 ; 4,385
7260 ; 100 ; 104 ; 9500275 ; 4432 ; 4,432
7260 ; 100 ; 105 ; 9585958 ; 4472 ; 4,472
7260 ; 100 ; 106 ; 9681020 ; 4516 ; 4,516
7260 ; 100 ; 107 ; 9789270 ; 4567 ; 4,567
7260 ; 100 ; 108 ; 9898155 ; 4617 ; 4,617
7260 ; 100 ; 109 ; 9983881 ; 4657 ; 4,657
7260 ; 100 ; 110 ; 10068545 ; 4697 ; 4,697
7260 ; 100 ; 111 ; 10152425 ; 4736 ; 4,736
7260 ; 100 ; 112 ; 10246084 ; 4780 ; 4,78
7260 ; 100 ; 113 ; 10258211 ; 4785 ; 4,785
7260 ; 100 ; 114 ; 10351633 ; 4829 ; 4,829
7260 ; 100 ; 115 ; 10454204 ; 4877 ; 4,877
7260 ; 100 ; 116 ; 10546152 ; 4920 ; 4,92
7260 ; 100 ; 117 ; 10640975 ; 4964 ; 4,964
7260 ; 100 ; 118 ; 10724368 ; 5003 ; 5,003
7260 ; 100 ; 119 ; 10803927 ; 5040 ; 5,04
7260 ; 100 ; 120 ; 10887941 ; 5079 ; 5,079
7260 ; 100 ; 121 ; 10991454 ; 5127 ; 5,127
7260 ; 100 ; 122 ; 11003375 ; 5133 ; 5,133
7260 ; 100 ; 123 ; 11111773 ; 5184 ; 5,184
7260 ; 100 ; 124 ; 11213591 ; 5231 ; 5,231
7260 ; 100 ; 125 ; 11309194 ; 5276 ; 5,276
7260 ; 100 ; 126 ; 11407791 ; 5322 ; 5,322
7260 ; 100 ; 127 ; 11510867 ; 5370 ; 5,37
7260 ; 100 ; 128 ; 11611306 ; 5417 ; 5,417
7260 ; 100 ; 129 ; 11704720 ; 5460 ; 5,46
7260 ; 100 ; 130 ; 11833753 ; 5520 ; 5,52
7260 ; 100 ; 131 ; 11932101 ; 5566 ; 5,566
7260 ; 100 ; 132 ; 12026847 ; 5610 ; 5,61
7260 ; 100 ; 133 ; 12112284 ; 5650 ; 5,65
7230 ; 100 ; 134 ; 12196617 ; 5690 ; 5,69
7230 ; 100 ; 135 ; 12285614 ; 5731 ; 5,731
7230 ; 100 ; 136 ; 12375263 ; 5773 ; 5,773
7230 ; 100 ; 137 ; 12473617 ; 5819 ; 5,819
7230 ; 100 ; 138 ; 12568225 ; 5863 ; 5,863
7230 ; 100 ; 139 ; 12666314 ; 5909 ; 5,909
7230 ; 100 ; 140 ; 12763869 ; 5954 ; 5,954
7230 ; 100 ; 141 ; 12775283 ; 5960 ; 5,96
7230 ; 100 ; 142 ; 12872957 ; 6005 ; 6,005
7230 ; 100 ; 143 ; 12959285 ; 6045 ; 6,045
7230 ; 100 ; 144 ; 13056508 ; 6091 ; 6,091
7230 ; 100 ; 145 ; 13153064 ; 6136 ; 6,136
7230 ; 100 ; 146 ; 13248307 ; 6180 ; 6,18
7230 ; 100 ; 147 ; 13369990 ; 6237 ; 6,237
7230 ; 100 ; 148 ; 13382134 ; 6243 ; 6,243
7230 ; 100 ; 149 ; 13395841 ; 6249 ; 6,249
7230 ; 100 ; 150 ; 13407998 ; 6255 ; 6,255
7230 ; 100 ; 151 ; 13419457 ; 6260 ; 6,26
7230 ; 100 ; 152 ; 13523034 ; 6308 ; 6,308
7230 ; 100 ; 153 ; 13627946 ; 6357 ; 6,357
7230 ; 100 ; 154 ; 13712231 ; 6397 ; 6,397
7230 ; 100 ; 155 ; 13809266 ; 6442 ; 6,442
7230 ; 100 ; 156 ; 13897413 ; 6483 ; 6,483
7230 ; 100 ; 157 ; 13908828 ; 6488 ; 6,488
7230 ; 100 ; 158 ; 14007167 ; 6534 ; 6,534
7230 ; 100 ; 159 ; 14116662 ; 6585 ; 6,585
7230 ; 100 ; 160 ; 14218403 ; 6633 ; 6,633
7230 ; 100 ; 161 ; 14311256 ; 6676 ; 6,676
7230 ; 100 ; 162 ; 14423179 ; 6728 ; 6,728
7230 ; 100 ; 163 ; 14529925 ; 6778 ; 6,778
7230 ; 100 ; 164 ; 14622230 ; 6821 ; 6,821
7230 ; 100 ; 165 ; 14708020 ; 6861 ; 6,861
7230 ; 100 ; 166 ; 14719917 ; 6867 ; 6,867
7230 ; 100 ; 167 ; 14806003 ; 6907 ; 6,907
7230 ; 100 ; 168 ; 14894975 ; 6948 ; 6,948
7230 ; 100 ; 169 ; 14980895 ; 6989 ; 6,989
7230 ; 100 ; 170 ; 15083252 ; 7036 ; 7,036
7230 ; 100 ; 171 ; 15094840 ; 7042 ; 7,042
7230 ; 100 ; 172 ; 15189861 ; 7086 ; 7,086
7230 ; 100 ; 173 ; 15289969 ; 7133 ; 7,133
7230 ; 100 ; 174 ; 15303947 ; 7139 ; 7,139
7230 ; 100 ; 175 ; 15382152 ; 7176 ; 7,176
7230 ; 100 ; 176 ; 15462262 ; 7213 ; 7,213
7230 ; 100 ; 177 ; 15573642 ; 7265 ; 7,265
7230 ; 100 ; 178 ; 15659581 ; 7305 ; 7,305
7230 ; 100 ; 179 ; 15670957 ; 7311 ; 7,311
7230 ; 100 ; 180 ; 15771308 ; 7357 ; 7,357
7230 ; 100 ; 181 ; 15872659 ; 7405 ; 7,405
7230 ; 100 ; 182 ; 15883798 ; 7410 ; 7,41
7230 ; 100 ; 183 ; 15971708 ; 7451 ; 7,451
7230 ; 100 ; 184 ; 16064037 ; 7494 ; 7,494
7230 ; 100 ; 185 ; 16149813 ; 7534 ; 7,534
7230 ; 100 ; 186 ; 16255249 ; 7583 ; 7,583
7230 ; 100 ; 187 ; 16266271 ; 7588 ; 7,588
7230 ; 100 ; 188 ; 16364813 ; 7634 ; 7,634
7230 ; 100 ; 189 ; 16456143 ; 7677 ; 7,677
7230 ; 100 ; 190 ; 16553651 ; 7722 ; 7,722
7230 ; 100 ; 191 ; 16565167 ; 7728 ; 7,728
7230 ; 100 ; 192 ; 16576598 ; 7733 ; 7,733
7230 ; 100 ; 193 ; 16682520 ; 7782 ; 7,782
7230 ; 100 ; 194 ; 16783903 ; 7830 ; 7,83
7230 ; 100 ; 195 ; 16880334 ; 7875 ; 7,875
7230 ; 100 ; 196 ; 16960853 ; 7912 ; 7,912
7230 ; 100 ; 197 ; 16972563 ; 7918 ; 7,918
7230 ; 100 ; 198 ; 17072314 ; 7964 ; 7,964
7230 ; 100 ; 199 ; 17153254 ; 8002 ; 8,002
7230 ; 100 ; 200 ; 17242396 ; 8044 ; 8,044
7230 ; 100 ; 201 ; 17329142 ; 8084 ; 8,084
7230 ; 100 ; 202 ; 17420264 ; 8127 ; 8,127
7230 ; 100 ; 203 ; 17514601 ; 8171 ; 8,171
7230 ; 100 ; 204 ; 17595783 ; 8209 ; 8,209
7230 ; 100 ; 205 ; 17688474 ; 8252 ; 8,252
7230 ; 100 ; 206 ; 17776311 ; 8293 ; 8,293
7230 ; 100 ; 207 ; 17860642 ; 8332 ; 8,332
7230 ; 100 ; 208 ; 17872378 ; 8338 ; 8,338
7230 ; 100 ; 209 ; 17972553 ; 8384 ; 8,384
7230 ; 100 ; 210 ; 18058259 ; 8424 ; 8,424
7230 ; 100 ; 211 ; 18069273 ; 8429 ; 8,429
7230 ; 100 ; 212 ; 18081206 ; 8435 ; 8,435
7230 ; 100 ; 213 ; 18183572 ; 8483 ; 8,483
7230 ; 100 ; 214 ; 18282725 ; 8529 ; 8,529
7230 ; 100 ; 215 ; 18383651 ; 8576 ; 8,576
7230 ; 100 ; 216 ; 18475950 ; 8619 ; 8,619
7230 ; 100 ; 217 ; 18486850 ; 8624 ; 8,624
7230 ; 100 ; 218 ; 18581724 ; 8668 ; 8,668
7230 ; 100 ; 219 ; 18678364 ; 8714 ; 8,714
7230 ; 100 ; 220 ; 18819762 ; 8780 ; 8,78
7230 ; 100 ; 221 ; 18922853 ; 8828 ; 8,828
7230 ; 100 ; 222 ; 19007337 ; 8867 ; 8,867
7230 ; 100 ; 223 ; 19104472 ; 8912 ; 8,912
7230 ; 100 ; 224 ; 19115496 ; 8917 ; 8,917
7230 ; 100 ; 225 ; 19207302 ; 8960 ; 8,96
7230 ; 100 ; 226 ; 19306856 ; 9007 ; 9,007
7230 ; 100 ; 227 ; 19318134 ; 9012 ; 9,012
7230 ; 100 ; 228 ; 19411881 ; 9056 ; 9,056
7230 ; 100 ; 229 ; 19518379 ; 9105 ; 9,105
7230 ; 100 ; 230 ; 19605923 ; 9146 ; 9,146
7230 ; 100 ; 231 ; 19694674 ; 9188 ; 9,188
7230 ; 100 ; 232 ; 19705371 ; 9193 ; 9,193
7230 ; 100 ; 233 ; 19796573 ; 9235 ; 9,235
7230 ; 100 ; 234 ; 19884636 ; 9276 ; 9,276
7230 ; 100 ; 235 ; 19987554 ; 9324 ; 9,324
7230 ; 100 ; 236 ; 20079666 ; 9367 ; 9,367
7230 ; 100 ; 237 ; 20178151 ; 9413 ; 9,413
7230 ; 100 ; 238 ; 20268640 ; 9455 ; 9,455
7230 ; 100 ; 239 ; 20279332 ; 9460 ; 9,46
7230 ; 100 ; 240 ; 20368694 ; 9502 ; 9,502
7230 ; 100 ; 241 ; 20466283 ; 9548 ; 9,548
7230 ; 100 ; 242 ; 20477671 ; 9553 ; 9,553
7230 ; 100 ; 243 ; 20552427 ; 9588 ; 9,588
7230 ; 100 ; 244 ; 20564101 ; 9593 ; 9,593
7230 ; 100 ; 245 ; 20683846 ; 9649 ; 9,649
7230 ; 100 ; 246 ; 20796472 ; 9702 ; 9,702
7230 ; 100 ; 247 ; 20908665 ; 9754 ; 9,754
7230 ; 100 ; 248 ; 20920303 ; 9759 ; 9,759
7230 ; 100 ; 249 ; 21028096 ; 9810 ; 9,81
7230 ; 100 ; 250 ; 21039320 ; 9815 ; 9,815
7230 ; 100 ; 251 ; 21050344 ; 9820 ; 9,82
7230 ; 100 ; 252 ; 21134424 ; 9859 ; 9,859
7230 ; 100 ; 253 ; 21145716 ; 9865 ; 9,865
7230 ; 100 ; 254 ; 21156867 ; 9870 ; 9,87
7230 ; 100 ; 255 ; 21262484 ; 9919 ; 9,919
7230 ; 100 ; 256 ; 21273224 ; 9924 ; 9,924
7230 ; 100 ; 257 ; 21368925 ; 9969 ; 9,969
7230 ; 100 ; 258 ; 21453247 ; 10008 ; 10,008
7230 ; 100 ; 259 ; 21568625 ; 10062 ; 10,062
7230 ; 100 ; 260 ; 21661881 ; 10105 ; 10,105
7230 ; 100 ; 261 ; 21672379 ; 10110 ; 10,11
7230 ; 100 ; 262 ; 21758677 ; 10151 ; 10,151
7230 ; 100 ; 263 ; 21769224 ; 10156 ; 10,156
7230 ; 100 ; 264 ; 21861819 ; 10199 ; 10,199
7230 ; 100 ; 265 ; 21954256 ; 10242 ; 10,242
7230 ; 100 ; 266 ; 22042964 ; 10283 ; 10,283
7230 ; 100 ; 267 ; 22148229 ; 10332 ; 10,332
7230 ; 100 ; 268 ; 22242030 ; 10376 ; 10,376
7230 ; 100 ; 269 ; 22327818 ; 10416 ; 10,416
7230 ; 100 ; 270 ; 22338729 ; 10421 ; 10,421
7230 ; 100 ; 271 ; 22436163 ; 10467 ; 10,467
7230 ; 100 ; 272 ; 22534504 ; 10513 ; 10,513
7230 ; 100 ; 273 ; 22632233 ; 10558 ; 10,558
7230 ; 100 ; 274 ; 22715077 ; 10597 ; 10,597
7230 ; 100 ; 275 ; 22726139 ; 10602 ; 10,602
7230 ; 100 ; 276 ; 22737623 ; 10607 ; 10,607
7230 ; 100 ; 277 ; 22814070 ; 10643 ; 10,643
7230 ; 100 ; 278 ; 22916586 ; 10691 ; 10,691
7230 ; 100 ; 279 ; 23000794 ; 10730 ; 10,73
7230 ; 100 ; 280 ; 23092943 ; 10773 ; 10,773
7230 ; 100 ; 281 ; 23175699 ; 10812 ; 10,812
7230 ; 100 ; 282 ; 23195449 ; 10821 ; 10,821
7230 ; 100 ; 283 ; 23294411 ; 10867 ; 10,867
7230 ; 100 ; 284 ; 23387968 ; 10911 ; 10,911
7230 ; 100 ; 285 ; 23399279 ; 10916 ; 10,916
7230 ; 100 ; 286 ; 23487958 ; 10957 ; 10,957
7230 ; 100 ; 287 ; 23590277 ; 11005 ; 11,005
7230 ; 100 ; 288 ; 23600910 ; 11010 ; 11,01
7230 ; 100 ; 289 ; 23613276 ; 11016 ; 11,016
7230 ; 100 ; 290 ; 23746087 ; 11078 ; 11,078
7230 ; 100 ; 291 ; 23840852 ; 11122 ; 11,122
7230 ; 100 ; 292 ; 23923141 ; 11160 ; 11,16
7230 ; 100 ; 293 ; 24032713 ; 11212 ; 11,212
7230 ; 100 ; 294 ; 24051973 ; 11221 ; 11,221
7230 ; 100 ; 295 ; 24209311 ; 11294 ; 11,294
7230 ; 100 ; 296 ; 24228061 ; 11303 ; 11,303
7230 ; 100 ; 297 ; 24349798 ; 11359 ; 11,359
7230 ; 100 ; 298 ; 24457142 ; 11410 ; 11,41
7230 ; 100 ; 299 ; 24471762 ; 11416 ; 11,416
7230 ; 100 ; 300 ; 24584373 ; 11469 ; 11,469
7230 ; 100 ; 301 ; 24598638 ; 11476 ; 11,476
7230 ; 100 ; 302 ; 24616415 ; 11484 ; 11,484
7230 ; 100 ; 303 ; 24634025 ; 11492 ; 11,492
7230 ; 100 ; 304 ; 24649893 ; 11499 ; 11,499
7230 ; 100 ; 305 ; 24758038 ; 11550 ; 11,55
7230 ; 100 ; 306 ; 24899826 ; 11616 ; 11,616
7230 ; 100 ; 307 ; 25010946 ; 11668 ; 11,668
7230 ; 100 ; 308 ; 25028813 ; 11676 ; 11,676
7230 ; 100 ; 309 ; 25041007 ; 11682 ; 11,682
7230 ; 100 ; 310 ; 25156145 ; 11736 ; 11,736
7230 ; 100 ; 311 ; 25287293 ; 11797 ; 11,797
7230 ; 100 ; 312 ; 25395481 ; 11847 ; 11,847
7230 ; 100 ; 313 ; 25408052 ; 11853 ; 11,853
7230 ; 100 ; 314 ; 25529269 ; 11910 ; 11,91
7230 ; 100 ; 315 ; 25654566 ; 11968 ; 11,968
7230 ; 100 ; 316 ; 25665826 ; 11973 ; 11,973
7230 ; 100 ; 317 ; 25677198 ; 11979 ; 11,979
7230 ; 100 ; 318 ; 25688752 ; 11984 ; 11,984
7230 ; 100 ; 319 ; 25820441 ; 12046 ; 12,046
7230 ; 100 ; 320 ; 25840282 ; 12055 ; 12,055
7230 ; 100 ; 321 ; 25977035 ; 12119 ; 12,119
7230 ; 100 ; 322 ; 26090467 ; 12172 ; 12,172
7230 ; 100 ; 323 ; 26183366 ; 12215 ; 12,215
7230 ; 100 ; 324 ; 26273526 ; 12257 ; 12,257
7230 ; 100 ; 325 ; 26368622 ; 12301 ; 12,301
7230 ; 100 ; 326 ; 26462172 ; 12345 ; 12,345
7230 ; 100 ; 327 ; 26474278 ; 12351 ; 12,351
7230 ; 100 ; 328 ; 26485593 ; 12356 ; 12,356
7230 ; 100 ; 329 ; 26585764 ; 12403 ; 12,403
7230 ; 100 ; 330 ; 26675873 ; 12445 ; 12,445
7230 ; 100 ; 331 ; 26776089 ; 12491 ; 12,491
7230 ; 100 ; 332 ; 26874236 ; 12537 ; 12,537
7230 ; 100 ; 333 ; 26884987 ; 12542 ; 12,542
7230 ; 100 ; 334 ; 26895362 ; 12547 ; 12,547
7230 ; 100 ; 335 ; 26995353 ; 12594 ; 12,594
7230 ; 100 ; 336 ; 27081345 ; 12634 ; 12,634
7230 ; 100 ; 337 ; 27172645 ; 12676 ; 12,676
7230 ; 100 ; 338 ; 27250482 ; 12713 ; 12,713
7230 ; 100 ; 339 ; 27339192 ; 12754 ; 12,754
7230 ; 100 ; 340 ; 27350570 ; 12759 ; 12,759
7230 ; 100 ; 341 ; 27361395 ; 12764 ; 12,764
7230 ; 100 ; 342 ; 27371898 ; 12769 ; 12,769
7230 ; 100 ; 343 ; 27468786 ; 12815 ; 12,815
7230 ; 100 ; 344 ; 27560782 ; 12857 ; 12,857
7230 ; 100 ; 345 ; 27646606 ; 12898 ; 12,898
7230 ; 100 ; 346 ; 27658293 ; 12903 ; 12,903
7230 ; 100 ; 347 ; 27669439 ; 12908 ; 12,908
7230 ; 100 ; 348 ; 27786739 ; 12963 ; 12,963
7230 ; 100 ; 349 ; 27899627 ; 13016 ; 13,016
7230 ; 100 ; 350 ; 27987584 ; 13057 ; 13,057
7230 ; 100 ; 351 ; 28072511 ; 13096 ; 13,096
7230 ; 100 ; 352 ; 28164463 ; 13139 ; 13,139
7230 ; 100 ; 353 ; 28271850 ; 13189 ; 13,189
7230 ; 100 ; 354 ; 28284238 ; 13195 ; 13,195
7230 ; 100 ; 355 ; 28403235 ; 13251 ; 13,251
7230 ; 100 ; 356 ; 28515645 ; 13303 ; 13,303
7230 ; 100 ; 357 ; 28606328 ; 13345 ; 13,345
7230 ; 100 ; 358 ; 28700786 ; 13389 ; 13,389
7230 ; 100 ; 359 ; 28800581 ; 13436 ; 13,436
7230 ; 100 ; 360 ; 28811168 ; 13441 ; 13,441
7230 ; 100 ; 361 ; 28908311 ; 13486 ; 13,486
7230 ; 100 ; 362 ; 29024826 ; 13541 ; 13,541
7230 ; 100 ; 363 ; 29117252 ; 13584 ; 13,584
7230 ; 100 ; 364 ; 29218553 ; 13631 ; 13,631
7230 ; 100 ; 365 ; 29229095 ; 13636 ; 13,636
7230 ; 100 ; 366 ; 29319807 ; 13678 ; 13,678
7230 ; 100 ; 367 ; 29404906 ; 13718 ; 13,718
7230 ; 100 ; 368 ; 29501441 ; 13763 ; 13,763
7230 ; 100 ; 369 ; 29511941 ; 13768 ; 13,768
7230 ; 100 ; 370 ; 29615253 ; 13816 ; 13,816
7230 ; 100 ; 371 ; 29696558 ; 13854 ; 13,854
7230 ; 100 ; 372 ; 29706892 ; 13859 ; 13,859
7230 ; 100 ; 373 ; 29802862 ; 13903 ; 13,903
7230 ; 100 ; 374 ; 29888750 ; 13944 ; 13,944
7230 ; 100 ; 375 ; 29977849 ; 13985 ; 13,985
7230 ; 100 ; 376 ; 30069007 ; 14028 ; 14,028
7230 ; 100 ; 377 ; 30079678 ; 14033 ; 14,033
7230 ; 100 ; 378 ; 30090086 ; 14037 ; 14,037
7230 ; 100 ; 379 ; 30101118 ; 14043 ; 14,043
7230 ; 100 ; 380 ; 30186121 ; 14082 ; 14,082
7230 ; 100 ; 381 ; 30286007 ; 14129 ; 14,129
7230 ; 100 ; 382 ; 30296915 ; 14134 ; 14,134
7230 ; 100 ; 383 ; 30308265 ; 14139 ; 14,139
7230 ; 100 ; 384 ; 30404300 ; 14184 ; 14,184
7230 ; 100 ; 385 ; 30508062 ; 14232 ; 14,232
7230 ; 100 ; 386 ; 30518466 ; 14237 ; 14,237
7230 ; 100 ; 387 ; 30530290 ; 14243 ; 14,243
7230 ; 100 ; 388 ; 30542143 ; 14248 ; 14,248
7230 ; 100 ; 389 ; 30637838 ; 14293 ; 14,293
7230 ; 100 ; 390 ; 30648421 ; 14298 ; 14,298
7230 ; 100 ; 391 ; 30658752 ; 14303 ; 14,303
7230 ; 100 ; 392 ; 30751586 ; 14346 ; 14,346
7230 ; 100 ; 393 ; 30843042 ; 14389 ; 14,389
7230 ; 100 ; 394 ; 30853879 ; 14394 ; 14,394
7230 ; 100 ; 395 ; 30936022 ; 14432 ; 14,432
7230 ; 100 ; 396 ; 30946558 ; 14437 ; 14,437
7230 ; 100 ; 397 ; 31043140 ; 14482 ; 14,482
7230 ; 100 ; 398 ; 31138297 ; 14527 ; 14,527
7230 ; 100 ; 399 ; 31149203 ; 14532 ; 14,532
7230 ; 100 ; 400 ; 31243030 ; 14575 ; 14,575
7230 ; 100 ; 401 ; 31334352 ; 14618 ; 14,618
7230 ; 100 ; 402 ; 31345387 ; 14623 ; 14,623
7230 ; 100 ; 403 ; 31356032 ; 14628 ; 14,628
7230 ; 100 ; 404 ; 31367396 ; 14633 ; 14,633
7230 ; 100 ; 405 ; 31378895 ; 14639 ; 14,639
7230 ; 100 ; 406 ; 31481972 ; 14687 ; 14,687
7230 ; 100 ; 407 ; 31492263 ; 14692 ; 14,692
7230 ; 100 ; 408 ; 31502736 ; 14697 ; 14,697
7230 ; 100 ; 409 ; 31512720 ; 14701 ; 14,701
7230 ; 100 ; 410 ; 31522753 ; 14706 ; 14,706
7230 ; 100 ; 411 ; 31620217 ; 14751 ; 14,751
7230 ; 100 ; 412 ; 31630320 ; 14756 ; 14,756
7230 ; 100 ; 413 ; 31640734 ; 14761 ; 14,761
7230 ; 100 ; 414 ; 31736127 ; 14805 ; 14,805
7230 ; 100 ; 415 ; 31828013 ; 14848 ; 14,848
7230 ; 100 ; 416 ; 31838939 ; 14853 ; 14,853
7230 ; 100 ; 417 ; 31849366 ; 14858 ; 14,858
7230 ; 100 ; 418 ; 31939792 ; 14900 ; 14,9
7230 ; 100 ; 419 ; 32020687 ; 14938 ; 14,938
7230 ; 100 ; 420 ; 32121136 ; 14985 ; 14,985
7230 ; 100 ; 421 ; 32199416 ; 15022 ; 15,022
7230 ; 100 ; 422 ; 32283874 ; 15061 ; 15,061
7230 ; 100 ; 423 ; 32376834 ; 15104 ; 15,104
7230 ; 100 ; 424 ; 32474397 ; 15150 ; 15,15
7230 ; 100 ; 425 ; 32572260 ; 15196 ; 15,196
7230 ; 100 ; 426 ; 32582114 ; 15200 ; 15,2
7230 ; 100 ; 427 ; 32592303 ; 15205 ; 15,205
7230 ; 100 ; 428 ; 32602336 ; 15210 ; 15,21
7230 ; 100 ; 429 ; 32612442 ; 15214 ; 15,214
7230 ; 100 ; 430 ; 32622636 ; 15219 ; 15,219
7230 ; 100 ; 431 ; 32632712 ; 15224 ; 15,224
7230 ; 100 ; 432 ; 32643084 ; 15229 ; 15,229
7230 ; 100 ; 433 ; 32653160 ; 15233 ; 15,233
7230 ; 100 ; 434 ; 32663499 ; 15238 ; 15,238
7230 ; 100 ; 435 ; 32764521 ; 15285 ; 15,285
7230 ; 100 ; 436 ; 32774526 ; 15290 ; 15,29
7230 ; 100 ; 437 ; 32872560 ; 15336 ; 15,336
7230 ; 100 ; 438 ; 32882756 ; 15340 ; 15,34
7230 ; 100 ; 439 ; 32982146 ; 15387 ; 15,387
7230 ; 100 ; 440 ; 32992319 ; 15391 ; 15,391
7230 ; 100 ; 441 ; 33002757 ; 15396 ; 15,396
7230 ; 100 ; 442 ; 33117307 ; 15450 ; 15,45
7230 ; 100 ; 443 ; 33127335 ; 15454 ; 15,454
7230 ; 100 ; 444 ; 33137381 ; 15459 ; 15,459
7230 ; 100 ; 445 ; 33148085 ; 15464 ; 15,464
7230 ; 100 ; 446 ; 33158025 ; 15469 ; 15,469
7230 ; 100 ; 447 ; 33168436 ; 15474 ; 15,474
7230 ; 100 ; 448 ; 33179236 ; 15479 ; 15,479
7230 ; 100 ; 449 ; 33274100 ; 15523 ; 15,523
7230 ; 100 ; 450 ; 33360652 ; 15563 ; 15,563
7230 ; 100 ; 451 ; 33371063 ; 15568 ; 15,568
7230 ; 100 ; 452 ; 33381229 ; 15573 ; 15,573
7230 ; 100 ; 453 ; 33391680 ; 15578 ; 15,578
7230 ; 100 ; 454 ; 33402570 ; 15583 ; 15,583
7230 ; 100 ; 455 ; 33500199 ; 15628 ; 15,628
7230 ; 100 ; 456 ; 33510280 ; 15633 ; 15,633
7230 ; 100 ; 457 ; 33520753 ; 15638 ; 15,638
7230 ; 100 ; 458 ; 33605179 ; 15677 ; 15,677
7230 ; 100 ; 459 ; 33615847 ; 15682 ; 15,682
7230 ; 100 ; 460 ; 33726370 ; 15734 ; 15,734
7230 ; 100 ; 461 ; 33736676 ; 15739 ; 15,739
7230 ; 100 ; 462 ; 33746460 ; 15743 ; 15,743
7230 ; 100 ; 463 ; 33757123 ; 15748 ; 15,748
7230 ; 100 ; 464 ; 33767323 ; 15753 ; 15,753
7230 ; 100 ; 465 ; 33868049 ; 15800 ; 15,8
7230 ; 100 ; 466 ; 33878326 ; 15805 ; 15,805
7230 ; 100 ; 467 ; 33971323 ; 15848 ; 15,848
7230 ; 100 ; 468 ; 33981585 ; 15853 ; 15,853
7230 ; 100 ; 469 ; 34067648 ; 15893 ; 15,893
7230 ; 100 ; 470 ; 34078191 ; 15898 ; 15,898
7230 ; 100 ; 471 ; 34164662 ; 15938 ; 15,938
7230 ; 100 ; 472 ; 34174734 ; 15943 ; 15,943
7230 ; 100 ; 473 ; 34185269 ; 15948 ; 15,948
7230 ; 100 ; 474 ; 34278416 ; 15991 ; 15,991
7230 ; 100 ; 475 ; 34289006 ; 15996 ; 15,996
7230 ; 100 ; 476 ; 34299112 ; 16001 ; 16,001
7230 ; 100 ; 477 ; 34386214 ; 16042 ; 16,042
7230 ; 100 ; 478 ; 34396787 ; 16047 ; 16,047
7230 ; 100 ; 479 ; 34407321 ; 16052 ; 16,052
7230 ; 100 ; 480 ; 34496779 ; 16093 ; 16,093
7230 ; 100 ; 481 ; 34507575 ; 16098 ; 16,098
7230 ; 100 ; 482 ; 34601686 ; 16142 ; 16,142
7230 ; 100 ; 483 ; 34612571 ; 16147 ; 16,147
7230 ; 100 ; 484 ; 34712667 ; 16194 ; 16,194
7230 ; 100 ; 485 ; 34804974 ; 16237 ; 16,237
7230 ; 100 ; 486 ; 34815189 ; 16242 ; 16,242
7230 ; 100 ; 487 ; 34919953 ; 16291 ; 16,291
7230 ; 100 ; 488 ; 35018524 ; 16337 ; 16,337
7230 ; 100 ; 489 ; 35029675 ; 16342 ; 16,342
7230 ; 100 ; 490 ; 35040975 ; 16347 ; 16,347
7230 ; 100 ; 491 ; 35052062 ; 16352 ; 16,352
7230 ; 100 ; 492 ; 35062832 ; 16357 ; 16,357
7230 ; 100 ; 493 ; 35073896 ; 16363 ; 16,363
7230 ; 100 ; 494 ; 35084717 ; 16368 ; 16,368
7230 ; 100 ; 495 ; 35095490 ; 16373 ; 16,373
7230 ; 100 ; 496 ; 35200399 ; 16422 ; 16,422
7230 ; 100 ; 497 ; 35312489 ; 16474 ; 16,474
7230 ; 100 ; 498 ; 35419662 ; 16524 ; 16,524
7230 ; 100 ; 499 ; 35507954 ; 16565 ; 16,565
7230 ; 100 ; 500 ; 35518090 ; 16570 ; 16,57
7230 ; 100 ; 501 ; 35528336 ; 16575 ; 16,575
7230 ; 100 ; 502 ; 35538283 ; 16579 ; 16,579
7230 ; 100 ; 503 ; 35548372 ; 16584 ; 16,584
7230 ; 100 ; 504 ; 35625412 ; 16620 ; 16,62
7230 ; 100 ; 505 ; 35635598 ; 16625 ; 16,625
7230 ; 100 ; 506 ; 35718768 ; 16663 ; 16,663
7230 ; 100 ; 507 ; 35728884 ; 16668 ; 16,668
7230 ; 100 ; 508 ; 35824080 ; 16713 ; 16,713
7230 ; 100 ; 509 ; 35918616 ; 16757 ; 16,757
7230 ; 100 ; 510 ; 35929433 ; 16762 ; 16,762
7230 ; 100 ; 511 ; 35939312 ; 16766 ; 16,766
7230 ; 100 ; 512 ; 36029605 ; 16808 ; 16,808
7230 ; 100 ; 513 ; 36123216 ; 16852 ; 16,852
7230 ; 100 ; 514 ; 36133525 ; 16857 ; 16,857
7230 ; 100 ; 515 ; 36144098 ; 16862 ; 16,862
7230 ; 100 ; 516 ; 36154123 ; 16867 ; 16,867
7230 ; 100 ; 517 ; 36237218 ; 16905 ; 16,905
7230 ; 100 ; 518 ; 36247330 ; 16910 ; 16,91
7230 ; 100 ; 519 ; 36258473 ; 16915 ; 16,915
7230 ; 100 ; 520 ; 36268693 ; 16920 ; 16,92
7230 ; 100 ; 521 ; 36365966 ; 16965 ; 16,965
7230 ; 100 ; 522 ; 36376007 ; 16970 ; 16,97
7230 ; 100 ; 523 ; 36386548 ; 16975 ; 16,975
7230 ; 100 ; 524 ; 36396984 ; 16980 ; 16,98
7230 ; 100 ; 525 ; 36501800 ; 17029 ; 17,029
7230 ; 100 ; 526 ; 36511749 ; 17033 ; 17,033
7230 ; 100 ; 527 ; 36521576 ; 17038 ; 17,038
7230 ; 100 ; 528 ; 36531810 ; 17043 ; 17,043
7230 ; 100 ; 529 ; 36614790 ; 17081 ; 17,081
7230 ; 100 ; 530 ; 36695090 ; 17119 ; 17,119
7230 ; 100 ; 531 ; 36705410 ; 17124 ; 17,124
7230 ; 100 ; 532 ; 36809144 ; 17172 ; 17,172
7230 ; 100 ; 533 ; 36893204 ; 17211 ; 17,211
7230 ; 100 ; 534 ; 36904094 ; 17216 ; 17,216
7230 ; 100 ; 535 ; 37011611 ; 17267 ; 17,267
7230 ; 100 ; 536 ; 37021842 ; 17271 ; 17,271
7230 ; 100 ; 537 ; 37104218 ; 17310 ; 17,31
7230 ; 100 ; 538 ; 37114774 ; 17315 ; 17,315
7230 ; 100 ; 539 ; 37124552 ; 17319 ; 17,319
7230 ; 100 ; 540 ; 37209891 ; 17359 ; 17,359
7230 ; 100 ; 541 ; 37220621 ; 17364 ; 17,364
7230 ; 100 ; 542 ; 37306802 ; 17404 ; 17,404
7230 ; 100 ; 543 ; 37317134 ; 17409 ; 17,409
7230 ; 100 ; 544 ; 37401208 ; 17448 ; 17,448
7230 ; 100 ; 545 ; 37496760 ; 17493 ; 17,493
7230 ; 100 ; 546 ; 37507531 ; 17498 ; 17,498
7230 ; 100 ; 547 ; 37517721 ; 17503 ; 17,503
7230 ; 100 ; 548 ; 37529553 ; 17508 ; 17,508
7230 ; 100 ; 549 ; 37539705 ; 17513 ; 17,513
7230 ; 100 ; 550 ; 37550128 ; 17518 ; 17,518
7230 ; 100 ; 551 ; 37643526 ; 17561 ; 17,561
7230 ; 100 ; 552 ; 37735145 ; 17604 ; 17,604
7230 ; 100 ; 553 ; 37744863 ; 17609 ; 17,609
7230 ; 100 ; 554 ; 37755283 ; 17614 ; 17,614
7230 ; 100 ; 555 ; 37765141 ; 17618 ; 17,618
7230 ; 100 ; 556 ; 37775679 ; 17623 ; 17,623
7230 ; 100 ; 557 ; 37786268 ; 17628 ; 17,628
7230 ; 100 ; 558 ; 37879563 ; 17672 ; 17,672
7230 ; 100 ; 559 ; 37889577 ; 17676 ; 17,676
7230 ; 100 ; 560 ; 37900546 ; 17681 ; 17,681
7230 ; 100 ; 561 ; 37911999 ; 17687 ; 17,687
7230 ; 100 ; 562 ; 37922307 ; 17691 ; 17,691
7230 ; 100 ; 563 ; 37932657 ; 17696 ; 17,696
7230 ; 100 ; 564 ; 37942959 ; 17701 ; 17,701
7230 ; 100 ; 565 ; 37952731 ; 17706 ; 17,706
7230 ; 100 ; 566 ; 37962669 ; 17710 ; 17,71
7230 ; 100 ; 567 ; 37973447 ; 17715 ; 17,715
7230 ; 100 ; 568 ; 38062831 ; 17757 ; 17,757
7230 ; 100 ; 569 ; 38150655 ; 17798 ; 17,798
7230 ; 100 ; 570 ; 38160990 ; 17803 ; 17,803
7230 ; 100 ; 571 ; 38171276 ; 17808 ; 17,808
7230 ; 100 ; 572 ; 38181462 ; 17812 ; 17,812
7230 ; 100 ; 573 ; 38285527 ; 17861 ; 17,861
7230 ; 100 ; 574 ; 38295620 ; 17866 ; 17,866
7230 ; 100 ; 575 ; 38305651 ; 17870 ; 17,87
7230 ; 100 ; 576 ; 38403606 ; 17916 ; 17,916
7230 ; 100 ; 577 ; 38413335 ; 17921 ; 17,921
7230 ; 100 ; 578 ; 38515856 ; 17968 ; 17,968
7230 ; 100 ; 579 ; 38525868 ; 17973 ; 17,973
7230 ; 100 ; 580 ; 38535851 ; 17978 ; 17,978
7230 ; 100 ; 581 ; 38546362 ; 17983 ; 17,983
7230 ; 100 ; 582 ; 38647943 ; 18030 ; 18,03
7230 ; 100 ; 583 ; 38658106 ; 18035 ; 18,035
7230 ; 100 ; 584 ; 38748988 ; 18077 ; 18,077
7230 ; 100 ; 585 ; 38845185 ; 18122 ; 18,122
7230 ; 100 ; 586 ; 38942099 ; 18167 ; 18,167
7230 ; 100 ; 587 ; 38952075 ; 18172 ; 18,172
7230 ; 100 ; 588 ; 38962694 ; 18177 ; 18,177
7230 ; 100 ; 589 ; 38972919 ; 18182 ; 18,182
7230 ; 100 ; 590 ; 38983086 ; 18186 ; 18,186
7230 ; 100 ; 591 ; 38993128 ; 18191 ; 18,191
7230 ; 100 ; 592 ; 39003294 ; 18196 ; 18,196
7230 ; 100 ; 593 ; 39104720 ; 18243 ; 18,243
7230 ; 100 ; 594 ; 39194411 ; 18285 ; 18,285
7230 ; 100 ; 595 ; 39204471 ; 18290 ; 18,29
7230 ; 100 ; 596 ; 39215037 ; 18295 ; 18,295
7230 ; 100 ; 597 ; 39289294 ; 18329 ; 18,329
7230 ; 100 ; 598 ; 39299275 ; 18334 ; 18,334
7230 ; 100 ; 599 ; 39309181 ; 18339 ; 18,339
7230 ; 100 ; 600 ; 39319439 ; 18343 ; 18,343
7230 ; 100 ; 601 ; 39425992 ; 18393 ; 18,393
7230 ; 100 ; 602 ; 39436493 ; 18398 ; 18,398
7230 ; 100 ; 603 ; 39446473 ; 18403 ; 18,403
7230 ; 100 ; 604 ; 39456553 ; 18407 ; 18,407
7230 ; 100 ; 605 ; 39466836 ; 18412 ; 18,412
7230 ; 100 ; 606 ; 39563515 ; 18457 ; 18,457
7230 ; 100 ; 607 ; 39574101 ; 18462 ; 18,462
7230 ; 100 ; 608 ; 39583856 ; 18467 ; 18,467
7230 ; 100 ; 609 ; 39593810 ; 18471 ; 18,471
7230 ; 100 ; 610 ; 39687962 ; 18515 ; 18,515
7230 ; 100 ; 611 ; 39697857 ; 18520 ; 18,52
7230 ; 100 ; 612 ; 39707827 ; 18524 ; 18,524
7230 ; 100 ; 613 ; 39717984 ; 18529 ; 18,529
7230 ; 100 ; 614 ; 39728044 ; 18534 ; 18,534
7230 ; 100 ; 615 ; 39738129 ; 18539 ; 18,539
7230 ; 100 ; 616 ; 39832811 ; 18583 ; 18,583
7230 ; 100 ; 617 ; 39842882 ; 18587 ; 18,587
7230 ; 100 ; 618 ; 39916780 ; 18622 ; 18,622
7230 ; 100 ; 619 ; 39926735 ; 18627 ; 18,627
7230 ; 100 ; 620 ; 39937005 ; 18631 ; 18,631
7230 ; 100 ; 621 ; 39946718 ; 18636 ; 18,636
7230 ; 100 ; 622 ; 40036139 ; 18678 ; 18,678
7230 ; 100 ; 623 ; 40046371 ; 18682 ; 18,682
7230 ; 100 ; 624 ; 40056465 ; 18687 ; 18,687
7230 ; 100 ; 625 ; 40066266 ; 18692 ; 18,692
7230 ; 100 ; 626 ; 40163790 ; 18737 ; 18,737
7230 ; 100 ; 627 ; 40174501 ; 18742 ; 18,742
7230 ; 100 ; 628 ; 40185020 ; 18747 ; 18,747
7230 ; 100 ; 629 ; 40195289 ; 18752 ; 18,752
7230 ; 100 ; 630 ; 40271504 ; 18787 ; 18,787
7230 ; 100 ; 631 ; 40281721 ; 18792 ; 18,792
7230 ; 100 ; 632 ; 40291755 ; 18797 ; 18,797
7230 ; 100 ; 633 ; 40301951 ; 18802 ; 18,802
7230 ; 100 ; 634 ; 40311641 ; 18806 ; 18,806
7230 ; 100 ; 635 ; 40322760 ; 18811 ; 18,811
7230 ; 100 ; 636 ; 40332662 ; 18816 ; 18,816
7230 ; 100 ; 637 ; 40342999 ; 18821 ; 18,821
7230 ; 100 ; 638 ; 40353279 ; 18826 ; 18,826
7230 ; 100 ; 639 ; 40363393 ; 18830 ; 18,83
7230 ; 100 ; 640 ; 40457210 ; 18874 ; 18,874
7230 ; 100 ; 641 ; 40546088 ; 18916 ; 18,916
7230 ; 100 ; 642 ; 40556410 ; 18920 ; 18,92
7230 ; 100 ; 643 ; 40566376 ; 18925 ; 18,925
7230 ; 100 ; 644 ; 40660711 ; 18969 ; 18,969
7230 ; 100 ; 645 ; 40762757 ; 19017 ; 19,017
7230 ; 100 ; 646 ; 40772830 ; 19021 ; 19,021
7230 ; 100 ; 647 ; 40860032 ; 19062 ; 19,062
7230 ; 100 ; 648 ; 40962716 ; 19110 ; 19,11
7230 ; 100 ; 649 ; 41051406 ; 19151 ; 19,151
7230 ; 100 ; 650 ; 41061730 ; 19156 ; 19,156
7230 ; 100 ; 651 ; 41072391 ; 19161 ; 19,161
7230 ; 100 ; 652 ; 41174869 ; 19209 ; 19,209
7230 ; 100 ; 653 ; 41185073 ; 19214 ; 19,214
7230 ; 100 ; 654 ; 41271919 ; 19254 ; 19,254
7230 ; 100 ; 655 ; 41369790 ; 19300 ; 19,3
7230 ; 100 ; 656 ; 41379835 ; 19305 ; 19,305
7230 ; 100 ; 657 ; 41390244 ; 19309 ; 19,309
7230 ; 100 ; 658 ; 41400936 ; 19314 ; 19,314
7230 ; 100 ; 659 ; 41411400 ; 19319 ; 19,319
7230 ; 100 ; 660 ; 41422061 ; 19324 ; 19,324
7230 ; 100 ; 661 ; 41432557 ; 19329 ; 19,329
7230 ; 100 ; 662 ; 41531095 ; 19375 ; 19,375
7230 ; 100 ; 663 ; 41630737 ; 19422 ; 19,422
7230 ; 100 ; 664 ; 41640602 ; 19426 ; 19,426
7230 ; 100 ; 665 ; 41651046 ; 19431 ; 19,431
7230 ; 100 ; 666 ; 41660897 ; 19436 ; 19,436
7230 ; 100 ; 667 ; 41670859 ; 19440 ; 19,44
7230 ; 100 ; 668 ; 41763875 ; 19484 ; 19,484
7230 ; 100 ; 669 ; 41774048 ; 19488 ; 19,488
7230 ; 100 ; 670 ; 41784328 ; 19493 ; 19,493
7230 ; 100 ; 671 ; 41794695 ; 19498 ; 19,498
7230 ; 100 ; 672 ; 41895385 ; 19545 ; 19,545
7230 ; 100 ; 673 ; 41905481 ; 19550 ; 19,55
7230 ; 100 ; 674 ; 41915685 ; 19555 ; 19,555
7230 ; 100 ; 675 ; 41925803 ; 19559 ; 19,559
7230 ; 100 ; 676 ; 42026100 ; 19606 ; 19,606
7230 ; 100 ; 677 ; 42036738 ; 19611 ; 19,611
7230 ; 100 ; 678 ; 42122761 ; 19651 ; 19,651
7230 ; 100 ; 679 ; 42210146 ; 19692 ; 19,692
7230 ; 100 ; 680 ; 42221292 ; 19697 ; 19,697
7230 ; 100 ; 681 ; 42310528 ; 19739 ; 19,739
7230 ; 100 ; 682 ; 42409642 ; 19785 ; 19,785
7230 ; 100 ; 683 ; 42419409 ; 19790 ; 19,79
7230 ; 100 ; 684 ; 42430276 ; 19795 ; 19,795
7230 ; 100 ; 685 ; 42532891 ; 19842 ; 19,842
7230 ; 100 ; 686 ; 42543196 ; 19847 ; 19,847
7230 ; 100 ; 687 ; 42553061 ; 19852 ; 19,852
7230 ; 100 ; 688 ; 42562998 ; 19857 ; 19,857
7230 ; 100 ; 689 ; 42573331 ; 19861 ; 19,861
7230 ; 100 ; 690 ; 42583359 ; 19866 ; 19,866
7230 ; 100 ; 691 ; 42688378 ; 19915 ; 19,915
7230 ; 100 ; 692 ; 42698526 ; 19920 ; 19,92
7230 ; 100 ; 693 ; 42708418 ; 19924 ; 19,924
7230 ; 100 ; 694 ; 42718686 ; 19929 ; 19,929
7230 ; 100 ; 695 ; 42729119 ; 19934 ; 19,934
7230 ; 100 ; 696 ; 42739134 ; 19939 ; 19,939
7230 ; 100 ; 697 ; 42749226 ; 19943 ; 19,943
7230 ; 100 ; 698 ; 42759565 ; 19948 ; 19,948
7230 ; 100 ; 699 ; 42769478 ; 19953 ; 19,953
7230 ; 100 ; 700 ; 42866397 ; 19998 ; 19,998
7230 ; 100 ; 701 ; 42876570 ; 20003 ; 20,003
7230 ; 100 ; 702 ; 42886754 ; 20008 ; 20,008
7230 ; 100 ; 703 ; 42983844 ; 20053 ; 20,053
7230 ; 100 ; 704 ; 42993519 ; 20057 ; 20,057
7230 ; 100 ; 705 ; 43004218 ; 20062 ; 20,062
7230 ; 100 ; 706 ; 43014005 ; 20067 ; 20,067
7230 ; 100 ; 707 ; 43123620 ; 20118 ; 20,118
7230 ; 100 ; 708 ; 43230158 ; 20168 ; 20,168
7230 ; 100 ; 709 ; 43240257 ; 20172 ; 20,172
7230 ; 100 ; 710 ; 43250312 ; 20177 ; 20,177
7230 ; 100 ; 711 ; 43260860 ; 20182 ; 20,182
7230 ; 100 ; 712 ; 43356043 ; 20226 ; 20,226
7230 ; 100 ; 713 ; 43366331 ; 20231 ; 20,231
7230 ; 100 ; 714 ; 43376236 ; 20236 ; 20,236
7230 ; 100 ; 715 ; 43386275 ; 20241 ; 20,241
7230 ; 100 ; 716 ; 43396780 ; 20246 ; 20,246
7230 ; 100 ; 717 ; 43483874 ; 20286 ; 20,286
7230 ; 100 ; 718 ; 43575931 ; 20329 ; 20,329
7230 ; 100 ; 719 ; 43680871 ; 20378 ; 20,378
7230 ; 100 ; 720 ; 43775943 ; 20422 ; 20,422
7230 ; 100 ; 721 ; 43863211 ; 20463 ; 20,463
7230 ; 100 ; 722 ; 43873266 ; 20468 ; 20,468
7230 ; 100 ; 723 ; 43965980 ; 20511 ; 20,511
7230 ; 100 ; 724 ; 44064669 ; 20557 ; 20,557
7230 ; 100 ; 725 ; 44075406 ; 20562 ; 20,562
7230 ; 100 ; 726 ; 44085382 ; 20567 ; 20,567
7230 ; 100 ; 727 ; 44172796 ; 20608 ; 20,608
7230 ; 100 ; 728 ; 44274374 ; 20655 ; 20,655
7230 ; 100 ; 729 ; 44284566 ; 20660 ; 20,66
7230 ; 100 ; 730 ; 44295046 ; 20665 ; 20,665
7230 ; 100 ; 731 ; 44386142 ; 20707 ; 20,707
7230 ; 100 ; 732 ; 44397322 ; 20712 ; 20,712
7230 ; 100 ; 733 ; 44407803 ; 20717 ; 20,717
7230 ; 100 ; 734 ; 44497076 ; 20759 ; 20,759
7230 ; 100 ; 735 ; 44508405 ; 20764 ; 20,764
7230 ; 100 ; 736 ; 44518972 ; 20769 ; 20,769
7230 ; 100 ; 737 ; 44529009 ; 20774 ; 20,774
7230 ; 100 ; 738 ; 44619102 ; 20816 ; 20,816
7230 ; 100 ; 739 ; 44720691 ; 20863 ; 20,863
7230 ; 100 ; 740 ; 44816399 ; 20908 ; 20,908
7230 ; 100 ; 741 ; 44828015 ; 20913 ; 20,913
7230 ; 100 ; 742 ; 44838277 ; 20918 ; 20,918
7230 ; 100 ; 743 ; 44924179 ; 20958 ; 20,958
7230 ; 100 ; 744 ; 45018817 ; 21002 ; 21,002
7230 ; 100 ; 745 ; 45029047 ; 21007 ; 21,007
7230 ; 100 ; 746 ; 45118596 ; 21049 ; 21,049
7230 ; 100 ; 747 ; 45128726 ; 21054 ; 21,054
7230 ; 100 ; 748 ; 45139683 ; 21059 ; 21,059
7230 ; 100 ; 749 ; 45151094 ; 21064 ; 21,064
7230 ; 100 ; 750 ; 45245132 ; 21108 ; 21,108
7230 ; 100 ; 751 ; 45257462 ; 21114 ; 21,114
7230 ; 100 ; 752 ; 45267868 ; 21118 ; 21,118
7230 ; 100 ; 753 ; 45277876 ; 21123 ; 21,123
7230 ; 100 ; 754 ; 45375324 ; 21169 ; 21,169
7230 ; 100 ; 755 ; 45385606 ; 21173 ; 21,173
7230 ; 100 ; 756 ; 45396421 ; 21178 ; 21,178
7230 ; 100 ; 757 ; 45489307 ; 21222 ; 21,222
7230 ; 100 ; 758 ; 45500085 ; 21227 ; 21,227
7230 ; 100 ; 759 ; 45596594 ; 21272 ; 21,272
7230 ; 100 ; 760 ; 45693063 ; 21317 ; 21,317
7230 ; 100 ; 761 ; 45783507 ; 21359 ; 21,359
7230 ; 100 ; 762 ; 45883991 ; 21406 ; 21,406
7230 ; 100 ; 763 ; 45989762 ; 21455 ; 21,455
7230 ; 100 ; 764 ; 46078875 ; 21497 ; 21,497
7230 ; 100 ; 765 ; 46168360 ; 21539 ; 21,539
7230 ; 100 ; 766 ; 46179271 ; 21544 ; 21,544
7230 ; 100 ; 767 ; 46268950 ; 21585 ; 21,585
7230 ; 100 ; 768 ; 46279134 ; 21590 ; 21,59
7230 ; 100 ; 769 ; 46379698 ; 21637 ; 21,637
7230 ; 100 ; 770 ; 46390447 ; 21642 ; 21,642
7230 ; 100 ; 771 ; 46492215 ; 21690 ; 21,69
7230 ; 100 ; 772 ; 46502950 ; 21695 ; 21,695
7230 ; 100 ; 773 ; 46514575 ; 21700 ; 21,7
7230 ; 100 ; 774 ; 46525070 ; 21705 ; 21,705
7230 ; 100 ; 775 ; 46535912 ; 21710 ; 21,71
7230 ; 100 ; 776 ; 46546576 ; 21715 ; 21,715
7230 ; 100 ; 777 ; 46650096 ; 21763 ; 21,763
7230 ; 100 ; 778 ; 46752340 ; 21811 ; 21,811
7230 ; 100 ; 779 ; 46848392 ; 21856 ; 21,856
7230 ; 100 ; 780 ; 46859000 ; 21861 ; 21,861
7230 ; 100 ; 781 ; 46943425 ; 21900 ; 21,9
7230 ; 100 ; 782 ; 47034922 ; 21943 ; 21,943
7230 ; 100 ; 783 ; 47048870 ; 21949 ; 21,949
7230 ; 100 ; 784 ; 47136693 ; 21990 ; 21,99
7230 ; 100 ; 785 ; 47249237 ; 22043 ; 22,043
7230 ; 100 ; 786 ; 47259646 ; 22048 ; 22,048
7230 ; 100 ; 787 ; 47269993 ; 22052 ; 22,052
7230 ; 100 ; 788 ; 47279930 ; 22057 ; 22,057
7230 ; 100 ; 789 ; 47290639 ; 22062 ; 22,062
7230 ; 100 ; 790 ; 47300377 ; 22067 ; 22,067
7230 ; 100 ; 791 ; 47391913 ; 22109 ; 22,109
7230 ; 100 ; 792 ; 47509587 ; 22164 ; 22,164
7230 ; 100 ; 793 ; 47593482 ; 22203 ; 22,203
7230 ; 100 ; 794 ; 47696288 ; 22251 ; 22,251
7230 ; 100 ; 795 ; 47706822 ; 22256 ; 22,256
7230 ; 100 ; 796 ; 47717860 ; 22261 ; 22,261
7230 ; 100 ; 797 ; 47728122 ; 22266 ; 22,266
7230 ; 100 ; 798 ; 47827265 ; 22312 ; 22,312
7230 ; 100 ; 799 ; 47923780 ; 22357 ; 22,357
7230 ; 100 ; 800 ; 47935119 ; 22363 ; 22,363
7230 ; 100 ; 801 ; 48017351 ; 22401 ; 22,401
7230 ; 100 ; 802 ; 48027866 ; 22406 ; 22,406
7230 ; 100 ; 803 ; 48037954 ; 22411 ; 22,411
7230 ; 100 ; 804 ; 48048739 ; 22416 ; 22,416
7230 ; 100 ; 805 ; 48058863 ; 22421 ; 22,421
7230 ; 100 ; 806 ; 48068869 ; 22425 ; 22,425
7230 ; 100 ; 807 ; 48161314 ; 22468 ; 22,468
7230 ; 100 ; 808 ; 48171505 ; 22473 ; 22,473
7230 ; 100 ; 809 ; 48282840 ; 22525 ; 22,525
7230 ; 100 ; 810 ; 48294271 ; 22530 ; 22,53
7230 ; 100 ; 811 ; 48391953 ; 22576 ; 22,576
7230 ; 100 ; 812 ; 48490990 ; 22622 ; 22,622
7230 ; 100 ; 813 ; 48581247 ; 22664 ; 22,664
7230 ; 100 ; 814 ; 48591444 ; 22669 ; 22,669
7230 ; 100 ; 815 ; 48601350 ; 22674 ; 22,674
7230 ; 100 ; 816 ; 48612172 ; 22679 ; 22,679
7230 ; 100 ; 817 ; 48623303 ; 22684 ; 22,684
7230 ; 100 ; 818 ; 48633143 ; 22688 ; 22,688
7230 ; 100 ; 819 ; 48711734 ; 22725 ; 22,725
7230 ; 100 ; 820 ; 48722415 ; 22730 ; 22,73
7230 ; 100 ; 821 ; 48812973 ; 22772 ; 22,772
7230 ; 100 ; 822 ; 48908346 ; 22817 ; 22,817
7230 ; 100 ; 823 ; 48918690 ; 22822 ; 22,822
7230 ; 100 ; 824 ; 49007708 ; 22863 ; 22,863
7230 ; 100 ; 825 ; 49017633 ; 22868 ; 22,868
7230 ; 100 ; 826 ; 49027936 ; 22873 ; 22,873
7230 ; 100 ; 827 ; 49116914 ; 22914 ; 22,914
7230 ; 100 ; 828 ; 49207113 ; 22956 ; 22,956
7230 ; 100 ; 829 ; 49218231 ; 22961 ; 22,961
7230 ; 100 ; 830 ; 49228890 ; 22966 ; 22,966
7230 ; 100 ; 831 ; 49239058 ; 22971 ; 22,971
7230 ; 100 ; 832 ; 49249189 ; 22976 ; 22,976
7230 ; 100 ; 833 ; 49259735 ; 22981 ; 22,981
7230 ; 100 ; 834 ; 49269725 ; 22985 ; 22,985
7230 ; 100 ; 835 ; 49279859 ; 22990 ; 22,99
7230 ; 100 ; 836 ; 49381556 ; 23038 ; 23,038
7230 ; 100 ; 837 ; 49467051 ; 23077 ; 23,077
7230 ; 100 ; 838 ; 49558111 ; 23120 ; 23,12
7230 ; 100 ; 839 ; 49669642 ; 23172 ; 23,172
7230 ; 100 ; 840 ; 49682408 ; 23178 ; 23,178
7230 ; 100 ; 841 ; 49757692 ; 23213 ; 23,213
7230 ; 100 ; 842 ; 49767708 ; 23218 ; 23,218
7230 ; 100 ; 843 ; 49879241 ; 23270 ; 23,27
7230 ; 100 ; 844 ; 49889027 ; 23274 ; 23,274
7230 ; 100 ; 845 ; 49993952 ; 23323 ; 23,323
7230 ; 100 ; 846 ; 50094574 ; 23370 ; 23,37
7230 ; 100 ; 847 ; 50104415 ; 23375 ; 23,375
7230 ; 100 ; 848 ; 50191520 ; 23415 ; 23,415
7230 ; 100 ; 849 ; 50281818 ; 23458 ; 23,458
7230 ; 100 ; 850 ; 50292660 ; 23463 ; 23,463
7230 ; 100 ; 851 ; 50412301 ; 23518 ; 23,518
7230 ; 100 ; 852 ; 50423307 ; 23524 ; 23,524
7230 ; 100 ; 853 ; 50433919 ; 23529 ; 23,529
7230 ; 100 ; 854 ; 50517630 ; 23568 ; 23,568
7230 ; 100 ; 855 ; 50527576 ; 23572 ; 23,572
7230 ; 100 ; 856 ; 50538364 ; 23577 ; 23,577
7230 ; 100 ; 857 ; 50625495 ; 23618 ; 23,618
7230 ; 100 ; 858 ; 50635589 ; 23623 ; 23,623
7230 ; 100 ; 859 ; 50711380 ; 23658 ; 23,658
7230 ; 100 ; 860 ; 50800662 ; 23700 ; 23,7
7230 ; 100 ; 861 ; 50811325 ; 23705 ; 23,705
7230 ; 100 ; 862 ; 50910467 ; 23751 ; 23,751
7230 ; 100 ; 863 ; 51004732 ; 23795 ; 23,795
7230 ; 100 ; 864 ; 51109147 ; 23844 ; 23,844
7230 ; 100 ; 865 ; 51120035 ; 23849 ; 23,849
7230 ; 100 ; 866 ; 51212498 ; 23892 ; 23,892
7230 ; 100 ; 867 ; 51308493 ; 23937 ; 23,937
7230 ; 100 ; 868 ; 51319047 ; 23941 ; 23,941
7230 ; 100 ; 869 ; 51330638 ; 23947 ; 23,947
7230 ; 100 ; 870 ; 51432233 ; 23994 ; 23,994
7230 ; 100 ; 871 ; 51443402 ; 24000 ; 24
7230 ; 100 ; 872 ; 51539772 ; 24044 ; 24,044
7230 ; 100 ; 873 ; 51637417 ; 24090 ; 24,09
7230 ; 100 ; 874 ; 51648436 ; 24095 ; 24,095
7230 ; 100 ; 875 ; 51658746 ; 24100 ; 24,1
7230 ; 100 ; 876 ; 51669516 ; 24105 ; 24,105
7230 ; 100 ; 877 ; 51740089 ; 24138 ; 24,138
7230 ; 100 ; 878 ; 51750852 ; 24143 ; 24,143
7230 ; 100 ; 879 ; 51831664 ; 24181 ; 24,181
7230 ; 100 ; 880 ; 51842265 ; 24186 ; 24,186
7230 ; 100 ; 881 ; 51939834 ; 24231 ; 24,231
7230 ; 100 ; 882 ; 52044456 ; 24280 ; 24,28
7230 ; 100 ; 883 ; 52054247 ; 24284 ; 24,284
7230 ; 100 ; 884 ; 52064283 ; 24289 ; 24,289
7230 ; 100 ; 885 ; 52075118 ; 24294 ; 24,294
7230 ; 100 ; 886 ; 52176715 ; 24342 ; 24,342
7230 ; 100 ; 887 ; 52273298 ; 24387 ; 24,387
7230 ; 100 ; 888 ; 52283433 ; 24391 ; 24,391
7230 ; 100 ; 889 ; 52294160 ; 24396 ; 24,396
7230 ; 100 ; 890 ; 52304380 ; 24401 ; 24,401
7230 ; 100 ; 891 ; 52314235 ; 24406 ; 24,406
7230 ; 100 ; 892 ; 52324572 ; 24411 ; 24,411
7230 ; 100 ; 893 ; 52418963 ; 24455 ; 24,455
7230 ; 100 ; 894 ; 52430085 ; 24460 ; 24,46
7230 ; 100 ; 895 ; 52523766 ; 24504 ; 24,504
7230 ; 100 ; 896 ; 52533710 ; 24508 ; 24,508
7230 ; 100 ; 897 ; 52544150 ; 24513 ; 24,513
7230 ; 100 ; 898 ; 52629297 ; 24553 ; 24,553
7230 ; 100 ; 899 ; 52639464 ; 24558 ; 24,558
7230 ; 100 ; 900 ; 52718455 ; 24594 ; 24,594
7230 ; 100 ; 901 ; 52810192 ; 24637 ; 24,637
7230 ; 100 ; 902 ; 52820119 ; 24642 ; 24,642
7230 ; 100 ; 903 ; 52920312 ; 24689 ; 24,689
7230 ; 100 ; 904 ; 52930925 ; 24693 ; 24,693
7230 ; 100 ; 905 ; 52940991 ; 24698 ; 24,698
7230 ; 100 ; 906 ; 52951009 ; 24703 ; 24,703
7230 ; 100 ; 907 ; 52961042 ; 24708 ; 24,708
7230 ; 100 ; 908 ; 52972343 ; 24713 ; 24,713
7230 ; 100 ; 909 ; 53056684 ; 24752 ; 24,752
7230 ; 100 ; 910 ; 53066730 ; 24757 ; 24,757
7230 ; 100 ; 911 ; 53076783 ; 24762 ; 24,762
7230 ; 100 ; 912 ; 53087254 ; 24766 ; 24,766
7230 ; 100 ; 913 ; 53097049 ; 24771 ; 24,771
7230 ; 100 ; 914 ; 53107624 ; 24776 ; 24,776
7230 ; 100 ; 915 ; 53117376 ; 24780 ; 24,78
7230 ; 100 ; 916 ; 53127243 ; 24785 ; 24,785
7230 ; 100 ; 917 ; 53136853 ; 24790 ; 24,79
7230 ; 100 ; 918 ; 53234834 ; 24835 ; 24,835
7230 ; 100 ; 919 ; 53245271 ; 24840 ; 24,84
7230 ; 100 ; 920 ; 53330316 ; 24880 ; 24,88
7230 ; 100 ; 921 ; 53340474 ; 24885 ; 24,885
7230 ; 100 ; 922 ; 53350708 ; 24889 ; 24,889
7230 ; 100 ; 923 ; 53360643 ; 24894 ; 24,894
7230 ; 100 ; 924 ; 53371814 ; 24899 ; 24,899
7230 ; 100 ; 925 ; 53382326 ; 24904 ; 24,904
7230 ; 100 ; 926 ; 53460761 ; 24941 ; 24,941
7230 ; 100 ; 927 ; 53558435 ; 24986 ; 24,986
7230 ; 100 ; 928 ; 53649797 ; 25029 ; 25,029
7230 ; 100 ; 929 ; 53659548 ; 25033 ; 25,033
7230 ; 100 ; 930 ; 53669423 ; 25038 ; 25,038
7230 ; 100 ; 931 ; 53763742 ; 25082 ; 25,082
7230 ; 100 ; 932 ; 53774336 ; 25087 ; 25,087
7230 ; 100 ; 933 ; 53884146 ; 25138 ; 25,138
7230 ; 100 ; 934 ; 53894536 ; 25143 ; 25,143
7230 ; 100 ; 935 ; 53904818 ; 25148 ; 25,148
7230 ; 100 ; 936 ; 53914750 ; 25152 ; 25,152
7230 ; 100 ; 937 ; 53924603 ; 25157 ; 25,157
7230 ; 100 ; 938 ; 54021951 ; 25202 ; 25,202
7230 ; 100 ; 939 ; 54117301 ; 25247 ; 25,247
7230 ; 100 ; 940 ; 54225250 ; 25297 ; 25,297
7230 ; 100 ; 941 ; 54330223 ; 25346 ; 25,346
7230 ; 100 ; 942 ; 54340189 ; 25351 ; 25,351
7230 ; 100 ; 943 ; 54350805 ; 25356 ; 25,356
7230 ; 100 ; 944 ; 54360970 ; 25361 ; 25,361
7230 ; 100 ; 945 ; 54444568 ; 25400 ; 25,4
7230 ; 100 ; 946 ; 54454592 ; 25404 ; 25,404
7230 ; 100 ; 947 ; 54464855 ; 25409 ; 25,409
7230 ; 100 ; 948 ; 54555093 ; 25451 ; 25,451
7230 ; 100 ; 949 ; 54565113 ; 25456 ; 25,456
7230 ; 100 ; 950 ; 54638550 ; 25490 ; 25,49
7230 ; 100 ; 951 ; 54741207 ; 25538 ; 25,538
7230 ; 100 ; 952 ; 54751688 ; 25543 ; 25,543
7230 ; 100 ; 953 ; 54843939 ; 25586 ; 25,586
7230 ; 100 ; 954 ; 54854506 ; 25591 ; 25,591
7230 ; 100 ; 955 ; 54864948 ; 25596 ; 25,596
7230 ; 100 ; 956 ; 54960181 ; 25640 ; 25,64
7230 ; 100 ; 957 ; 54970775 ; 25645 ; 25,645
7230 ; 100 ; 958 ; 54981103 ; 25650 ; 25,65
7230 ; 100 ; 959 ; 54990962 ; 25655 ; 25,655
7230 ; 100 ; 960 ; 55001378 ; 25659 ; 25,659
7230 ; 100 ; 961 ; 55011566 ; 25664 ; 25,664
7230 ; 100 ; 962 ; 55021782 ; 25669 ; 25,669
7230 ; 100 ; 963 ; 55125420 ; 25717 ; 25,717
7230 ; 100 ; 964 ; 55135677 ; 25722 ; 25,722
7230 ; 100 ; 965 ; 55146347 ; 25727 ; 25,727
7230 ; 100 ; 966 ; 55156433 ; 25732 ; 25,732
7230 ; 100 ; 967 ; 55166629 ; 25737 ; 25,737
7230 ; 100 ; 968 ; 55272269 ; 25786 ; 25,786
7230 ; 100 ; 969 ; 55378828 ; 25836 ; 25,836
7230 ; 100 ; 970 ; 55388971 ; 25840 ; 25,84
7230 ; 100 ; 971 ; 55399698 ; 25845 ; 25,845
7230 ; 100 ; 972 ; 55492961 ; 25889 ; 25,889
7230 ; 100 ; 973 ; 55574621 ; 25927 ; 25,927
7230 ; 100 ; 974 ; 55665229 ; 25969 ; 25,969
7230 ; 100 ; 975 ; 55675878 ; 25974 ; 25,974
7230 ; 100 ; 976 ; 55686732 ; 25979 ; 25,979
7230 ; 100 ; 977 ; 55784054 ; 26025 ; 26,025
7230 ; 100 ; 978 ; 55794735 ; 26030 ; 26,03
7230 ; 100 ; 979 ; 55804982 ; 26034 ; 26,034
7230 ; 100 ; 980 ; 55896250 ; 26077 ; 26,077
7230 ; 100 ; 981 ; 55996609 ; 26124 ; 26,124
7230 ; 100 ; 982 ; 56087618 ; 26166 ; 26,166
7230 ; 100 ; 983 ; 56174194 ; 26207 ; 26,207
7230 ; 100 ; 984 ; 56274815 ; 26254 ; 26,254
7230 ; 100 ; 985 ; 56284810 ; 26258 ; 26,258
7230 ; 100 ; 986 ; 56295543 ; 26263 ; 26,263
7230 ; 100 ; 987 ; 56378932 ; 26302 ; 26,302
7230 ; 100 ; 988 ; 56477160 ; 26348 ; 26,348
7230 ; 100 ; 989 ; 56487549 ; 26353 ; 26,353
7230 ; 100 ; 990 ; 56497682 ; 26357 ; 26,357
7230 ; 100 ; 991 ; 56508495 ; 26363 ; 26,363
7230 ; 100 ; 992 ; 56518303 ; 26367 ; 26,367
7230 ; 100 ; 993 ; 56613978 ; 26412 ; 26,412
7230 ; 100 ; 994 ; 56702036 ; 26453 ; 26,453
7230 ; 100 ; 995 ; 56795346 ; 26496 ; 26,496
7230 ; 100 ; 996 ; 56805177 ; 26501 ; 26,501
7230 ; 100 ; 997 ; 56885293 ; 26538 ; 26,538
7230 ; 100 ; 998 ; 56895392 ; 26543 ; 26,543
7230 ; 100 ; 999 ; 56975263 ; 26580 ; 26,58
7230 ; 100 ; 1000 ; 56985411 ; 26585 ; 26,585
7230 ; 100 ; 1001 ; 57067327 ; 26623 ; 26,623
7230 ; 100 ; 1002 ; 57077972 ; 26628 ; 26,628
7230 ; 100 ; 1003 ; 57088141 ; 26633 ; 26,633
7230 ; 100 ; 1004 ; 57098170 ; 26638 ; 26,638
7230 ; 100 ; 1005 ; 57108502 ; 26642 ; 26,642
7230 ; 100 ; 1006 ; 57118602 ; 26647 ; 26,647
7230 ; 100 ; 1007 ; 57129269 ; 26652 ; 26,652
7230 ; 100 ; 1008 ; 57215551 ; 26692 ; 26,692
7230 ; 100 ; 1009 ; 57300749 ; 26732 ; 26,732
7230 ; 100 ; 1010 ; 57398193 ; 26778 ; 26,778
7230 ; 100 ; 1011 ; 57498713 ; 26825 ; 26,825
7230 ; 100 ; 1012 ; 57608837 ; 26876 ; 26,876
7230 ; 100 ; 1013 ; 57717097 ; 26926 ; 26,926
7230 ; 100 ; 1014 ; 57727088 ; 26931 ; 26,931
7230 ; 100 ; 1015 ; 57737375 ; 26936 ; 26,936
7230 ; 100 ; 1016 ; 57747715 ; 26941 ; 26,941
7230 ; 100 ; 1017 ; 57757809 ; 26945 ; 26,945
7230 ; 100 ; 1018 ; 57768046 ; 26950 ; 26,95
7230 ; 100 ; 1019 ; 57869949 ; 26998 ; 26,998
7230 ; 100 ; 1020 ; 57880063 ; 27002 ; 27,002
7230 ; 100 ; 1021 ; 57889817 ; 27007 ; 27,007
7230 ; 100 ; 1022 ; 57899816 ; 27012 ; 27,012
7230 ; 100 ; 1023 ; 57909659 ; 27016 ; 27,016
7230 ; 100 ; 1024 ; 57919396 ; 27021 ; 27,021
7230 ; 100 ; 1025 ; 58006752 ; 27062 ; 27,062
7230 ; 100 ; 1026 ; 58016679 ; 27066 ; 27,066
7230 ; 100 ; 1027 ; 58026655 ; 27071 ; 27,071
7230 ; 100 ; 1028 ; 58037311 ; 27076 ; 27,076
7230 ; 100 ; 1029 ; 58131722 ; 27120 ; 27,12
7230 ; 100 ; 1030 ; 58141581 ; 27124 ; 27,124
7230 ; 100 ; 1031 ; 58151895 ; 27129 ; 27,129
7230 ; 100 ; 1032 ; 58161980 ; 27134 ; 27,134
7230 ; 100 ; 1033 ; 58171824 ; 27139 ; 27,139
7230 ; 100 ; 1034 ; 58181758 ; 27143 ; 27,143
7230 ; 100 ; 1035 ; 58284125 ; 27191 ; 27,191
7230 ; 100 ; 1036 ; 58411875 ; 27251 ; 27,251
7230 ; 100 ; 1037 ; 58423283 ; 27256 ; 27,256
7230 ; 100 ; 1038 ; 58435140 ; 27261 ; 27,261
7230 ; 100 ; 1039 ; 58446207 ; 27267 ; 27,267
7230 ; 100 ; 1040 ; 58457363 ; 27272 ; 27,272
7230 ; 100 ; 1041 ; 58471126 ; 27278 ; 27,278
7230 ; 100 ; 1042 ; 58605859 ; 27341 ; 27,341
7230 ; 100 ; 1043 ; 58717780 ; 27393 ; 27,393
7230 ; 100 ; 1044 ; 58728495 ; 27398 ; 27,398
7230 ; 100 ; 1045 ; 58739929 ; 27404 ; 27,404
7230 ; 100 ; 1046 ; 58751488 ; 27409 ; 27,409
7230 ; 100 ; 1047 ; 58855551 ; 27458 ; 27,458
7230 ; 100 ; 1048 ; 58867494 ; 27463 ; 27,463
7230 ; 100 ; 1049 ; 58878208 ; 27468 ; 27,468
7230 ; 100 ; 1050 ; 58890029 ; 27474 ; 27,474
7230 ; 100 ; 1051 ; 58909103 ; 27483 ; 27,483
7230 ; 100 ; 1052 ; 58927875 ; 27491 ; 27,491
7230 ; 100 ; 1053 ; 59061967 ; 27554 ; 27,554
7230 ; 100 ; 1054 ; 59074427 ; 27560 ; 27,56
7230 ; 100 ; 1055 ; 59094053 ; 27569 ; 27,569
7230 ; 100 ; 1056 ; 59110848 ; 27577 ; 27,577
7230 ; 100 ; 1057 ; 59121563 ; 27582 ; 27,582
7230 ; 100 ; 1058 ; 59132372 ; 27587 ; 27,587
7230 ; 100 ; 1059 ; 59143375 ; 27592 ; 27,592
7230 ; 100 ; 1060 ; 59154155 ; 27597 ; 27,597
7230 ; 100 ; 1061 ; 59164820 ; 27602 ; 27,602
7230 ; 100 ; 1062 ; 59175888 ; 27607 ; 27,607
7230 ; 100 ; 1063 ; 59187788 ; 27613 ; 27,613
7230 ; 100 ; 1064 ; 59198428 ; 27617 ; 27,617
7230 ; 100 ; 1065 ; 59209483 ; 27623 ; 27,623
7230 ; 100 ; 1066 ; 59223995 ; 27629 ; 27,629
7230 ; 100 ; 1067 ; 59242573 ; 27638 ; 27,638
7230 ; 100 ; 1068 ; 59256720 ; 27645 ; 27,645
7230 ; 100 ; 1069 ; 59272397 ; 27652 ; 27,652
7230 ; 100 ; 1070 ; 59290427 ; 27660 ; 27,66
7230 ; 100 ; 1071 ; 59306478 ; 27668 ; 27,668
7230 ; 100 ; 1072 ; 59317185 ; 27673 ; 27,673
7230 ; 100 ; 1073 ; 59328748 ; 27678 ; 27,678
7230 ; 100 ; 1074 ; 59339828 ; 27683 ; 27,683
7230 ; 100 ; 1075 ; 59352429 ; 27689 ; 27,689
7230 ; 100 ; 1076 ; 59368695 ; 27697 ; 27,697
7230 ; 100 ; 1077 ; 59487137 ; 27752 ; 27,752
7230 ; 100 ; 1078 ; 59498026 ; 27757 ; 27,757
7230 ; 100 ; 1079 ; 59509668 ; 27763 ; 27,763
7230 ; 100 ; 1080 ; 59520220 ; 27768 ; 27,768
7230 ; 100 ; 1081 ; 59532016 ; 27773 ; 27,773
7230 ; 100 ; 1082 ; 59543054 ; 27778 ; 27,778
7230 ; 100 ; 1083 ; 59554515 ; 27784 ; 27,784
7230 ; 100 ; 1084 ; 59565712 ; 27789 ; 27,789
7230 ; 100 ; 1085 ; 59577361 ; 27794 ; 27,794
7230 ; 100 ; 1086 ; 59588092 ; 27799 ; 27,799
7230 ; 100 ; 1087 ; 59706070 ; 27854 ; 27,854
7230 ; 100 ; 1088 ; 59841547 ; 27918 ; 27,918
7230 ; 100 ; 1089 ; 59851958 ; 27922 ; 27,922
7230 ; 100 ; 1090 ; 59863049 ; 27928 ; 27,928
7230 ; 100 ; 1091 ; 59972845 ; 27979 ; 27,979
7230 ; 100 ; 1092 ; 59984441 ; 27984 ; 27,984
7230 ; 100 ; 1093 ; 60102283 ; 28039 ; 28,039
7230 ; 100 ; 1094 ; 60119344 ; 28047 ; 28,047
7230 ; 100 ; 1095 ; 60228806 ; 28098 ; 28,098
7230 ; 100 ; 1096 ; 60240140 ; 28103 ; 28,103
7230 ; 100 ; 1097 ; 60349489 ; 28154 ; 28,154
7230 ; 100 ; 1098 ; 60448977 ; 28201 ; 28,201
7230 ; 100 ; 1099 ; 60459535 ; 28206 ; 28,206
7230 ; 100 ; 1100 ; 60559470 ; 28252 ; 28,252
7230 ; 100 ; 1101 ; 60569448 ; 28257 ; 28,257
7230 ; 100 ; 1102 ; 60666339 ; 28302 ; 28,302
7230 ; 100 ; 1103 ; 60752123 ; 28342 ; 28,342
7230 ; 100 ; 1104 ; 60846213 ; 28386 ; 28,386
7230 ; 100 ; 1105 ; 60942197 ; 28431 ; 28,431
7230 ; 100 ; 1106 ; 60952064 ; 28436 ; 28,436
7230 ; 100 ; 1107 ; 60962119 ; 28440 ; 28,44
7230 ; 100 ; 1108 ; 60972231 ; 28445 ; 28,445
7230 ; 100 ; 1109 ; 60982495 ; 28450 ; 28,45
7230 ; 100 ; 1110 ; 61066954 ; 28489 ; 28,489
7230 ; 100 ; 1111 ; 61077421 ; 28494 ; 28,494
7230 ; 100 ; 1112 ; 61167747 ; 28536 ; 28,536
7230 ; 100 ; 1113 ; 61177782 ; 28541 ; 28,541
7230 ; 100 ; 1114 ; 61187798 ; 28546 ; 28,546
7230 ; 100 ; 1115 ; 61197909 ; 28550 ; 28,55
7230 ; 100 ; 1116 ; 61208060 ; 28555 ; 28,555
7230 ; 100 ; 1117 ; 61301510 ; 28599 ; 28,599
7230 ; 100 ; 1118 ; 61311584 ; 28603 ; 28,603
7230 ; 100 ; 1119 ; 61408239 ; 28648 ; 28,648
7230 ; 100 ; 1120 ; 61497775 ; 28690 ; 28,69
7230 ; 100 ; 1121 ; 61586028 ; 28731 ; 28,731
7230 ; 100 ; 1122 ; 61681588 ; 28776 ; 28,776
7230 ; 100 ; 1123 ; 61770384 ; 28817 ; 28,817
7230 ; 100 ; 1124 ; 61780260 ; 28822 ; 28,822
7230 ; 100 ; 1125 ; 61790408 ; 28827 ; 28,827
7230 ; 100 ; 1126 ; 61800184 ; 28831 ; 28,831
7230 ; 100 ; 1127 ; 61810092 ; 28836 ; 28,836
7230 ; 100 ; 1128 ; 61820299 ; 28841 ; 28,841
7230 ; 100 ; 1129 ; 61830643 ; 28845 ; 28,845
7230 ; 100 ; 1130 ; 61840863 ; 28850 ; 28,85
7230 ; 100 ; 1131 ; 61928368 ; 28891 ; 28,891
7230 ; 100 ; 1132 ; 62021576 ; 28935 ; 28,935
7230 ; 100 ; 1133 ; 62118974 ; 28980 ; 28,98
7230 ; 100 ; 1134 ; 62219485 ; 29027 ; 29,027
7230 ; 100 ; 1135 ; 62229913 ; 29032 ; 29,032
7230 ; 100 ; 1136 ; 62239943 ; 29036 ; 29,036
7230 ; 100 ; 1137 ; 62250544 ; 29041 ; 29,041
7230 ; 100 ; 1138 ; 62335723 ; 29081 ; 29,081
7230 ; 100 ; 1139 ; 62345763 ; 29086 ; 29,086
7230 ; 100 ; 1140 ; 62356052 ; 29091 ; 29,091
7230 ; 100 ; 1141 ; 62452656 ; 29136 ; 29,136
7230 ; 100 ; 1142 ; 62536934 ; 29175 ; 29,175
7230 ; 100 ; 1143 ; 62638045 ; 29222 ; 29,222
7230 ; 100 ; 1144 ; 62648307 ; 29227 ; 29,227
7230 ; 100 ; 1145 ; 62658622 ; 29232 ; 29,232
7230 ; 100 ; 1146 ; 62668628 ; 29236 ; 29,236
7230 ; 100 ; 1147 ; 62679110 ; 29241 ; 29,241
7230 ; 100 ; 1148 ; 62688945 ; 29246 ; 29,246
7230 ; 100 ; 1149 ; 62699084 ; 29251 ; 29,251
7230 ; 100 ; 1150 ; 62709173 ; 29255 ; 29,255
7230 ; 100 ; 1151 ; 62719723 ; 29260 ; 29,26
7230 ; 100 ; 1152 ; 62729688 ; 29265 ; 29,265
7230 ; 100 ; 1153 ; 62739896 ; 29270 ; 29,27
7230 ; 100 ; 1154 ; 62750640 ; 29275 ; 29,275
7230 ; 100 ; 1155 ; 62760798 ; 29279 ; 29,279
7230 ; 100 ; 1156 ; 62860816 ; 29326 ; 29,326
7230 ; 100 ; 1157 ; 62871652 ; 29331 ; 29,331
7230 ; 100 ; 1158 ; 62882342 ; 29336 ; 29,336
7230 ; 100 ; 1159 ; 62893762 ; 29341 ; 29,341
7230 ; 100 ; 1160 ; 63001097 ; 29392 ; 29,392
7230 ; 100 ; 1161 ; 63011404 ; 29396 ; 29,396
7230 ; 100 ; 1162 ; 63021453 ; 29401 ; 29,401
7230 ; 100 ; 1163 ; 63031732 ; 29406 ; 29,406
7230 ; 100 ; 1164 ; 63042173 ; 29411 ; 29,411
7230 ; 100 ; 1165 ; 63148353 ; 29460 ; 29,46
7230 ; 100 ; 1166 ; 63158218 ; 29465 ; 29,465
7230 ; 100 ; 1167 ; 63253167 ; 29509 ; 29,509
7230 ; 100 ; 1168 ; 63263111 ; 29514 ; 29,514
7230 ; 100 ; 1169 ; 63272858 ; 29518 ; 29,518
7230 ; 100 ; 1170 ; 63282877 ; 29523 ; 29,523
7230 ; 100 ; 1171 ; 63293287 ; 29528 ; 29,528
7230 ; 100 ; 1172 ; 63303321 ; 29533 ; 29,533
7230 ; 100 ; 1173 ; 63313396 ; 29537 ; 29,537
7230 ; 100 ; 1174 ; 63323874 ; 29542 ; 29,542
7230 ; 100 ; 1175 ; 63334234 ; 29547 ; 29,547
7230 ; 100 ; 1176 ; 63343924 ; 29551 ; 29,551
7230 ; 100 ; 1177 ; 63354629 ; 29556 ; 29,556
7230 ; 100 ; 1178 ; 63364977 ; 29561 ; 29,561
7230 ; 100 ; 1179 ; 63375333 ; 29566 ; 29,566
7230 ; 100 ; 1180 ; 63384963 ; 29571 ; 29,571
7230 ; 100 ; 1181 ; 63395278 ; 29575 ; 29,575
7230 ; 100 ; 1182 ; 63405078 ; 29580 ; 29,58
7230 ; 100 ; 1183 ; 63415199 ; 29585 ; 29,585
7230 ; 100 ; 1184 ; 63519896 ; 29634 ; 29,634
7230 ; 100 ; 1185 ; 63529800 ; 29638 ; 29,638
7230 ; 100 ; 1186 ; 63539880 ; 29643 ; 29,643
7230 ; 100 ; 1187 ; 63549097 ; 29647 ; 29,647
7230 ; 100 ; 1188 ; 63640752 ; 29690 ; 29,69
7230 ; 100 ; 1189 ; 63650900 ; 29695 ; 29,695
7230 ; 100 ; 1190 ; 63660840 ; 29699 ; 29,699
7230 ; 100 ; 1191 ; 63670771 ; 29704 ; 29,704
7230 ; 100 ; 1192 ; 63681185 ; 29709 ; 29,709
7230 ; 100 ; 1193 ; 63776838 ; 29753 ; 29,753
7230 ; 100 ; 1194 ; 63787141 ; 29758 ; 29,758
7230 ; 100 ; 1195 ; 63797303 ; 29763 ; 29,763
7230 ; 100 ; 1196 ; 63807110 ; 29768 ; 29,768
7230 ; 100 ; 1197 ; 63818980 ; 29773 ; 29,773
7230 ; 100 ; 1198 ; 63829302 ; 29778 ; 29,778
7230 ; 100 ; 1199 ; 63839090 ; 29783 ; 29,783
7230 ; 100 ; 1200 ; 63848987 ; 29787 ; 29,787
7230 ; 100 ; 1201 ; 63859229 ; 29792 ; 29,792
7230 ; 100 ; 1202 ; 63869159 ; 29797 ; 29,797
7230 ; 100 ; 1203 ; 63879026 ; 29801 ; 29,801
7230 ; 100 ; 1204 ; 63888739 ; 29806 ; 29,806
7230 ; 100 ; 1205 ; 63898863 ; 29810 ; 29,81
7230 ; 100 ; 1206 ; 63983537 ; 29850 ; 29,85
7230 ; 100 ; 1207 ; 63993450 ; 29855 ; 29,855
7230 ; 100 ; 1208 ; 64003682 ; 29859 ; 29,859
7230 ; 100 ; 1209 ; 64013368 ; 29864 ; 29,864
7230 ; 100 ; 1210 ; 64024282 ; 29869 ; 29,869
7230 ; 100 ; 1211 ; 64120784 ; 29914 ; 29,914
7230 ; 100 ; 1212 ; 64205288 ; 29953 ; 29,953
7230 ; 100 ; 1213 ; 64291206 ; 29993 ; 29,993
7230 ; 100 ; 1214 ; 64301434 ; 29998 ; 29,998
7230 ; 100 ; 1215 ; 64311023 ; 30003 ; 30,003