Rozwiązanie dla problemu tsp_403:
Populacja ; 1000 ; Mutacja ; 0,01 ; Krzyzowanie ; 0,8 ; Rozmiar Turnieju ; 2

Ograniczenie czasowe ; 30
Koszt ; Błąd[%] ; Iteracja ; Czas[takty zegara] ; Czas[ms] ; Czas [s]
7176 ; 100 ; 0 ; 4322 ; 2 ; 0,002
7176 ; 100 ; 1 ; 270333 ; 126 ; 0,126
7176 ; 100 ; 2 ; 542578 ; 253 ; 0,253
7176 ; 100 ; 3 ; 798184 ; 372 ; 0,372
7176 ; 100 ; 4 ; 1045117 ; 487 ; 0,487
7176 ; 100 ; 5 ; 1320700 ; 616 ; 0,616
7176 ; 100 ; 6 ; 1597732 ; 745 ; 0,745
7176 ; 100 ; 7 ; 1878014 ; 876 ; 0,876
7176 ; 100 ; 8 ; 2136875 ; 996 ; 0,996
7176 ; 100 ; 9 ; 2411316 ; 1124 ; 1,124
7176 ; 100 ; 10 ; 2665806 ; 1243 ; 1,243
7176 ; 100 ; 11 ; 2944905 ; 1373 ; 1,373
7176 ; 100 ; 12 ; 3213140 ; 1499 ; 1,499
7176 ; 100 ; 13 ; 3465236 ; 1616 ; 1,616
7176 ; 100 ; 14 ; 3749496 ; 1749 ; 1,749
7176 ; 100 ; 15 ; 4010394 ; 1870 ; 1,87
7176 ; 100 ; 16 ; 4256230 ; 1985 ; 1,985
7176 ; 100 ; 17 ; 4517183 ; 2107 ; 2,107
7176 ; 100 ; 18 ; 4782447 ; 2231 ; 2,231
7176 ; 100 ; 19 ; 5031797 ; 2347 ; 2,347
7176 ; 100 ; 20 ; 5304060 ; 2474 ; 2,474
7176 ; 100 ; 21 ; 5559404 ; 2593 ; 2,593
7176 ; 100 ; 22 ; 5829086 ; 2719 ; 2,719
7176 ; 100 ; 23 ; 6099121 ; 2845 ; 2,845
7176 ; 100 ; 24 ; 6350305 ; 2962 ; 2,962
7176 ; 100 ; 25 ; 6626039 ; 3091 ; 3,091
7176 ; 100 ; 26 ; 6873358 ; 3206 ; 3,206
7176 ; 100 ; 27 ; 7133356 ; 3327 ; 3,327
7176 ; 100 ; 28 ; 7403593 ; 3454 ; 3,454
7176 ; 100 ; 29 ; 7668537 ; 3577 ; 3,577
7176 ; 100 ; 30 ; 7929795 ; 3699 ; 3,699
7176 ; 100 ; 31 ; 8180764 ; 3816 ; 3,816
7176 ; 100 ; 32 ; 8450822 ; 3942 ; 3,942
7176 ; 100 ; 33 ; 8710060 ; 4063 ; 4,063
7176 ; 100 ; 34 ; 8977233 ; 4188 ; 4,188
7176 ; 100 ; 35 ; 9255427 ; 4317 ; 4,317
7176 ; 100 ; 36 ; 9516945 ; 4439 ; 4,439
7176 ; 100 ; 37 ; 9759141 ; 4552 ; 4,552
7176 ; 100 ; 38 ; 10019608 ; 4674 ; 4,674
7176 ; 100 ; 39 ; 10276073 ; 4794 ; 4,794
7176 ; 100 ; 40 ; 10534431 ; 4914 ; 4,914
7176 ; 100 ; 41 ; 10791367 ; 5034 ; 5,034
7176 ; 100 ; 42 ; 11049868 ; 5155 ; 5,155
7176 ; 100 ; 43 ; 11310276 ; 5276 ; 5,276
7176 ; 100 ; 44 ; 11576197 ; 5400 ; 5,4
7176 ; 100 ; 45 ; 11853615 ; 5530 ; 5,53
7176 ; 100 ; 46 ; 12126496 ; 5657 ; 5,657
7176 ; 100 ; 47 ; 12385162 ; 5778 ; 5,778
7176 ; 100 ; 48 ; 12629936 ; 5892 ; 5,892
7176 ; 100 ; 49 ; 12882406 ; 6010 ; 6,01
7176 ; 100 ; 50 ; 13151566 ; 6135 ; 6,135
7176 ; 100 ; 51 ; 13417781 ; 6259 ; 6,259
7176 ; 100 ; 52 ; 13670257 ; 6377 ; 6,377
7176 ; 100 ; 53 ; 13945766 ; 6506 ; 6,506
7176 ; 100 ; 54 ; 13963774 ; 6514 ; 6,514
7176 ; 100 ; 55 ; 14222730 ; 6635 ; 6,635
7176 ; 100 ; 56 ; 14471267 ; 6751 ; 6,751
7176 ; 100 ; 57 ; 14736679 ; 6875 ; 6,875
7176 ; 100 ; 58 ; 14991483 ; 6994 ; 6,994
7176 ; 100 ; 59 ; 15260813 ; 7119 ; 7,119
7176 ; 100 ; 60 ; 15521615 ; 7241 ; 7,241
7176 ; 100 ; 61 ; 15794800 ; 7368 ; 7,368
7176 ; 100 ; 62 ; 16137340 ; 7528 ; 7,528
7176 ; 100 ; 63 ; 16471674 ; 7684 ; 7,684
7176 ; 100 ; 64 ; 16829770 ; 7851 ; 7,851
7176 ; 100 ; 65 ; 17161225 ; 8006 ; 8,006
7176 ; 100 ; 66 ; 17451717 ; 8141 ; 8,141
7176 ; 100 ; 67 ; 17783149 ; 8296 ; 8,296
7176 ; 100 ; 68 ; 17801603 ; 8305 ; 8,305
7176 ; 100 ; 69 ; 18069732 ; 8430 ; 8,43
7176 ; 100 ; 70 ; 18329694 ; 8551 ; 8,551
7176 ; 100 ; 71 ; 18595337 ; 8675 ; 8,675
7176 ; 100 ; 72 ; 18878653 ; 8807 ; 8,807
7176 ; 100 ; 73 ; 19152394 ; 8935 ; 8,935
7176 ; 100 ; 74 ; 19400482 ; 9050 ; 9,05
7176 ; 100 ; 75 ; 19654534 ; 9169 ; 9,169
7176 ; 100 ; 76 ; 19914960 ; 9290 ; 9,29
7176 ; 100 ; 77 ; 20191411 ; 9419 ; 9,419
7176 ; 100 ; 78 ; 20445604 ; 9538 ; 9,538
7176 ; 100 ; 79 ; 20710666 ; 9662 ; 9,662
7176 ; 100 ; 80 ; 20959530 ; 9778 ; 9,778
7176 ; 100 ; 81 ; 21247353 ; 9912 ; 9,912
7176 ; 100 ; 82 ; 21534430 ; 10046 ; 10,046
7176 ; 100 ; 83 ; 21809428 ; 10174 ; 10,174
7176 ; 100 ; 84 ; 22074681 ; 10298 ; 10,298
7176 ; 100 ; 85 ; 22337416 ; 10421 ; 10,421
7176 ; 100 ; 86 ; 22597763 ; 10542 ; 10,542
7176 ; 100 ; 87 ; 22854248 ; 10662 ; 10,662
7176 ; 100 ; 88 ; 23094112 ; 10774 ; 10,774
7176 ; 100 ; 89 ; 23366061 ; 10901 ; 10,901
7176 ; 100 ; 90 ; 23610472 ; 11015 ; 11,015
7176 ; 100 ; 91 ; 23883779 ; 11142 ; 11,142
7176 ; 100 ; 92 ; 24146838 ; 11265 ; 11,265
7176 ; 100 ; 93 ; 24397493 ; 11382 ; 11,382
7176 ; 100 ; 94 ; 24670917 ; 11509 ; 11,509
7176 ; 100 ; 95 ; 24689102 ; 11518 ; 11,518
7176 ; 100 ; 96 ; 24944874 ; 11637 ; 11,637
7176 ; 100 ; 97 ; 25203158 ; 11758 ; 11,758
7176 ; 100 ; 98 ; 25220727 ; 11766 ; 11,766
7176 ; 100 ; 99 ; 25487356 ; 11890 ; 11,89
7176 ; 100 ; 100 ; 25768584 ; 12021 ; 12,021
7176 ; 100 ; 101 ; 26022576 ; 12140 ; 12,14
7176 ; 100 ; 102 ; 26040411 ; 12148 ; 12,148
7176 ; 100 ; 103 ; 26314307 ; 12276 ; 12,276
7176 ; 100 ; 104 ; 26585919 ; 12403 ; 12,403
7176 ; 100 ; 105 ; 26603337 ; 12411 ; 12,411
7176 ; 100 ; 106 ; 26856329 ; 12529 ; 12,529
7176 ; 100 ; 107 ; 27111656 ; 12648 ; 12,648
7176 ; 100 ; 108 ; 27343951 ; 12756 ; 12,756
7176 ; 100 ; 109 ; 27599786 ; 12876 ; 12,876
7176 ; 100 ; 110 ; 27864950 ; 12999 ; 12,999
7176 ; 100 ; 111 ; 28120536 ; 13119 ; 13,119
7176 ; 100 ; 112 ; 28387162 ; 13243 ; 13,243
7176 ; 100 ; 113 ; 28649971 ; 13366 ; 13,366
7176 ; 100 ; 114 ; 28919695 ; 13491 ; 13,491
7176 ; 100 ; 115 ; 29189901 ; 13618 ; 13,618
7176 ; 100 ; 116 ; 29456014 ; 13742 ; 13,742
7176 ; 100 ; 117 ; 29722189 ; 13866 ; 13,866
7176 ; 100 ; 118 ; 29982020 ; 13987 ; 13,987
7176 ; 100 ; 119 ; 29999335 ; 13995 ; 13,995
7176 ; 100 ; 120 ; 30251608 ; 14113 ; 14,113
7176 ; 100 ; 121 ; 30525394 ; 14241 ; 14,241
7176 ; 100 ; 122 ; 30777487 ; 14358 ; 14,358
7176 ; 100 ; 123 ; 31049849 ; 14485 ; 14,485
7176 ; 100 ; 124 ; 31068015 ; 14494 ; 14,494
7176 ; 100 ; 125 ; 31318557 ; 14611 ; 14,611
7176 ; 100 ; 126 ; 31336768 ; 14619 ; 14,619
7176 ; 100 ; 127 ; 31616360 ; 14750 ; 14,75
7176 ; 100 ; 128 ; 31847780 ; 14858 ; 14,858
7176 ; 100 ; 129 ; 32122521 ; 14986 ; 14,986
7176 ; 100 ; 130 ; 32140491 ; 14994 ; 14,994
7176 ; 100 ; 131 ; 32390948 ; 15111 ; 15,111
7176 ; 100 ; 132 ; 32674060 ; 15243 ; 15,243
7176 ; 100 ; 133 ; 32930638 ; 15363 ; 15,363
7176 ; 100 ; 134 ; 33188118 ; 15483 ; 15,483
7176 ; 100 ; 135 ; 33459371 ; 15609 ; 15,609
7176 ; 100 ; 136 ; 33721319 ; 15732 ; 15,732
7176 ; 100 ; 137 ; 33987341 ; 15856 ; 15,856
7176 ; 100 ; 138 ; 34242460 ; 15975 ; 15,975
7176 ; 100 ; 139 ; 34489360 ; 16090 ; 16,09
7176 ; 100 ; 140 ; 34765766 ; 16219 ; 16,219
7176 ; 100 ; 141 ; 35041611 ; 16348 ; 16,348
7176 ; 100 ; 142 ; 35319414 ; 16477 ; 16,477
7176 ; 100 ; 143 ; 35588866 ; 16603 ; 16,603
7176 ; 100 ; 144 ; 35866394 ; 16732 ; 16,732
7176 ; 100 ; 145 ; 35883638 ; 16740 ; 16,74
7176 ; 100 ; 146 ; 36142559 ; 16861 ; 16,861
7176 ; 100 ; 147 ; 36392126 ; 16978 ; 16,978
7176 ; 100 ; 148 ; 36672481 ; 17108 ; 17,108
7176 ; 100 ; 149 ; 36941384 ; 17234 ; 17,234
7176 ; 100 ; 150 ; 37215814 ; 17362 ; 17,362
7176 ; 100 ; 151 ; 37484169 ; 17487 ; 17,487
7176 ; 100 ; 152 ; 37764350 ; 17618 ; 17,618
7176 ; 100 ; 153 ; 38043488 ; 17748 ; 17,748
7176 ; 100 ; 154 ; 38060488 ; 17756 ; 17,756
7176 ; 100 ; 155 ; 38331276 ; 17882 ; 17,882
7176 ; 100 ; 156 ; 38590307 ; 18003 ; 18,003
7176 ; 100 ; 157 ; 38607925 ; 18011 ; 18,011
7176 ; 100 ; 158 ; 38878886 ; 18138 ; 18,138
7176 ; 100 ; 159 ; 39119762 ; 18250 ; 18,25
7176 ; 100 ; 160 ; 39395091 ; 18379 ; 18,379
7176 ; 100 ; 161 ; 39648460 ; 18497 ; 18,497
7176 ; 100 ; 162 ; 39918912 ; 18623 ; 18,623
7176 ; 100 ; 163 ; 39936361 ; 18631 ; 18,631
7176 ; 100 ; 164 ; 40182227 ; 18746 ; 18,746
7176 ; 100 ; 165 ; 40421157 ; 18857 ; 18,857
7176 ; 100 ; 166 ; 40663849 ; 18971 ; 18,971
7176 ; 100 ; 167 ; 40920992 ; 19090 ; 19,09
7176 ; 100 ; 168 ; 41183465 ; 19213 ; 19,213
7176 ; 100 ; 169 ; 41444847 ; 19335 ; 19,335
7176 ; 100 ; 170 ; 41683941 ; 19446 ; 19,446
7176 ; 100 ; 171 ; 41915956 ; 19555 ; 19,555
7176 ; 100 ; 172 ; 42160140 ; 19669 ; 19,669
7176 ; 100 ; 173 ; 42433831 ; 19796 ; 19,796
7176 ; 100 ; 174 ; 42703645 ; 19922 ; 19,922
7176 ; 100 ; 175 ; 42976867 ; 20050 ; 20,05
7176 ; 100 ; 176 ; 43237280 ; 20171 ; 20,171
7176 ; 100 ; 177 ; 43510518 ; 20299 ; 20,299
7176 ; 100 ; 178 ; 43767297 ; 20418 ; 20,418
7176 ; 100 ; 179 ; 43785366 ; 20427 ; 20,427
7176 ; 100 ; 180 ; 43802494 ; 20435 ; 20,435
7176 ; 100 ; 181 ; 44078969 ; 20564 ; 20,564
7176 ; 100 ; 182 ; 44367976 ; 20699 ; 20,699
7176 ; 100 ; 183 ; 44654059 ; 20832 ; 20,832
7176 ; 100 ; 184 ; 44915411 ; 20954 ; 20,954
7176 ; 100 ; 185 ; 45155673 ; 21066 ; 21,066
7176 ; 100 ; 186 ; 45403460 ; 21182 ; 21,182
7176 ; 100 ; 187 ; 45674968 ; 21308 ; 21,308
7176 ; 100 ; 188 ; 45954775 ; 21439 ; 21,439
7176 ; 100 ; 189 ; 46216181 ; 21561 ; 21,561
7176 ; 100 ; 190 ; 46465795 ; 21677 ; 21,677
7176 ; 100 ; 191 ; 46718273 ; 21795 ; 21,795
7176 ; 100 ; 192 ; 47012111 ; 21932 ; 21,932
7176 ; 100 ; 193 ; 47254531 ; 22045 ; 22,045
7176 ; 100 ; 194 ; 47506099 ; 22163 ; 22,163
7176 ; 100 ; 195 ; 47765527 ; 22284 ; 22,284
7176 ; 100 ; 196 ; 48021392 ; 22403 ; 22,403
7176 ; 100 ; 197 ; 48278000 ; 22523 ; 22,523
7176 ; 100 ; 198 ; 48544328 ; 22647 ; 22,647
7176 ; 100 ; 199 ; 48562309 ; 22655 ; 22,655
7176 ; 100 ; 200 ; 48818178 ; 22775 ; 22,775
7176 ; 100 ; 201 ; 49147559 ; 22928 ; 22,928
7176 ; 100 ; 202 ; 49430435 ; 23060 ; 23,06
7176 ; 100 ; 203 ; 49693869 ; 23183 ; 23,183
7176 ; 100 ; 204 ; 49976325 ; 23315 ; 23,315
7176 ; 100 ; 205 ; 50272745 ; 23453 ; 23,453
7176 ; 100 ; 206 ; 50578451 ; 23596 ; 23,596
7176 ; 100 ; 207 ; 50945198 ; 23767 ; 23,767
7176 ; 100 ; 208 ; 50970550 ; 23779 ; 23,779
7176 ; 100 ; 209 ; 51323499 ; 23944 ; 23,944
7176 ; 100 ; 210 ; 51636139 ; 24089 ; 24,089
7176 ; 100 ; 211 ; 51953526 ; 24238 ; 24,238
7176 ; 100 ; 212 ; 52202754 ; 24354 ; 24,354
7176 ; 100 ; 213 ; 52478605 ; 24482 ; 24,482
7176 ; 100 ; 214 ; 52733481 ; 24601 ; 24,601
7176 ; 100 ; 215 ; 52998052 ; 24725 ; 24,725
7176 ; 100 ; 216 ; 53264782 ; 24849 ; 24,849
7176 ; 100 ; 217 ; 53526800 ; 24971 ; 24,971
7176 ; 100 ; 218 ; 53785584 ; 25092 ; 25,092
7176 ; 100 ; 219 ; 54067765 ; 25224 ; 25,224
7176 ; 100 ; 220 ; 54333291 ; 25348 ; 25,348
7176 ; 100 ; 221 ; 54596755 ; 25471 ; 25,471
7176 ; 100 ; 222 ; 54876982 ; 25601 ; 25,601
7176 ; 100 ; 223 ; 55153705 ; 25730 ; 25,73
7176 ; 100 ; 224 ; 55423608 ; 25856 ; 25,856
7176 ; 100 ; 225 ; 55684755 ; 25978 ; 25,978
7176 ; 100 ; 226 ; 55937655 ; 26096 ; 26,096
7176 ; 100 ; 227 ; 56196041 ; 26217 ; 26,217
7176 ; 100 ; 228 ; 56474090 ; 26346 ; 26,346
7176 ; 100 ; 229 ; 56722501 ; 26462 ; 26,462
7176 ; 100 ; 230 ; 57000284 ; 26592 ; 26,592
7176 ; 100 ; 231 ; 57265898 ; 26716 ; 26,716
7176 ; 100 ; 232 ; 57533705 ; 26841 ; 26,841
7176 ; 100 ; 233 ; 57804416 ; 26967 ; 26,967
7176 ; 100 ; 234 ; 58073554 ; 27093 ; 27,093
7176 ; 100 ; 235 ; 58328847 ; 27212 ; 27,212
7176 ; 100 ; 236 ; 58345815 ; 27220 ; 27,22
7176 ; 100 ; 237 ; 58362699 ; 27228 ; 27,228
7176 ; 100 ; 238 ; 58637624 ; 27356 ; 27,356
7176 ; 100 ; 239 ; 58889859 ; 27474 ; 27,474
7176 ; 100 ; 240 ; 59160129 ; 27600 ; 27,6
7176 ; 100 ; 241 ; 59437464 ; 27729 ; 27,729
7176 ; 100 ; 242 ; 59704406 ; 27854 ; 27,854
7176 ; 100 ; 243 ; 59958443 ; 27972 ; 27,972
7176 ; 100 ; 244 ; 60208384 ; 28089 ; 28,089
7176 ; 100 ; 245 ; 60479251 ; 28215 ; 28,215
7176 ; 100 ; 246 ; 60750627 ; 28342 ; 28,342
7176 ; 100 ; 247 ; 61016857 ; 28466 ; 28,466
7176 ; 100 ; 248 ; 61283762 ; 28590 ; 28,59
7176 ; 100 ; 249 ; 61546156 ; 28713 ; 28,713
7176 ; 100 ; 250 ; 61822570 ; 28842 ; 28,842
7176 ; 100 ; 251 ; 62075341 ; 28960 ; 28,96
7176 ; 100 ; 252 ; 62092151 ; 28967 ; 28,967
7176 ; 100 ; 253 ; 62368070 ; 29096 ; 29,096
7176 ; 100 ; 254 ; 62639979 ; 29223 ; 29,223
7176 ; 100 ; 255 ; 62656538 ; 29231 ; 29,231
7176 ; 100 ; 256 ; 62923996 ; 29356 ; 29,356
7176 ; 100 ; 257 ; 63189390 ; 29479 ; 29,479
7176 ; 100 ; 258 ; 63206307 ; 29487 ; 29,487
7176 ; 100 ; 259 ; 63478449 ; 29614 ; 29,614
7176 ; 100 ; 260 ; 63731699 ; 29732 ; 29,732
7176 ; 100 ; 261 ; 63971099 ; 29844 ; 29,844
7176 ; 100 ; 262 ; 64215420 ; 29958 ; 29,958
7176 ; 100 ; 263 ; 64478283 ; 30081 ; 30,081