Rozwiązanie dla problemu tsp_171:
Scieżka: 159 - 55 - 12 - 83 - 21 - 104 - 140 - 74 - 16 - 17 - 62 - 18 - 30 - 24 - 96 - 98 - 89 - 50 - 111 - 69 - 125 - 94 - 87 - 107 - 10 - 119 - 124 - 36 - 77 - 0 - 133 - 15 - 130 - 112 - 170 - 8 - 82 - 42 - 163 - 153 - 28 - 46 - 38 - 49 - 144 - 95 - 138 - 59 - 86 - 108 - 67 - 155 - 149 - 80 - 54 - 2 - 152 - 113 - 110 - 88 - 66 - 120 - 75 - 6 - 35 - 65 - 105 - 103 - 47 - 158 - 7 - 162 - 147 - 106 - 51 - 136 - 129 - 143 - 137 - 135 - 23 - 168 - 160 - 26 - 63 - 150 - 78 - 52 - 53 - 76 - 72 - 58 - 48 - 90 - 40 - 100 - 33 - 41 - 79 - 39 - 109 - 9 - 68 - 31 - 56 - 126 - 97 - 27 - 11 - 81 - 102 - 57 - 20 - 19 - 32 - 99 - 131 - 84 - 92 - 114 - 93 - 34 - 4 - 60 - 73 - 146 - 142 - 132 - 169 - 37 - 1 - 43 - 148 - 118 - 164 - 128 - 166 - 127 - 101 - 117 - 151 - 156 - 121 - 123 - 139 - 71 - 5 - 134 - 145 - 116 - 115 - 165 - 70 - 122 - 25 - 14 - 157 - 29 - 161 - 61 - 45 - 167 - 13 - 22 - 3 - 91 - 154 - 64 - 141 - 44 - 85 - 159
Koszt: 23074
Czas znalezienia[takty]: 0
Czas znalezienia[ms]: 0
Czas znalezienia[s]: 0
Iteracja znalezienia: 3646
Błąd względny = 737,531760435572
