Rozwiązanie dla problemu tsp_171:
Scieżka: 55 - 103 - 134 - 75 - 104 - 100 - 13 - 42 - 155 - 121 - 119 - 120 - 91 - 50 - 48 - 51 - 89 - 58 - 52 - 125 - 67 - 118 - 53 - 83 - 127 - 34 - 72 - 154 - 128 - 124 - 62 - 97 - 131 - 17 - 73 - 90 - 70 - 112 - 126 - 132 - 122 - 77 - 19 - 143 - 14 - 12 - 2 - 8 - 136 - 110 - 66 - 88 - 108 - 20 - 15 - 129 - 138 - 169 - 47 - 65 - 33 - 10 - 25 - 137 - 92 - 111 - 3 - 30 - 57 - 93 - 85 - 148 - 37 - 11 - 49 - 29 - 23 - 141 - 32 - 82 - 151 - 26 - 9 - 147 - 63 - 21 - 45 - 130 - 35 - 162 - 31 - 153 - 18 - 163 - 74 - 144 - 139 - 157 - 133 - 106 - 123 - 145 - 149 - 36 - 59 - 84 - 27 - 44 - 16 - 41 - 5 - 114 - 60 - 86 - 94 - 81 - 135 - 40 - 1 - 6 - 142 - 39 - 43 - 117 - 71 - 28 - 140 - 102 - 95 - 54 - 46 - 159 - 150 - 160 - 24 - 107 - 96 - 167 - 152 - 99 - 166 - 4 - 80 - 79 - 161 - 168 - 22 - 165 - 76 - 105 - 7 - 38 - 156 - 64 - 98 - 101 - 146 - 78 - 109 - 61 - 68 - 56 - 69 - 170 - 115 - 113 - 158 - 164 - 116 - 87 - 0 - 55
Koszt: 23218
Czas znalezienia[takty]: 17582946
Czas znalezienia[ms]: 8203
Czas znalezienia[s]: 8
Iteracja znalezienia: 11827
Błąd względny = 742,758620689655
