\relax 
\@writefile{toc}{\contentsline {section}{\numberline {1}Cel Projektu}{2}}
\@writefile{toc}{\contentsline {section}{\numberline {2}Wst\IeC {\k e}p teoretyczny}{2}}
\@writefile{toc}{\contentsline {section}{\numberline {3}Algorytm genetyczny}{2}}
\@writefile{toc}{\contentsline {subsection}{\numberline {3.1}Funkcja przystosowania}{2}}
\@writefile{toc}{\contentsline {subsection}{\numberline {3.2}Selekcja}{2}}
\@writefile{toc}{\contentsline {subsection}{\numberline {3.3}Krzy\IeC {\.z}owanie}{2}}
\@writefile{toc}{\contentsline {subsubsection}{\numberline {3.3.1}Partially-Mapped Crossover}{2}}
\@writefile{toc}{\contentsline {subsubsection}{\numberline {3.3.2}Non-Wrapping Order Crossover}{3}}
\@writefile{toc}{\contentsline {subsection}{\numberline {3.4}Mutacja}{3}}
\@writefile{toc}{\contentsline {subsection}{\numberline {3.5}Opis programu}{4}}
\@writefile{toc}{\contentsline {section}{\numberline {4}Wyniki}{5}}
\@writefile{toc}{\contentsline {subsubsection}{\numberline {4.0.1}Tsp 48}{5}}
\@writefile{lof}{\contentsline {figure}{\numberline {1}{\ignorespaces Tsp\_48\relax }}{5}}
\providecommand*\caption@xref[2]{\@setref\relax\@undefined{#1}}
\newlabel{fig:obraz}{{1}{5}}
\@writefile{lof}{\contentsline {figure}{\numberline {2}{\ignorespaces Tsp\_48\relax }}{6}}
\newlabel{fig:obraz}{{2}{6}}
\@writefile{lof}{\contentsline {figure}{\numberline {3}{\ignorespaces Tsp\_48\relax }}{7}}
\newlabel{fig:obraz}{{3}{7}}
\@writefile{toc}{\contentsline {subsubsection}{\numberline {4.0.2}Tsp 171}{8}}
\@writefile{lof}{\contentsline {figure}{\numberline {4}{\ignorespaces Tsp\_171\relax }}{8}}
\newlabel{fig:obraz}{{4}{8}}
\@writefile{lof}{\contentsline {figure}{\numberline {5}{\ignorespaces Tsp\_171\relax }}{9}}
\newlabel{fig:obraz}{{5}{9}}
\@writefile{lof}{\contentsline {figure}{\numberline {6}{\ignorespaces Tsp\_171\relax }}{10}}
\newlabel{fig:obraz}{{6}{10}}
\@writefile{toc}{\contentsline {subsubsection}{\numberline {4.0.3}Tsp 403}{11}}
\@writefile{lof}{\contentsline {figure}{\numberline {7}{\ignorespaces Tsp\_403\relax }}{11}}
\newlabel{fig:obraz}{{7}{11}}
\@writefile{lof}{\contentsline {figure}{\numberline {8}{\ignorespaces Tsp\_403\relax }}{12}}
\newlabel{fig:obraz}{{8}{12}}
\@writefile{lof}{\contentsline {figure}{\numberline {9}{\ignorespaces Tsp\_403\relax }}{13}}
\newlabel{fig:obraz}{{9}{13}}
\@writefile{lof}{\contentsline {figure}{\numberline {10}{\ignorespaces Tablica przedstawiaj\IeC {\k a}ca \IeC {\'s}rednie wyniki podczas manipulacji rozmiarami populacji. Wsp\IeC {\'o}\IeC {\l }czynnik mutacji 0.01, wsp\IeC {\'o}\IeC {\l }czynnik krzy\IeC {\.z}owania 0.8.\relax }}{13}}
\newlabel{fig:obraz}{{10}{13}}
\@writefile{lof}{\contentsline {figure}{\numberline {11}{\ignorespaces Tablica przedstawiaj\IeC {\k a}ca \IeC {\'s}rednie wyniki podczas manipulacji wsp\IeC {\'o}\IeC {\l }czynnikiem mutacji. Wsp\IeC {\'o}\IeC {\l }czynnik krzy\IeC {\.z}owania 0.8.\relax }}{14}}
\newlabel{fig:obraz}{{11}{14}}
\@writefile{lof}{\contentsline {figure}{\numberline {12}{\ignorespaces Tablica przedstawiaj\IeC {\k a}ca \IeC {\'s}rednie wyniki podczas manipulacji wsp\IeC {\'o}\IeC {\l }czynnikiem krzy\IeC {\.z}owania. Wsp\IeC {\'o}\IeC {\l }czynnik mutacji 0.01.\relax }}{14}}
\newlabel{fig:obraz}{{12}{14}}
\@writefile{toc}{\contentsline {section}{\numberline {5}Wnioski}{14}}
\@writefile{lof}{\contentsline {figure}{\numberline {13}{\ignorespaces Najlepszy usyskany wynik\relax }}{15}}
\newlabel{fig:obraz}{{13}{15}}
\@writefile{toc}{\contentsline {subsection}{\numberline {5.1}Najlepsze rozwi\IeC {\k a}zania}{16}}
\@writefile{toc}{\contentsline {subsection}{\numberline {5.2}Tsp 48}{16}}
\@writefile{toc}{\contentsline {subsection}{\numberline {5.3}Tsp 171}{16}}
\@writefile{toc}{\contentsline {subsection}{\numberline {5.4}Tsp 403}{16}}
\@writefile{toc}{\contentsline {section}{\numberline {6}Materia\IeC {\l }y}{17}}
