Rozwiązanie dla problemu tsp_403:
Populacja ; 500 ; Mutacja ; 0,01 ; Krzyzowanie ; 0,8 ; Rozmiar Turnieju ; 5

Ograniczenie czasowe ; 30
Koszt ; Błąd[%] ; Iteracja ; Czas[takty zegara] ; Czas[ms] ; Czas [s]
7221 ; 100 ; 0 ; 2261 ; 1 ; 0,001
7221 ; 100 ; 1 ; 132718 ; 61 ; 0,061
7221 ; 100 ; 2 ; 279198 ; 130 ; 0,13
7221 ; 100 ; 3 ; 404634 ; 188 ; 0,188
7221 ; 100 ; 4 ; 548715 ; 255 ; 0,255
7221 ; 100 ; 5 ; 683247 ; 318 ; 0,318
7221 ; 100 ; 6 ; 832425 ; 388 ; 0,388
7221 ; 100 ; 7 ; 970549 ; 452 ; 0,452
7221 ; 100 ; 8 ; 1104260 ; 515 ; 0,515
7221 ; 100 ; 9 ; 1252954 ; 584 ; 0,584
7221 ; 100 ; 10 ; 1267879 ; 591 ; 0,591
7221 ; 100 ; 11 ; 1389750 ; 648 ; 0,648
7221 ; 100 ; 12 ; 1520471 ; 709 ; 0,709
7221 ; 100 ; 13 ; 1657618 ; 773 ; 0,773
7221 ; 100 ; 14 ; 1798303 ; 838 ; 0,838
7221 ; 100 ; 15 ; 1954629 ; 911 ; 0,911
7221 ; 100 ; 16 ; 2102756 ; 981 ; 0,981
7221 ; 100 ; 17 ; 2239002 ; 1044 ; 1,044
7221 ; 100 ; 18 ; 2374460 ; 1107 ; 1,107
7221 ; 100 ; 19 ; 2492437 ; 1162 ; 1,162
7221 ; 100 ; 20 ; 2629012 ; 1226 ; 1,226
7221 ; 100 ; 21 ; 2771930 ; 1293 ; 1,293
7221 ; 100 ; 22 ; 2903077 ; 1354 ; 1,354
7221 ; 100 ; 23 ; 3035459 ; 1416 ; 1,416
7221 ; 100 ; 24 ; 3187348 ; 1487 ; 1,487
7221 ; 100 ; 25 ; 3304459 ; 1541 ; 1,541
7221 ; 100 ; 26 ; 3432781 ; 1601 ; 1,601
7221 ; 100 ; 27 ; 3579997 ; 1670 ; 1,67
7221 ; 100 ; 28 ; 3709062 ; 1730 ; 1,73
7221 ; 100 ; 29 ; 3847486 ; 1794 ; 1,794
7221 ; 100 ; 30 ; 3988397 ; 1860 ; 1,86
7221 ; 100 ; 31 ; 4127650 ; 1925 ; 1,925
7221 ; 100 ; 32 ; 4265800 ; 1990 ; 1,99
7221 ; 100 ; 33 ; 4401581 ; 2053 ; 2,053
7221 ; 100 ; 34 ; 4557197 ; 2126 ; 2,126
7221 ; 100 ; 35 ; 4702021 ; 2193 ; 2,193
7221 ; 100 ; 36 ; 4857945 ; 2266 ; 2,266
7221 ; 100 ; 37 ; 4986546 ; 2326 ; 2,326
7221 ; 100 ; 38 ; 5112736 ; 2385 ; 2,385
7221 ; 100 ; 39 ; 5252580 ; 2450 ; 2,45
7221 ; 100 ; 40 ; 5389006 ; 2514 ; 2,514
7221 ; 100 ; 41 ; 5525517 ; 2577 ; 2,577
7221 ; 100 ; 42 ; 5539608 ; 2584 ; 2,584
7221 ; 100 ; 43 ; 5673593 ; 2646 ; 2,646
7221 ; 100 ; 44 ; 5809670 ; 2710 ; 2,71
7221 ; 100 ; 45 ; 5966712 ; 2783 ; 2,783
7221 ; 100 ; 46 ; 6095026 ; 2843 ; 2,843
7221 ; 100 ; 47 ; 6233059 ; 2907 ; 2,907
7221 ; 100 ; 48 ; 6374602 ; 2973 ; 2,973
7221 ; 100 ; 49 ; 6510965 ; 3037 ; 3,037
7221 ; 100 ; 50 ; 6649908 ; 3102 ; 3,102
7221 ; 100 ; 51 ; 6796769 ; 3170 ; 3,17
7221 ; 100 ; 52 ; 6939701 ; 3237 ; 3,237
7221 ; 100 ; 53 ; 7069669 ; 3298 ; 3,298
7221 ; 100 ; 54 ; 7205075 ; 3361 ; 3,361
7221 ; 100 ; 55 ; 7333851 ; 3421 ; 3,421
7221 ; 100 ; 56 ; 7468433 ; 3484 ; 3,484
7221 ; 100 ; 57 ; 7594655 ; 3543 ; 3,543
7221 ; 100 ; 58 ; 7739092 ; 3610 ; 3,61
7221 ; 100 ; 59 ; 7752298 ; 3616 ; 3,616
7221 ; 100 ; 60 ; 7765461 ; 3622 ; 3,622
7221 ; 100 ; 61 ; 7901309 ; 3686 ; 3,686
7221 ; 100 ; 62 ; 8029556 ; 3746 ; 3,746
7221 ; 100 ; 63 ; 8164820 ; 3809 ; 3,809
7221 ; 100 ; 64 ; 8297348 ; 3870 ; 3,87
7221 ; 100 ; 65 ; 8438372 ; 3936 ; 3,936
7221 ; 100 ; 66 ; 8571001 ; 3998 ; 3,998
7221 ; 100 ; 67 ; 8588742 ; 4006 ; 4,006
7221 ; 100 ; 68 ; 8743416 ; 4079 ; 4,079
7221 ; 100 ; 69 ; 8887612 ; 4146 ; 4,146
7221 ; 100 ; 70 ; 8900663 ; 4152 ; 4,152
7221 ; 100 ; 71 ; 9035314 ; 4215 ; 4,215
7221 ; 100 ; 72 ; 9161877 ; 4274 ; 4,274
7221 ; 100 ; 73 ; 9302359 ; 4339 ; 4,339
7221 ; 100 ; 74 ; 9445324 ; 4406 ; 4,406
7221 ; 100 ; 75 ; 9583796 ; 4471 ; 4,471
7221 ; 100 ; 76 ; 9723239 ; 4536 ; 4,536
7221 ; 100 ; 77 ; 9868712 ; 4604 ; 4,604
7221 ; 100 ; 78 ; 10021182 ; 4675 ; 4,675
7221 ; 100 ; 79 ; 10156131 ; 4738 ; 4,738
7221 ; 100 ; 80 ; 10169940 ; 4744 ; 4,744
7221 ; 100 ; 81 ; 10305413 ; 4807 ; 4,807
7221 ; 100 ; 82 ; 10318517 ; 4813 ; 4,813
7132 ; 100 ; 83 ; 10460609 ; 4880 ; 4,88
7132 ; 100 ; 84 ; 10473848 ; 4886 ; 4,886
7132 ; 100 ; 85 ; 10603316 ; 4946 ; 4,946
7132 ; 100 ; 86 ; 10738114 ; 5009 ; 5,009
7132 ; 100 ; 87 ; 10880410 ; 5076 ; 5,076
7132 ; 100 ; 88 ; 10893396 ; 5082 ; 5,082
7132 ; 100 ; 89 ; 11033298 ; 5147 ; 5,147
7132 ; 100 ; 90 ; 11172874 ; 5212 ; 5,212
7132 ; 100 ; 91 ; 11316324 ; 5279 ; 5,279
7132 ; 100 ; 92 ; 11329042 ; 5285 ; 5,285
7132 ; 100 ; 93 ; 11443964 ; 5338 ; 5,338
7132 ; 100 ; 94 ; 11588902 ; 5406 ; 5,406
7132 ; 100 ; 95 ; 11601659 ; 5412 ; 5,412
7132 ; 100 ; 96 ; 11731144 ; 5472 ; 5,472
7132 ; 100 ; 97 ; 11874823 ; 5539 ; 5,539
7132 ; 100 ; 98 ; 12024171 ; 5609 ; 5,609
7132 ; 100 ; 99 ; 12037908 ; 5616 ; 5,616
7132 ; 100 ; 100 ; 12050769 ; 5622 ; 5,622
7132 ; 100 ; 101 ; 12182760 ; 5683 ; 5,683
7132 ; 100 ; 102 ; 12325825 ; 5750 ; 5,75
7132 ; 100 ; 103 ; 12485720 ; 5824 ; 5,824
7132 ; 100 ; 104 ; 12629531 ; 5892 ; 5,892
7132 ; 100 ; 105 ; 12643744 ; 5898 ; 5,898
7132 ; 100 ; 106 ; 12780318 ; 5962 ; 5,962
7132 ; 100 ; 107 ; 12918473 ; 6026 ; 6,026
7132 ; 100 ; 108 ; 13071297 ; 6098 ; 6,098
7132 ; 100 ; 109 ; 13205489 ; 6160 ; 6,16
7132 ; 100 ; 110 ; 13351592 ; 6228 ; 6,228
7132 ; 100 ; 111 ; 13497425 ; 6296 ; 6,296
7132 ; 100 ; 112 ; 13629446 ; 6358 ; 6,358
7132 ; 100 ; 113 ; 13772298 ; 6425 ; 6,425
7132 ; 100 ; 114 ; 13911969 ; 6490 ; 6,49
7132 ; 100 ; 115 ; 13924252 ; 6496 ; 6,496
7132 ; 100 ; 116 ; 14045863 ; 6552 ; 6,552
7132 ; 100 ; 117 ; 14175618 ; 6613 ; 6,613
7132 ; 100 ; 118 ; 14314402 ; 6678 ; 6,678
7132 ; 100 ; 119 ; 14450409 ; 6741 ; 6,741
7132 ; 100 ; 120 ; 14580052 ; 6802 ; 6,802
7132 ; 100 ; 121 ; 14711775 ; 6863 ; 6,863
7132 ; 100 ; 122 ; 14723920 ; 6869 ; 6,869
7132 ; 100 ; 123 ; 14736477 ; 6875 ; 6,875
7132 ; 100 ; 124 ; 14868876 ; 6936 ; 6,936
7132 ; 100 ; 125 ; 14997035 ; 6996 ; 6,996
7132 ; 100 ; 126 ; 15127070 ; 7057 ; 7,057
7132 ; 100 ; 127 ; 15268516 ; 7123 ; 7,123
7132 ; 100 ; 128 ; 15391117 ; 7180 ; 7,18
7132 ; 100 ; 129 ; 15403513 ; 7186 ; 7,186
7132 ; 100 ; 130 ; 15416175 ; 7192 ; 7,192
7132 ; 100 ; 131 ; 15554794 ; 7256 ; 7,256
7132 ; 100 ; 132 ; 15566782 ; 7262 ; 7,262
7132 ; 100 ; 133 ; 15710939 ; 7329 ; 7,329
7132 ; 100 ; 134 ; 15842604 ; 7391 ; 7,391
7132 ; 100 ; 135 ; 15986025 ; 7457 ; 7,457
7132 ; 100 ; 136 ; 16130560 ; 7525 ; 7,525
7132 ; 100 ; 137 ; 16142824 ; 7531 ; 7,531
7132 ; 100 ; 138 ; 16272489 ; 7591 ; 7,591
7132 ; 100 ; 139 ; 16404577 ; 7653 ; 7,653
7132 ; 100 ; 140 ; 16550115 ; 7721 ; 7,721
7132 ; 100 ; 141 ; 16700088 ; 7791 ; 7,791
7132 ; 100 ; 142 ; 16826352 ; 7850 ; 7,85
7132 ; 100 ; 143 ; 16970499 ; 7917 ; 7,917
7132 ; 100 ; 144 ; 16982384 ; 7922 ; 7,922
7132 ; 100 ; 145 ; 16994149 ; 7928 ; 7,928
7132 ; 100 ; 146 ; 17125546 ; 7989 ; 7,989
7132 ; 100 ; 147 ; 17247852 ; 8046 ; 8,046
7132 ; 100 ; 148 ; 17382952 ; 8109 ; 8,109
7132 ; 100 ; 149 ; 17520373 ; 8173 ; 8,173
7132 ; 100 ; 150 ; 17532795 ; 8179 ; 8,179
7132 ; 100 ; 151 ; 17658340 ; 8238 ; 8,238
7132 ; 100 ; 152 ; 17791420 ; 8300 ; 8,3
7132 ; 100 ; 153 ; 17908963 ; 8355 ; 8,355
7132 ; 100 ; 154 ; 18047749 ; 8419 ; 8,419
7132 ; 100 ; 155 ; 18174860 ; 8479 ; 8,479
7132 ; 100 ; 156 ; 18315886 ; 8544 ; 8,544
7132 ; 100 ; 157 ; 18446744 ; 8606 ; 8,606
7132 ; 100 ; 158 ; 18459415 ; 8611 ; 8,611
7132 ; 100 ; 159 ; 18597937 ; 8676 ; 8,676
7132 ; 100 ; 160 ; 18733781 ; 8739 ; 8,739
7132 ; 100 ; 161 ; 18746499 ; 8745 ; 8,745
7132 ; 100 ; 162 ; 18891227 ; 8813 ; 8,813
7132 ; 100 ; 163 ; 19029174 ; 8877 ; 8,877
7132 ; 100 ; 164 ; 19189094 ; 8952 ; 8,952
7132 ; 100 ; 165 ; 19202680 ; 8958 ; 8,958
7132 ; 100 ; 166 ; 19401849 ; 9051 ; 9,051
7132 ; 100 ; 167 ; 19546472 ; 9119 ; 9,119
7132 ; 100 ; 168 ; 19701778 ; 9191 ; 9,191
7132 ; 100 ; 169 ; 19883707 ; 9276 ; 9,276
7132 ; 100 ; 170 ; 20117345 ; 9385 ; 9,385
7132 ; 100 ; 171 ; 20252282 ; 9448 ; 9,448
7132 ; 100 ; 172 ; 20265557 ; 9454 ; 9,454
7132 ; 100 ; 173 ; 20435470 ; 9533 ; 9,533
7132 ; 100 ; 174 ; 20581594 ; 9601 ; 9,601
7132 ; 100 ; 175 ; 20768870 ; 9689 ; 9,689
7132 ; 100 ; 176 ; 20966059 ; 9781 ; 9,781
7132 ; 100 ; 177 ; 20982279 ; 9788 ; 9,788
7132 ; 100 ; 178 ; 21134100 ; 9859 ; 9,859
7132 ; 100 ; 179 ; 21146803 ; 9865 ; 9,865
7132 ; 100 ; 180 ; 21284338 ; 9929 ; 9,929
7132 ; 100 ; 181 ; 21423793 ; 9994 ; 9,994
7132 ; 100 ; 182 ; 21435527 ; 10000 ; 10
7132 ; 100 ; 183 ; 21447542 ; 10005 ; 10,005
7132 ; 100 ; 184 ; 21459521 ; 10011 ; 10,011
7132 ; 100 ; 185 ; 21471444 ; 10017 ; 10,017
7132 ; 100 ; 186 ; 21615537 ; 10084 ; 10,084
7132 ; 100 ; 187 ; 21759370 ; 10151 ; 10,151
7132 ; 100 ; 188 ; 21896351 ; 10215 ; 10,215
7132 ; 100 ; 189 ; 22027006 ; 10276 ; 10,276
7132 ; 100 ; 190 ; 22172486 ; 10344 ; 10,344
7132 ; 100 ; 191 ; 22293996 ; 10400 ; 10,4
7132 ; 100 ; 192 ; 22425725 ; 10462 ; 10,462
7132 ; 100 ; 193 ; 22573774 ; 10531 ; 10,531
7132 ; 100 ; 194 ; 22717557 ; 10598 ; 10,598
7132 ; 100 ; 195 ; 22853290 ; 10661 ; 10,661
7132 ; 100 ; 196 ; 22864801 ; 10667 ; 10,667
7132 ; 100 ; 197 ; 22983457 ; 10722 ; 10,722
7132 ; 100 ; 198 ; 23127218 ; 10789 ; 10,789
7132 ; 100 ; 199 ; 23273760 ; 10857 ; 10,857
7132 ; 100 ; 200 ; 23418239 ; 10925 ; 10,925
7132 ; 100 ; 201 ; 23431706 ; 10931 ; 10,931
7132 ; 100 ; 202 ; 23559066 ; 10991 ; 10,991
7132 ; 100 ; 203 ; 23570537 ; 10996 ; 10,996
7132 ; 100 ; 204 ; 23582325 ; 11001 ; 11,001
7132 ; 100 ; 205 ; 23726276 ; 11069 ; 11,069
7132 ; 100 ; 206 ; 23875782 ; 11138 ; 11,138
7132 ; 100 ; 207 ; 24019889 ; 11206 ; 11,206
7132 ; 100 ; 208 ; 24140673 ; 11262 ; 11,262
7132 ; 100 ; 209 ; 24152254 ; 11267 ; 11,267
7132 ; 100 ; 210 ; 24284558 ; 11329 ; 11,329
7132 ; 100 ; 211 ; 24418733 ; 11392 ; 11,392
7132 ; 100 ; 212 ; 24430917 ; 11397 ; 11,397
7132 ; 100 ; 213 ; 24442827 ; 11403 ; 11,403
7132 ; 100 ; 214 ; 24573971 ; 11464 ; 11,464
7132 ; 100 ; 215 ; 24702435 ; 11524 ; 11,524
7132 ; 100 ; 216 ; 24714038 ; 11529 ; 11,529
7132 ; 100 ; 217 ; 24856111 ; 11596 ; 11,596
7132 ; 100 ; 218 ; 24990042 ; 11658 ; 11,658
7132 ; 100 ; 219 ; 25117993 ; 11718 ; 11,718
7132 ; 100 ; 220 ; 25269571 ; 11789 ; 11,789
7132 ; 100 ; 221 ; 25403747 ; 11851 ; 11,851
7132 ; 100 ; 222 ; 25529706 ; 11910 ; 11,91
7132 ; 100 ; 223 ; 25655568 ; 11969 ; 11,969
7132 ; 100 ; 224 ; 25667428 ; 11974 ; 11,974
7132 ; 100 ; 225 ; 25814406 ; 12043 ; 12,043
7132 ; 100 ; 226 ; 25826231 ; 12048 ; 12,048
7132 ; 100 ; 227 ; 25971269 ; 12116 ; 12,116
7132 ; 100 ; 228 ; 25983321 ; 12122 ; 12,122
7132 ; 100 ; 229 ; 25995139 ; 12127 ; 12,127
7132 ; 100 ; 230 ; 26007071 ; 12133 ; 12,133
7132 ; 100 ; 231 ; 26136656 ; 12193 ; 12,193
7132 ; 100 ; 232 ; 26274709 ; 12258 ; 12,258
7132 ; 100 ; 233 ; 26286303 ; 12263 ; 12,263
7132 ; 100 ; 234 ; 26413406 ; 12322 ; 12,322
7132 ; 100 ; 235 ; 26546473 ; 12384 ; 12,384
7132 ; 100 ; 236 ; 26689421 ; 12451 ; 12,451
7132 ; 100 ; 237 ; 26816185 ; 12510 ; 12,51
7132 ; 100 ; 238 ; 26960661 ; 12578 ; 12,578
7132 ; 100 ; 239 ; 26972624 ; 12583 ; 12,583
7132 ; 100 ; 240 ; 26985861 ; 12589 ; 12,589
7132 ; 100 ; 241 ; 27131782 ; 12657 ; 12,657
7132 ; 100 ; 242 ; 27269108 ; 12721 ; 12,721
7132 ; 100 ; 243 ; 27400666 ; 12783 ; 12,783
7132 ; 100 ; 244 ; 27412876 ; 12788 ; 12,788
7132 ; 100 ; 245 ; 27549024 ; 12852 ; 12,852
7132 ; 100 ; 246 ; 27692492 ; 12919 ; 12,919
7132 ; 100 ; 247 ; 27840199 ; 12988 ; 12,988
7132 ; 100 ; 248 ; 27978085 ; 13052 ; 13,052
7132 ; 100 ; 249 ; 27989743 ; 13058 ; 13,058
7132 ; 100 ; 250 ; 28001280 ; 13063 ; 13,063
7132 ; 100 ; 251 ; 28012970 ; 13068 ; 13,068
7132 ; 100 ; 252 ; 28145002 ; 13130 ; 13,13
7132 ; 100 ; 253 ; 28280685 ; 13193 ; 13,193
7132 ; 100 ; 254 ; 28292292 ; 13199 ; 13,199
7132 ; 100 ; 255 ; 28304134 ; 13204 ; 13,204
7132 ; 100 ; 256 ; 28433765 ; 13265 ; 13,265
7132 ; 100 ; 257 ; 28572567 ; 13330 ; 13,33
7132 ; 100 ; 258 ; 28584144 ; 13335 ; 13,335
7132 ; 100 ; 259 ; 28711894 ; 13395 ; 13,395
7132 ; 100 ; 260 ; 28849601 ; 13459 ; 13,459
7132 ; 100 ; 261 ; 28860940 ; 13464 ; 13,464
7132 ; 100 ; 262 ; 28992462 ; 13525 ; 13,525
7132 ; 100 ; 263 ; 29143474 ; 13596 ; 13,596
7132 ; 100 ; 264 ; 29264935 ; 13653 ; 13,653
7132 ; 100 ; 265 ; 29276414 ; 13658 ; 13,658
7132 ; 100 ; 266 ; 29415140 ; 13723 ; 13,723
7132 ; 100 ; 267 ; 29554064 ; 13787 ; 13,787
7132 ; 100 ; 268 ; 29694077 ; 13853 ; 13,853
7132 ; 100 ; 269 ; 29826604 ; 13915 ; 13,915
7132 ; 100 ; 270 ; 29840032 ; 13921 ; 13,921
7132 ; 100 ; 271 ; 29983520 ; 13988 ; 13,988
7132 ; 100 ; 272 ; 29995397 ; 13993 ; 13,993
7132 ; 100 ; 273 ; 30120082 ; 14051 ; 14,051
7132 ; 100 ; 274 ; 30255982 ; 14115 ; 14,115
7132 ; 100 ; 275 ; 30390086 ; 14177 ; 14,177
7132 ; 100 ; 276 ; 30523363 ; 14240 ; 14,24
7132 ; 100 ; 277 ; 30535778 ; 14245 ; 14,245
7132 ; 100 ; 278 ; 30684995 ; 14315 ; 14,315
7132 ; 100 ; 279 ; 30822677 ; 14379 ; 14,379
7132 ; 100 ; 280 ; 30834648 ; 14385 ; 14,385
7132 ; 100 ; 281 ; 30846787 ; 14391 ; 14,391
7132 ; 100 ; 282 ; 30858592 ; 14396 ; 14,396
7132 ; 100 ; 283 ; 30870400 ; 14402 ; 14,402
7132 ; 100 ; 284 ; 31017620 ; 14470 ; 14,47
7132 ; 100 ; 285 ; 31030698 ; 14476 ; 14,476
7132 ; 100 ; 286 ; 31178324 ; 14545 ; 14,545
7132 ; 100 ; 287 ; 31311184 ; 14607 ; 14,607
7132 ; 100 ; 288 ; 31438279 ; 14666 ; 14,666
7132 ; 100 ; 289 ; 31449705 ; 14672 ; 14,672
7132 ; 100 ; 290 ; 31584941 ; 14735 ; 14,735
7132 ; 100 ; 291 ; 31712499 ; 14794 ; 14,794
7132 ; 100 ; 292 ; 31724296 ; 14800 ; 14,8
7132 ; 100 ; 293 ; 31860385 ; 14863 ; 14,863
7132 ; 100 ; 294 ; 31872536 ; 14869 ; 14,869
7132 ; 100 ; 295 ; 31995092 ; 14926 ; 14,926
7132 ; 100 ; 296 ; 32006726 ; 14932 ; 14,932
7132 ; 100 ; 297 ; 32129437 ; 14989 ; 14,989
7132 ; 100 ; 298 ; 32281739 ; 15060 ; 15,06
7132 ; 100 ; 299 ; 32293122 ; 15065 ; 15,065
7132 ; 100 ; 300 ; 32429970 ; 15129 ; 15,129
7132 ; 100 ; 301 ; 32442349 ; 15135 ; 15,135
7132 ; 100 ; 302 ; 32562063 ; 15191 ; 15,191
7132 ; 100 ; 303 ; 32576957 ; 15198 ; 15,198
7132 ; 100 ; 304 ; 32588440 ; 15203 ; 15,203
7132 ; 100 ; 305 ; 32600105 ; 15209 ; 15,209
7132 ; 100 ; 306 ; 32735032 ; 15271 ; 15,271
7132 ; 100 ; 307 ; 32746513 ; 15277 ; 15,277
7132 ; 100 ; 308 ; 32871459 ; 15335 ; 15,335
7132 ; 100 ; 309 ; 32883176 ; 15341 ; 15,341
7132 ; 100 ; 310 ; 32894544 ; 15346 ; 15,346
7132 ; 100 ; 311 ; 32905956 ; 15351 ; 15,351
7132 ; 100 ; 312 ; 33041692 ; 15415 ; 15,415
7132 ; 100 ; 313 ; 33053230 ; 15420 ; 15,42
7132 ; 100 ; 314 ; 33182878 ; 15480 ; 15,48
7132 ; 100 ; 315 ; 33194599 ; 15486 ; 15,486
7132 ; 100 ; 316 ; 33324908 ; 15547 ; 15,547
7132 ; 100 ; 317 ; 33466559 ; 15613 ; 15,613
7132 ; 100 ; 318 ; 33597362 ; 15674 ; 15,674
7132 ; 100 ; 319 ; 33608624 ; 15679 ; 15,679
7132 ; 100 ; 320 ; 33747550 ; 15744 ; 15,744
7132 ; 100 ; 321 ; 33884842 ; 15808 ; 15,808
7132 ; 100 ; 322 ; 33897139 ; 15814 ; 15,814
7132 ; 100 ; 323 ; 33909575 ; 15819 ; 15,819
7132 ; 100 ; 324 ; 34049810 ; 15885 ; 15,885
7132 ; 100 ; 325 ; 34061392 ; 15890 ; 15,89
7132 ; 100 ; 326 ; 34194998 ; 15953 ; 15,953
7132 ; 100 ; 327 ; 34206473 ; 15958 ; 15,958
7132 ; 100 ; 328 ; 34217752 ; 15963 ; 15,963
7132 ; 100 ; 329 ; 34228929 ; 15968 ; 15,968
7132 ; 100 ; 330 ; 34240543 ; 15974 ; 15,974
7132 ; 100 ; 331 ; 34379937 ; 16039 ; 16,039
7132 ; 100 ; 332 ; 34391369 ; 16044 ; 16,044
7132 ; 100 ; 333 ; 34535857 ; 16112 ; 16,112
7132 ; 100 ; 334 ; 34672952 ; 16176 ; 16,176
7132 ; 100 ; 335 ; 34794434 ; 16232 ; 16,232
7132 ; 100 ; 336 ; 34805825 ; 16238 ; 16,238
7132 ; 100 ; 337 ; 34935247 ; 16298 ; 16,298
7132 ; 100 ; 338 ; 34946746 ; 16303 ; 16,303
7132 ; 100 ; 339 ; 35071329 ; 16361 ; 16,361
7132 ; 100 ; 340 ; 35225846 ; 16433 ; 16,433
7132 ; 100 ; 341 ; 35361275 ; 16497 ; 16,497
7132 ; 100 ; 342 ; 35372730 ; 16502 ; 16,502
7132 ; 100 ; 343 ; 35384320 ; 16507 ; 16,507
7132 ; 100 ; 344 ; 35505540 ; 16564 ; 16,564
7132 ; 100 ; 345 ; 35516970 ; 16569 ; 16,569
7132 ; 100 ; 346 ; 35639497 ; 16626 ; 16,626
7132 ; 100 ; 347 ; 35650722 ; 16632 ; 16,632
7132 ; 100 ; 348 ; 35662545 ; 16637 ; 16,637
7132 ; 100 ; 349 ; 35796163 ; 16700 ; 16,7
7132 ; 100 ; 350 ; 35931729 ; 16763 ; 16,763
7132 ; 100 ; 351 ; 35942946 ; 16768 ; 16,768
7132 ; 100 ; 352 ; 35954286 ; 16773 ; 16,773
7132 ; 100 ; 353 ; 35966029 ; 16779 ; 16,779
7132 ; 100 ; 354 ; 36105528 ; 16844 ; 16,844
7132 ; 100 ; 355 ; 36117153 ; 16849 ; 16,849
7132 ; 100 ; 356 ; 36250802 ; 16912 ; 16,912
7132 ; 100 ; 357 ; 36381096 ; 16972 ; 16,972
7132 ; 100 ; 358 ; 36393001 ; 16978 ; 16,978
7132 ; 100 ; 359 ; 36535812 ; 17045 ; 17,045
7132 ; 100 ; 360 ; 36547372 ; 17050 ; 17,05
7132 ; 100 ; 361 ; 36558945 ; 17055 ; 17,055
7132 ; 100 ; 362 ; 36570367 ; 17061 ; 17,061
7132 ; 100 ; 363 ; 36690641 ; 17117 ; 17,117
7132 ; 100 ; 364 ; 36702374 ; 17122 ; 17,122
7132 ; 100 ; 365 ; 36832691 ; 17183 ; 17,183
7132 ; 100 ; 366 ; 36844570 ; 17189 ; 17,189
7132 ; 100 ; 367 ; 36969254 ; 17247 ; 17,247
7132 ; 100 ; 368 ; 37087339 ; 17302 ; 17,302
7132 ; 100 ; 369 ; 37098967 ; 17307 ; 17,307
7132 ; 100 ; 370 ; 37234515 ; 17371 ; 17,371
7132 ; 100 ; 371 ; 37373346 ; 17435 ; 17,435
7132 ; 100 ; 372 ; 37499931 ; 17494 ; 17,494
7132 ; 100 ; 373 ; 37631724 ; 17556 ; 17,556
7132 ; 100 ; 374 ; 37769691 ; 17620 ; 17,62
7132 ; 100 ; 375 ; 37781257 ; 17626 ; 17,626
7132 ; 100 ; 376 ; 37905353 ; 17684 ; 17,684
7132 ; 100 ; 377 ; 37917032 ; 17689 ; 17,689
7132 ; 100 ; 378 ; 38047942 ; 17750 ; 17,75
7132 ; 100 ; 379 ; 38166314 ; 17805 ; 17,805
7132 ; 100 ; 380 ; 38177957 ; 17811 ; 17,811
7132 ; 100 ; 381 ; 38304610 ; 17870 ; 17,87
7132 ; 100 ; 382 ; 38315907 ; 17875 ; 17,875
7132 ; 100 ; 383 ; 38327359 ; 17880 ; 17,88
7132 ; 100 ; 384 ; 38338657 ; 17886 ; 17,886
7132 ; 100 ; 385 ; 38350464 ; 17891 ; 17,891
7132 ; 100 ; 386 ; 38361859 ; 17897 ; 17,897
7132 ; 100 ; 387 ; 38497558 ; 17960 ; 17,96
7132 ; 100 ; 388 ; 38631707 ; 18022 ; 18,022
7132 ; 100 ; 389 ; 38643167 ; 18028 ; 18,028
7132 ; 100 ; 390 ; 38654466 ; 18033 ; 18,033
7132 ; 100 ; 391 ; 38665777 ; 18038 ; 18,038
7132 ; 100 ; 392 ; 38787849 ; 18095 ; 18,095
7132 ; 100 ; 393 ; 38799059 ; 18101 ; 18,101
7132 ; 100 ; 394 ; 38810417 ; 18106 ; 18,106
7132 ; 100 ; 395 ; 38930960 ; 18162 ; 18,162
7132 ; 100 ; 396 ; 39075301 ; 18229 ; 18,229
7132 ; 100 ; 397 ; 39208094 ; 18291 ; 18,291
7132 ; 100 ; 398 ; 39340114 ; 18353 ; 18,353
7132 ; 100 ; 399 ; 39351866 ; 18358 ; 18,358
7132 ; 100 ; 400 ; 39485176 ; 18421 ; 18,421
7132 ; 100 ; 401 ; 39624732 ; 18486 ; 18,486
7132 ; 100 ; 402 ; 39762820 ; 18550 ; 18,55
7132 ; 100 ; 403 ; 39891699 ; 18610 ; 18,61
7132 ; 100 ; 404 ; 39902944 ; 18616 ; 18,616
7132 ; 100 ; 405 ; 40045495 ; 18682 ; 18,682
7132 ; 100 ; 406 ; 40186976 ; 18748 ; 18,748
7132 ; 100 ; 407 ; 40198194 ; 18753 ; 18,753
7132 ; 100 ; 408 ; 40210215 ; 18759 ; 18,759
7132 ; 100 ; 409 ; 40345929 ; 18822 ; 18,822
7132 ; 100 ; 410 ; 40357257 ; 18827 ; 18,827
7132 ; 100 ; 411 ; 40497141 ; 18893 ; 18,893
7132 ; 100 ; 412 ; 40508947 ; 18898 ; 18,898
7132 ; 100 ; 413 ; 40642685 ; 18961 ; 18,961
7132 ; 100 ; 414 ; 40787732 ; 19028 ; 19,028
7132 ; 100 ; 415 ; 40799617 ; 19034 ; 19,034
7132 ; 100 ; 416 ; 40810845 ; 19039 ; 19,039
7132 ; 100 ; 417 ; 40822455 ; 19044 ; 19,044
7132 ; 100 ; 418 ; 40953155 ; 19105 ; 19,105
7132 ; 100 ; 419 ; 40964493 ; 19111 ; 19,111
7132 ; 100 ; 420 ; 41087402 ; 19168 ; 19,168
7132 ; 100 ; 421 ; 41218769 ; 19229 ; 19,229
7132 ; 100 ; 422 ; 41230163 ; 19235 ; 19,235
7132 ; 100 ; 423 ; 41241279 ; 19240 ; 19,24
7132 ; 100 ; 424 ; 41383243 ; 19306 ; 19,306
7132 ; 100 ; 425 ; 41508888 ; 19365 ; 19,365
7132 ; 100 ; 426 ; 41640079 ; 19426 ; 19,426
7132 ; 100 ; 427 ; 41777523 ; 19490 ; 19,49
7132 ; 100 ; 428 ; 41910241 ; 19552 ; 19,552
7132 ; 100 ; 429 ; 41921892 ; 19557 ; 19,557
7132 ; 100 ; 430 ; 41933474 ; 19563 ; 19,563
7132 ; 100 ; 431 ; 41944817 ; 19568 ; 19,568
7132 ; 100 ; 432 ; 41956505 ; 19574 ; 19,574
7132 ; 100 ; 433 ; 41967876 ; 19579 ; 19,579
7132 ; 100 ; 434 ; 42107910 ; 19644 ; 19,644
7132 ; 100 ; 435 ; 42238559 ; 19705 ; 19,705
7132 ; 100 ; 436 ; 42377562 ; 19770 ; 19,77
7132 ; 100 ; 437 ; 42506567 ; 19830 ; 19,83
7132 ; 100 ; 438 ; 42518103 ; 19836 ; 19,836
7132 ; 100 ; 439 ; 42655188 ; 19900 ; 19,9
7132 ; 100 ; 440 ; 42666491 ; 19905 ; 19,905
7132 ; 100 ; 441 ; 42786998 ; 19961 ; 19,961
7132 ; 100 ; 442 ; 42798328 ; 19966 ; 19,966
7132 ; 100 ; 443 ; 42941954 ; 20033 ; 20,033
7132 ; 100 ; 444 ; 42953222 ; 20039 ; 20,039
7132 ; 100 ; 445 ; 42964630 ; 20044 ; 20,044
7132 ; 100 ; 446 ; 42975719 ; 20049 ; 20,049
7132 ; 100 ; 447 ; 42987407 ; 20055 ; 20,055
7132 ; 100 ; 448 ; 43105283 ; 20110 ; 20,11
7132 ; 100 ; 449 ; 43226544 ; 20166 ; 20,166
7132 ; 100 ; 450 ; 43372897 ; 20234 ; 20,234
7132 ; 100 ; 451 ; 43505807 ; 20296 ; 20,296
7132 ; 100 ; 452 ; 43628335 ; 20354 ; 20,354
7132 ; 100 ; 453 ; 43639813 ; 20359 ; 20,359
7132 ; 100 ; 454 ; 43651237 ; 20364 ; 20,364
7132 ; 100 ; 455 ; 43662659 ; 20370 ; 20,37
7132 ; 100 ; 456 ; 43794132 ; 20431 ; 20,431
7132 ; 100 ; 457 ; 43805405 ; 20436 ; 20,436
7132 ; 100 ; 458 ; 43816716 ; 20441 ; 20,441
7132 ; 100 ; 459 ; 43828421 ; 20447 ; 20,447
7132 ; 100 ; 460 ; 43950649 ; 20504 ; 20,504
7132 ; 100 ; 461 ; 43962702 ; 20510 ; 20,51
7132 ; 100 ; 462 ; 44089134 ; 20569 ; 20,569
7132 ; 100 ; 463 ; 44230503 ; 20634 ; 20,634
7132 ; 100 ; 464 ; 44241906 ; 20640 ; 20,64
7132 ; 100 ; 465 ; 44253679 ; 20645 ; 20,645
7132 ; 100 ; 466 ; 44388460 ; 20708 ; 20,708
7132 ; 100 ; 467 ; 44526834 ; 20773 ; 20,773
7132 ; 100 ; 468 ; 44538132 ; 20778 ; 20,778
7132 ; 100 ; 469 ; 44549492 ; 20783 ; 20,783
7132 ; 100 ; 470 ; 44561166 ; 20789 ; 20,789
7132 ; 100 ; 471 ; 44573601 ; 20795 ; 20,795
7132 ; 100 ; 472 ; 44585178 ; 20800 ; 20,8
7132 ; 100 ; 473 ; 44596367 ; 20805 ; 20,805
7132 ; 100 ; 474 ; 44607812 ; 20810 ; 20,81
7132 ; 100 ; 475 ; 44619021 ; 20816 ; 20,816
7132 ; 100 ; 476 ; 44745118 ; 20875 ; 20,875
7132 ; 100 ; 477 ; 44756530 ; 20880 ; 20,88
7132 ; 100 ; 478 ; 44767916 ; 20885 ; 20,885
7132 ; 100 ; 479 ; 44779713 ; 20891 ; 20,891
7132 ; 100 ; 480 ; 44791006 ; 20896 ; 20,896
7132 ; 100 ; 481 ; 44914014 ; 20953 ; 20,953
7132 ; 100 ; 482 ; 44925306 ; 20959 ; 20,959
7132 ; 100 ; 483 ; 44936367 ; 20964 ; 20,964
7132 ; 100 ; 484 ; 44947534 ; 20969 ; 20,969
7132 ; 100 ; 485 ; 44958679 ; 20974 ; 20,974
7132 ; 100 ; 486 ; 44969967 ; 20979 ; 20,979
7132 ; 100 ; 487 ; 45106488 ; 21043 ; 21,043
7132 ; 100 ; 488 ; 45117634 ; 21048 ; 21,048
7132 ; 100 ; 489 ; 45128772 ; 21054 ; 21,054
7132 ; 100 ; 490 ; 45140068 ; 21059 ; 21,059
7132 ; 100 ; 491 ; 45266025 ; 21118 ; 21,118
7132 ; 100 ; 492 ; 45418984 ; 21189 ; 21,189
7132 ; 100 ; 493 ; 45434525 ; 21196 ; 21,196
7132 ; 100 ; 494 ; 45561351 ; 21255 ; 21,255
7132 ; 100 ; 495 ; 45702084 ; 21321 ; 21,321
7132 ; 100 ; 496 ; 45834907 ; 21383 ; 21,383
7132 ; 100 ; 497 ; 45846624 ; 21388 ; 21,388
7132 ; 100 ; 498 ; 45982900 ; 21452 ; 21,452
7132 ; 100 ; 499 ; 46124982 ; 21518 ; 21,518
7132 ; 100 ; 500 ; 46261712 ; 21582 ; 21,582
7132 ; 100 ; 501 ; 46402833 ; 21648 ; 21,648
7132 ; 100 ; 502 ; 46551445 ; 21717 ; 21,717
7132 ; 100 ; 503 ; 46699080 ; 21786 ; 21,786
7132 ; 100 ; 504 ; 46840304 ; 21852 ; 21,852
7132 ; 100 ; 505 ; 46955708 ; 21906 ; 21,906
7132 ; 100 ; 506 ; 46967482 ; 21911 ; 21,911
7132 ; 100 ; 507 ; 47092397 ; 21970 ; 21,97
7132 ; 100 ; 508 ; 47104498 ; 21975 ; 21,975
7132 ; 100 ; 509 ; 47115734 ; 21981 ; 21,981
7132 ; 100 ; 510 ; 47261218 ; 22048 ; 22,048
7132 ; 100 ; 511 ; 47378681 ; 22103 ; 22,103
7132 ; 100 ; 512 ; 47389942 ; 22108 ; 22,108
7132 ; 100 ; 513 ; 47401362 ; 22114 ; 22,114
7132 ; 100 ; 514 ; 47412953 ; 22119 ; 22,119
7132 ; 100 ; 515 ; 47424818 ; 22125 ; 22,125
7132 ; 100 ; 516 ; 47571880 ; 22193 ; 22,193
7132 ; 100 ; 517 ; 47583327 ; 22199 ; 22,199
7132 ; 100 ; 518 ; 47594905 ; 22204 ; 22,204
7132 ; 100 ; 519 ; 47606392 ; 22209 ; 22,209
7132 ; 100 ; 520 ; 47733611 ; 22269 ; 22,269
7132 ; 100 ; 521 ; 47745062 ; 22274 ; 22,274
7132 ; 100 ; 522 ; 47873006 ; 22334 ; 22,334
7132 ; 100 ; 523 ; 48001935 ; 22394 ; 22,394
7132 ; 100 ; 524 ; 48013592 ; 22399 ; 22,399
7132 ; 100 ; 525 ; 48138852 ; 22458 ; 22,458
7132 ; 100 ; 526 ; 48149928 ; 22463 ; 22,463
7132 ; 100 ; 527 ; 48161293 ; 22468 ; 22,468
7132 ; 100 ; 528 ; 48172573 ; 22474 ; 22,474
7132 ; 100 ; 529 ; 48183896 ; 22479 ; 22,479
7132 ; 100 ; 530 ; 48195701 ; 22484 ; 22,484
7132 ; 100 ; 531 ; 48207123 ; 22490 ; 22,49
7132 ; 100 ; 532 ; 48218653 ; 22495 ; 22,495
7132 ; 100 ; 533 ; 48358189 ; 22560 ; 22,56
7132 ; 100 ; 534 ; 48481985 ; 22618 ; 22,618
7132 ; 100 ; 535 ; 48493684 ; 22623 ; 22,623
7132 ; 100 ; 536 ; 48504876 ; 22629 ; 22,629
7132 ; 100 ; 537 ; 48515971 ; 22634 ; 22,634
7132 ; 100 ; 538 ; 48630834 ; 22687 ; 22,687
7132 ; 100 ; 539 ; 48642527 ; 22693 ; 22,693
7132 ; 100 ; 540 ; 48772353 ; 22753 ; 22,753
7132 ; 100 ; 541 ; 48906772 ; 22816 ; 22,816
7132 ; 100 ; 542 ; 48918190 ; 22821 ; 22,821
7132 ; 100 ; 543 ; 48929634 ; 22827 ; 22,827
7132 ; 100 ; 544 ; 48941228 ; 22832 ; 22,832
7132 ; 100 ; 545 ; 49066898 ; 22891 ; 22,891
7132 ; 100 ; 546 ; 49201250 ; 22953 ; 22,953
7132 ; 100 ; 547 ; 49340993 ; 23019 ; 23,019
7132 ; 100 ; 548 ; 49352509 ; 23024 ; 23,024
7132 ; 100 ; 549 ; 49364388 ; 23030 ; 23,03
7132 ; 100 ; 550 ; 49375785 ; 23035 ; 23,035
7132 ; 100 ; 551 ; 49387770 ; 23040 ; 23,04
7132 ; 100 ; 552 ; 49399373 ; 23046 ; 23,046
7132 ; 100 ; 553 ; 49410810 ; 23051 ; 23,051
7132 ; 100 ; 554 ; 49540265 ; 23112 ; 23,112
7132 ; 100 ; 555 ; 49552281 ; 23117 ; 23,117
7132 ; 100 ; 556 ; 49690005 ; 23181 ; 23,181
7132 ; 100 ; 557 ; 49842376 ; 23253 ; 23,253
7132 ; 100 ; 558 ; 49854301 ; 23258 ; 23,258
7132 ; 100 ; 559 ; 49991626 ; 23322 ; 23,322
7132 ; 100 ; 560 ; 50127323 ; 23386 ; 23,386
7132 ; 100 ; 561 ; 50139278 ; 23391 ; 23,391
7132 ; 100 ; 562 ; 50150960 ; 23397 ; 23,397
7132 ; 100 ; 563 ; 50287947 ; 23460 ; 23,46
7132 ; 100 ; 564 ; 50299509 ; 23466 ; 23,466
7132 ; 100 ; 565 ; 50310885 ; 23471 ; 23,471
7132 ; 100 ; 566 ; 50322595 ; 23477 ; 23,477
7132 ; 100 ; 567 ; 50448532 ; 23535 ; 23,535
7132 ; 100 ; 568 ; 50460316 ; 23541 ; 23,541
7132 ; 100 ; 569 ; 50603424 ; 23608 ; 23,608
7132 ; 100 ; 570 ; 50614883 ; 23613 ; 23,613
7132 ; 100 ; 571 ; 50626566 ; 23618 ; 23,618
7132 ; 100 ; 572 ; 50751133 ; 23677 ; 23,677
7132 ; 100 ; 573 ; 50891522 ; 23742 ; 23,742
7132 ; 100 ; 574 ; 50903578 ; 23748 ; 23,748
7132 ; 100 ; 575 ; 51025586 ; 23805 ; 23,805
7132 ; 100 ; 576 ; 51037317 ; 23810 ; 23,81
7132 ; 100 ; 577 ; 51048712 ; 23815 ; 23,815
7132 ; 100 ; 578 ; 51060323 ; 23821 ; 23,821
7132 ; 100 ; 579 ; 51071446 ; 23826 ; 23,826
7132 ; 100 ; 580 ; 51082721 ; 23831 ; 23,831
7132 ; 100 ; 581 ; 51216915 ; 23894 ; 23,894
7132 ; 100 ; 582 ; 51356243 ; 23959 ; 23,959
7132 ; 100 ; 583 ; 51367954 ; 23964 ; 23,964
7132 ; 100 ; 584 ; 51379182 ; 23970 ; 23,97
7132 ; 100 ; 585 ; 51503038 ; 24027 ; 24,027
7132 ; 100 ; 586 ; 51514470 ; 24033 ; 24,033
7132 ; 100 ; 587 ; 51525696 ; 24038 ; 24,038
7132 ; 100 ; 588 ; 51657710 ; 24099 ; 24,099
7132 ; 100 ; 589 ; 51669451 ; 24105 ; 24,105
7132 ; 100 ; 590 ; 51680682 ; 24110 ; 24,11
7132 ; 100 ; 591 ; 51691860 ; 24115 ; 24,115
7132 ; 100 ; 592 ; 51703245 ; 24121 ; 24,121
7132 ; 100 ; 593 ; 51838035 ; 24184 ; 24,184
7132 ; 100 ; 594 ; 51984490 ; 24252 ; 24,252
7132 ; 100 ; 595 ; 51995748 ; 24257 ; 24,257
7132 ; 100 ; 596 ; 52006993 ; 24262 ; 24,262
7132 ; 100 ; 597 ; 52122429 ; 24316 ; 24,316
7132 ; 100 ; 598 ; 52134355 ; 24322 ; 24,322
7132 ; 100 ; 599 ; 52145614 ; 24327 ; 24,327
7132 ; 100 ; 600 ; 52269304 ; 24385 ; 24,385
7132 ; 100 ; 601 ; 52414574 ; 24453 ; 24,453
7132 ; 100 ; 602 ; 52425936 ; 24458 ; 24,458
7132 ; 100 ; 603 ; 52565064 ; 24523 ; 24,523
7132 ; 100 ; 604 ; 52576174 ; 24528 ; 24,528
7132 ; 100 ; 605 ; 52702942 ; 24587 ; 24,587
7132 ; 100 ; 606 ; 52714496 ; 24593 ; 24,593
7132 ; 100 ; 607 ; 52725785 ; 24598 ; 24,598
7132 ; 100 ; 608 ; 52737503 ; 24603 ; 24,603
7132 ; 100 ; 609 ; 52871068 ; 24666 ; 24,666
7132 ; 100 ; 610 ; 53003039 ; 24727 ; 24,727
7132 ; 100 ; 611 ; 53014640 ; 24733 ; 24,733
7132 ; 100 ; 612 ; 53026172 ; 24738 ; 24,738
7132 ; 100 ; 613 ; 53037442 ; 24743 ; 24,743
7132 ; 100 ; 614 ; 53048909 ; 24749 ; 24,749
7132 ; 100 ; 615 ; 53213645 ; 24825 ; 24,825
7132 ; 100 ; 616 ; 53349193 ; 24889 ; 24,889
7132 ; 100 ; 617 ; 53507840 ; 24963 ; 24,963
7132 ; 100 ; 618 ; 53520435 ; 24969 ; 24,969
7132 ; 100 ; 619 ; 53533143 ; 24974 ; 24,974
7132 ; 100 ; 620 ; 53550679 ; 24983 ; 24,983
7132 ; 100 ; 621 ; 53684100 ; 25045 ; 25,045
7132 ; 100 ; 622 ; 53828890 ; 25112 ; 25,112
7132 ; 100 ; 623 ; 53841809 ; 25118 ; 25,118
7132 ; 100 ; 624 ; 54015165 ; 25199 ; 25,199
7132 ; 100 ; 625 ; 54027712 ; 25205 ; 25,205
7132 ; 100 ; 626 ; 54041466 ; 25212 ; 25,212
7132 ; 100 ; 627 ; 54179900 ; 25276 ; 25,276
7132 ; 100 ; 628 ; 54192632 ; 25282 ; 25,282
7132 ; 100 ; 629 ; 54204932 ; 25288 ; 25,288
7132 ; 100 ; 630 ; 54219809 ; 25295 ; 25,295
7132 ; 100 ; 631 ; 54386711 ; 25373 ; 25,373
7132 ; 100 ; 632 ; 54407440 ; 25382 ; 25,382
7132 ; 100 ; 633 ; 54426920 ; 25391 ; 25,391
7132 ; 100 ; 634 ; 54439732 ; 25397 ; 25,397
7132 ; 100 ; 635 ; 54599837 ; 25472 ; 25,472
7132 ; 100 ; 636 ; 54764938 ; 25549 ; 25,549
7132 ; 100 ; 637 ; 54777219 ; 25555 ; 25,555
7132 ; 100 ; 638 ; 54791789 ; 25562 ; 25,562
7132 ; 100 ; 639 ; 54804107 ; 25567 ; 25,567
7132 ; 100 ; 640 ; 54816449 ; 25573 ; 25,573
7132 ; 100 ; 641 ; 54828811 ; 25579 ; 25,579
7132 ; 100 ; 642 ; 54841092 ; 25585 ; 25,585
7132 ; 100 ; 643 ; 54853435 ; 25590 ; 25,59
7132 ; 100 ; 644 ; 55027641 ; 25672 ; 25,672
7132 ; 100 ; 645 ; 55049648 ; 25682 ; 25,682
7132 ; 100 ; 646 ; 55237029 ; 25769 ; 25,769
7132 ; 100 ; 647 ; 55367703 ; 25830 ; 25,83
7132 ; 100 ; 648 ; 55381475 ; 25837 ; 25,837
7132 ; 100 ; 649 ; 55400899 ; 25846 ; 25,846
7132 ; 100 ; 650 ; 55546646 ; 25914 ; 25,914
7132 ; 100 ; 651 ; 55558167 ; 25919 ; 25,919
7132 ; 100 ; 652 ; 55686098 ; 25979 ; 25,979
7132 ; 100 ; 653 ; 55817769 ; 26040 ; 26,04
7132 ; 100 ; 654 ; 55829074 ; 26046 ; 26,046
7132 ; 100 ; 655 ; 55840261 ; 26051 ; 26,051
7132 ; 100 ; 656 ; 55970428 ; 26112 ; 26,112
7132 ; 100 ; 657 ; 55982101 ; 26117 ; 26,117
7132 ; 100 ; 658 ; 56120111 ; 26181 ; 26,181
7132 ; 100 ; 659 ; 56261139 ; 26247 ; 26,247
7132 ; 100 ; 660 ; 56274408 ; 26253 ; 26,253
7132 ; 100 ; 661 ; 56286502 ; 26259 ; 26,259
7132 ; 100 ; 662 ; 56433258 ; 26327 ; 26,327
7132 ; 100 ; 663 ; 56444805 ; 26333 ; 26,333
7132 ; 100 ; 664 ; 56570955 ; 26392 ; 26,392
7132 ; 100 ; 665 ; 56582514 ; 26397 ; 26,397
7132 ; 100 ; 666 ; 56594115 ; 26402 ; 26,402
7132 ; 100 ; 667 ; 56729803 ; 26466 ; 26,466
7132 ; 100 ; 668 ; 56741366 ; 26471 ; 26,471
7132 ; 100 ; 669 ; 56753186 ; 26477 ; 26,477
7132 ; 100 ; 670 ; 56764421 ; 26482 ; 26,482
7132 ; 100 ; 671 ; 56775852 ; 26487 ; 26,487
7132 ; 100 ; 672 ; 56907948 ; 26549 ; 26,549
7132 ; 100 ; 673 ; 57052369 ; 26616 ; 26,616
7132 ; 100 ; 674 ; 57182509 ; 26677 ; 26,677
7132 ; 100 ; 675 ; 57193554 ; 26682 ; 26,682
7132 ; 100 ; 676 ; 57205101 ; 26688 ; 26,688
7132 ; 100 ; 677 ; 57216298 ; 26693 ; 26,693
7132 ; 100 ; 678 ; 57227996 ; 26698 ; 26,698
7132 ; 100 ; 679 ; 57369187 ; 26764 ; 26,764
7132 ; 100 ; 680 ; 57380570 ; 26769 ; 26,769
7132 ; 100 ; 681 ; 57391576 ; 26775 ; 26,775
7132 ; 100 ; 682 ; 57402955 ; 26780 ; 26,78
7132 ; 100 ; 683 ; 57414019 ; 26785 ; 26,785
7132 ; 100 ; 684 ; 57536797 ; 26842 ; 26,842
7132 ; 100 ; 685 ; 57548065 ; 26848 ; 26,848
7132 ; 100 ; 686 ; 57559431 ; 26853 ; 26,853
7132 ; 100 ; 687 ; 57690503 ; 26914 ; 26,914
7132 ; 100 ; 688 ; 57701661 ; 26919 ; 26,919
7132 ; 100 ; 689 ; 57712826 ; 26924 ; 26,924
7132 ; 100 ; 690 ; 57848376 ; 26988 ; 26,988
7132 ; 100 ; 691 ; 57859710 ; 26993 ; 26,993
7132 ; 100 ; 692 ; 57871493 ; 26998 ; 26,998
7132 ; 100 ; 693 ; 57883106 ; 27004 ; 27,004
7132 ; 100 ; 694 ; 57894311 ; 27009 ; 27,009
7132 ; 100 ; 695 ; 57905766 ; 27014 ; 27,014
7132 ; 100 ; 696 ; 57917125 ; 27020 ; 27,02
7132 ; 100 ; 697 ; 57928377 ; 27025 ; 27,025
7132 ; 100 ; 698 ; 57939834 ; 27030 ; 27,03
7132 ; 100 ; 699 ; 57951069 ; 27036 ; 27,036
7132 ; 100 ; 700 ; 57962273 ; 27041 ; 27,041
7132 ; 100 ; 701 ; 57973646 ; 27046 ; 27,046
7132 ; 100 ; 702 ; 57984923 ; 27051 ; 27,051
7132 ; 100 ; 703 ; 57996365 ; 27057 ; 27,057
7132 ; 100 ; 704 ; 58007861 ; 27062 ; 27,062
7132 ; 100 ; 705 ; 58145190 ; 27126 ; 27,126
7132 ; 100 ; 706 ; 58156643 ; 27131 ; 27,131
7132 ; 100 ; 707 ; 58167940 ; 27137 ; 27,137
7132 ; 100 ; 708 ; 58179221 ; 27142 ; 27,142
7132 ; 100 ; 709 ; 58190355 ; 27147 ; 27,147
7132 ; 100 ; 710 ; 58201602 ; 27152 ; 27,152
7132 ; 100 ; 711 ; 58212852 ; 27158 ; 27,158
7132 ; 100 ; 712 ; 58224500 ; 27163 ; 27,163
7132 ; 100 ; 713 ; 58235609 ; 27168 ; 27,168
7132 ; 100 ; 714 ; 58246726 ; 27173 ; 27,173
7132 ; 100 ; 715 ; 58257818 ; 27179 ; 27,179
7132 ; 100 ; 716 ; 58268952 ; 27184 ; 27,184
7132 ; 100 ; 717 ; 58280293 ; 27189 ; 27,189
7132 ; 100 ; 718 ; 58295459 ; 27196 ; 27,196
7132 ; 100 ; 719 ; 58306796 ; 27202 ; 27,202
7132 ; 100 ; 720 ; 58434108 ; 27261 ; 27,261
7132 ; 100 ; 721 ; 58445772 ; 27266 ; 27,266
7132 ; 100 ; 722 ; 58456837 ; 27272 ; 27,272
7132 ; 100 ; 723 ; 58468533 ; 27277 ; 27,277
7132 ; 100 ; 724 ; 58479667 ; 27282 ; 27,282
7132 ; 100 ; 725 ; 58491298 ; 27288 ; 27,288
7132 ; 100 ; 726 ; 58502501 ; 27293 ; 27,293
7132 ; 100 ; 727 ; 58513772 ; 27298 ; 27,298
7132 ; 100 ; 728 ; 58525088 ; 27303 ; 27,303
7132 ; 100 ; 729 ; 58536554 ; 27309 ; 27,309
7132 ; 100 ; 730 ; 58547678 ; 27314 ; 27,314
7132 ; 100 ; 731 ; 58559031 ; 27319 ; 27,319
7132 ; 100 ; 732 ; 58570385 ; 27324 ; 27,324
7132 ; 100 ; 733 ; 58581670 ; 27330 ; 27,33
7132 ; 100 ; 734 ; 58592814 ; 27335 ; 27,335
7132 ; 100 ; 735 ; 58604190 ; 27340 ; 27,34
7132 ; 100 ; 736 ; 58615267 ; 27345 ; 27,345
7132 ; 100 ; 737 ; 58626235 ; 27351 ; 27,351
7132 ; 100 ; 738 ; 58637435 ; 27356 ; 27,356
7132 ; 100 ; 739 ; 58648884 ; 27361 ; 27,361
7132 ; 100 ; 740 ; 58661650 ; 27367 ; 27,367
7132 ; 100 ; 741 ; 58672717 ; 27372 ; 27,372
7132 ; 100 ; 742 ; 58683767 ; 27377 ; 27,377
7132 ; 100 ; 743 ; 58694841 ; 27383 ; 27,383
7132 ; 100 ; 744 ; 58705978 ; 27388 ; 27,388
7132 ; 100 ; 745 ; 58717262 ; 27393 ; 27,393
7132 ; 100 ; 746 ; 58728438 ; 27398 ; 27,398
7132 ; 100 ; 747 ; 58739773 ; 27404 ; 27,404
7132 ; 100 ; 748 ; 58750842 ; 27409 ; 27,409
7132 ; 100 ; 749 ; 58761861 ; 27414 ; 27,414
7132 ; 100 ; 750 ; 58772957 ; 27419 ; 27,419
7132 ; 100 ; 751 ; 58784008 ; 27424 ; 27,424
7132 ; 100 ; 752 ; 58794899 ; 27429 ; 27,429
7132 ; 100 ; 753 ; 58806191 ; 27434 ; 27,434
7132 ; 100 ; 754 ; 58817177 ; 27440 ; 27,44
7132 ; 100 ; 755 ; 58828608 ; 27445 ; 27,445
7132 ; 100 ; 756 ; 58839669 ; 27450 ; 27,45
7132 ; 100 ; 757 ; 58850640 ; 27455 ; 27,455
7132 ; 100 ; 758 ; 58861731 ; 27460 ; 27,46
7132 ; 100 ; 759 ; 58873145 ; 27466 ; 27,466
7132 ; 100 ; 760 ; 58884204 ; 27471 ; 27,471
7132 ; 100 ; 761 ; 58895324 ; 27476 ; 27,476
7132 ; 100 ; 762 ; 58906370 ; 27481 ; 27,481
7132 ; 100 ; 763 ; 58917702 ; 27487 ; 27,487
7132 ; 100 ; 764 ; 58928774 ; 27492 ; 27,492
7132 ; 100 ; 765 ; 58939810 ; 27497 ; 27,497
7132 ; 100 ; 766 ; 58951178 ; 27502 ; 27,502
7132 ; 100 ; 767 ; 58962660 ; 27507 ; 27,507
7132 ; 100 ; 768 ; 58973742 ; 27513 ; 27,513
7132 ; 100 ; 769 ; 58985445 ; 27518 ; 27,518
7132 ; 100 ; 770 ; 58996985 ; 27524 ; 27,524
7132 ; 100 ; 771 ; 59008056 ; 27529 ; 27,529
7132 ; 100 ; 772 ; 59019157 ; 27534 ; 27,534
7132 ; 100 ; 773 ; 59030243 ; 27539 ; 27,539
7132 ; 100 ; 774 ; 59041295 ; 27544 ; 27,544
7132 ; 100 ; 775 ; 59052477 ; 27549 ; 27,549
7132 ; 100 ; 776 ; 59063320 ; 27554 ; 27,554
7132 ; 100 ; 777 ; 59075292 ; 27560 ; 27,56
7132 ; 100 ; 778 ; 59087775 ; 27566 ; 27,566
7132 ; 100 ; 779 ; 59099346 ; 27571 ; 27,571
7132 ; 100 ; 780 ; 59110483 ; 27576 ; 27,576
7132 ; 100 ; 781 ; 59121441 ; 27582 ; 27,582
7132 ; 100 ; 782 ; 59132491 ; 27587 ; 27,587
7132 ; 100 ; 783 ; 59143889 ; 27592 ; 27,592
7132 ; 100 ; 784 ; 59155089 ; 27597 ; 27,597
7132 ; 100 ; 785 ; 59166371 ; 27603 ; 27,603
7132 ; 100 ; 786 ; 59177491 ; 27608 ; 27,608
7132 ; 100 ; 787 ; 59188848 ; 27613 ; 27,613
7132 ; 100 ; 788 ; 59200028 ; 27618 ; 27,618
7132 ; 100 ; 789 ; 59211095 ; 27623 ; 27,623
7132 ; 100 ; 790 ; 59221886 ; 27628 ; 27,628
7132 ; 100 ; 791 ; 59233151 ; 27634 ; 27,634
7132 ; 100 ; 792 ; 59243959 ; 27639 ; 27,639
7132 ; 100 ; 793 ; 59255024 ; 27644 ; 27,644
7132 ; 100 ; 794 ; 59266100 ; 27649 ; 27,649
7132 ; 100 ; 795 ; 59277446 ; 27654 ; 27,654
7132 ; 100 ; 796 ; 59288646 ; 27660 ; 27,66
7132 ; 100 ; 797 ; 59299786 ; 27665 ; 27,665
7132 ; 100 ; 798 ; 59310759 ; 27670 ; 27,67
7132 ; 100 ; 799 ; 59321636 ; 27675 ; 27,675
7132 ; 100 ; 800 ; 59332495 ; 27680 ; 27,68
7132 ; 100 ; 801 ; 59343417 ; 27685 ; 27,685
7132 ; 100 ; 802 ; 59354459 ; 27690 ; 27,69
7132 ; 100 ; 803 ; 59365677 ; 27696 ; 27,696
7132 ; 100 ; 804 ; 59376644 ; 27701 ; 27,701
7132 ; 100 ; 805 ; 59387494 ; 27706 ; 27,706
7132 ; 100 ; 806 ; 59398494 ; 27711 ; 27,711
7132 ; 100 ; 807 ; 59409513 ; 27716 ; 27,716
7132 ; 100 ; 808 ; 59420295 ; 27721 ; 27,721
7132 ; 100 ; 809 ; 59431129 ; 27726 ; 27,726
7132 ; 100 ; 810 ; 59441793 ; 27731 ; 27,731
7132 ; 100 ; 811 ; 59453197 ; 27736 ; 27,736
7132 ; 100 ; 812 ; 59464161 ; 27741 ; 27,741
7132 ; 100 ; 813 ; 59475458 ; 27747 ; 27,747
7132 ; 100 ; 814 ; 59486464 ; 27752 ; 27,752
7132 ; 100 ; 815 ; 59497407 ; 27757 ; 27,757
7132 ; 100 ; 816 ; 59508274 ; 27762 ; 27,762
7132 ; 100 ; 817 ; 59519119 ; 27767 ; 27,767
7132 ; 100 ; 818 ; 59529989 ; 27772 ; 27,772
7132 ; 100 ; 819 ; 59541450 ; 27778 ; 27,778
7132 ; 100 ; 820 ; 59552186 ; 27783 ; 27,783
7132 ; 100 ; 821 ; 59562955 ; 27788 ; 27,788
7132 ; 100 ; 822 ; 59574127 ; 27793 ; 27,793
7132 ; 100 ; 823 ; 59585660 ; 27798 ; 27,798
7132 ; 100 ; 824 ; 59597424 ; 27804 ; 27,804
7132 ; 100 ; 825 ; 59608353 ; 27809 ; 27,809
7132 ; 100 ; 826 ; 59619293 ; 27814 ; 27,814
7132 ; 100 ; 827 ; 59630291 ; 27819 ; 27,819
7132 ; 100 ; 828 ; 59641811 ; 27824 ; 27,824
7132 ; 100 ; 829 ; 59652578 ; 27829 ; 27,829
7132 ; 100 ; 830 ; 59663490 ; 27834 ; 27,834
7132 ; 100 ; 831 ; 59674470 ; 27840 ; 27,84
7132 ; 100 ; 832 ; 59685289 ; 27845 ; 27,845
7132 ; 100 ; 833 ; 59696171 ; 27850 ; 27,85
7132 ; 100 ; 834 ; 59707375 ; 27855 ; 27,855
7132 ; 100 ; 835 ; 59718429 ; 27860 ; 27,86
7132 ; 100 ; 836 ; 59729526 ; 27865 ; 27,865
7132 ; 100 ; 837 ; 59740325 ; 27870 ; 27,87
7132 ; 100 ; 838 ; 59751318 ; 27875 ; 27,875
7132 ; 100 ; 839 ; 59762288 ; 27881 ; 27,881
7132 ; 100 ; 840 ; 59773236 ; 27886 ; 27,886
7132 ; 100 ; 841 ; 59783911 ; 27891 ; 27,891
7132 ; 100 ; 842 ; 59795155 ; 27896 ; 27,896
7132 ; 100 ; 843 ; 59806139 ; 27901 ; 27,901
7132 ; 100 ; 844 ; 59817760 ; 27906 ; 27,906
7132 ; 100 ; 845 ; 59828725 ; 27912 ; 27,912
7132 ; 100 ; 846 ; 59840090 ; 27917 ; 27,917
7132 ; 100 ; 847 ; 59850933 ; 27922 ; 27,922
7132 ; 100 ; 848 ; 59861938 ; 27927 ; 27,927
7132 ; 100 ; 849 ; 59873186 ; 27932 ; 27,932
7132 ; 100 ; 850 ; 59884037 ; 27937 ; 27,937
7132 ; 100 ; 851 ; 59894948 ; 27942 ; 27,942
7132 ; 100 ; 852 ; 59905955 ; 27948 ; 27,948
7132 ; 100 ; 853 ; 59917301 ; 27953 ; 27,953
7132 ; 100 ; 854 ; 59928309 ; 27958 ; 27,958
7132 ; 100 ; 855 ; 59939243 ; 27963 ; 27,963
7132 ; 100 ; 856 ; 59949965 ; 27968 ; 27,968
7132 ; 100 ; 857 ; 59960991 ; 27973 ; 27,973
7132 ; 100 ; 858 ; 59972015 ; 27978 ; 27,978
7132 ; 100 ; 859 ; 59982885 ; 27983 ; 27,983
7132 ; 100 ; 860 ; 59993635 ; 27988 ; 27,988
7132 ; 100 ; 861 ; 60004933 ; 27994 ; 27,994
7132 ; 100 ; 862 ; 60016137 ; 27999 ; 27,999
7132 ; 100 ; 863 ; 60026944 ; 28004 ; 28,004
7132 ; 100 ; 864 ; 60037858 ; 28009 ; 28,009
7132 ; 100 ; 865 ; 60049157 ; 28014 ; 28,014
7132 ; 100 ; 866 ; 60060201 ; 28020 ; 28,02
7132 ; 100 ; 867 ; 60071527 ; 28025 ; 28,025
7132 ; 100 ; 868 ; 60082475 ; 28030 ; 28,03
7132 ; 100 ; 869 ; 60093514 ; 28035 ; 28,035
7132 ; 100 ; 870 ; 60104661 ; 28040 ; 28,04
7132 ; 100 ; 871 ; 60115601 ; 28045 ; 28,045
7132 ; 100 ; 872 ; 60126647 ; 28051 ; 28,051
7132 ; 100 ; 873 ; 60137628 ; 28056 ; 28,056
7132 ; 100 ; 874 ; 60149028 ; 28061 ; 28,061
7132 ; 100 ; 875 ; 60160377 ; 28066 ; 28,066
7132 ; 100 ; 876 ; 60171395 ; 28071 ; 28,071
7132 ; 100 ; 877 ; 60182544 ; 28077 ; 28,077
7132 ; 100 ; 878 ; 60193652 ; 28082 ; 28,082
7132 ; 100 ; 879 ; 60204735 ; 28087 ; 28,087
7132 ; 100 ; 880 ; 60215870 ; 28092 ; 28,092
7132 ; 100 ; 881 ; 60227245 ; 28097 ; 28,097
7132 ; 100 ; 882 ; 60238480 ; 28103 ; 28,103
7132 ; 100 ; 883 ; 60249993 ; 28108 ; 28,108
7132 ; 100 ; 884 ; 60261137 ; 28113 ; 28,113
7132 ; 100 ; 885 ; 60272322 ; 28118 ; 28,118
7132 ; 100 ; 886 ; 60283716 ; 28124 ; 28,124
7132 ; 100 ; 887 ; 60294675 ; 28129 ; 28,129
7132 ; 100 ; 888 ; 60305755 ; 28134 ; 28,134
7132 ; 100 ; 889 ; 60316822 ; 28139 ; 28,139
7132 ; 100 ; 890 ; 60327857 ; 28144 ; 28,144
7132 ; 100 ; 891 ; 60338940 ; 28150 ; 28,15
7132 ; 100 ; 892 ; 60350140 ; 28155 ; 28,155
7132 ; 100 ; 893 ; 60361603 ; 28160 ; 28,16
7132 ; 100 ; 894 ; 60373021 ; 28165 ; 28,165
7132 ; 100 ; 895 ; 60384075 ; 28171 ; 28,171
7132 ; 100 ; 896 ; 60395052 ; 28176 ; 28,176
7132 ; 100 ; 897 ; 60406287 ; 28181 ; 28,181
7132 ; 100 ; 898 ; 60417202 ; 28186 ; 28,186
7132 ; 100 ; 899 ; 60428483 ; 28191 ; 28,191
7132 ; 100 ; 900 ; 60440978 ; 28197 ; 28,197
7132 ; 100 ; 901 ; 60452178 ; 28202 ; 28,202
7132 ; 100 ; 902 ; 60463532 ; 28208 ; 28,208
7132 ; 100 ; 903 ; 60474521 ; 28213 ; 28,213
7132 ; 100 ; 904 ; 60485776 ; 28218 ; 28,218
7132 ; 100 ; 905 ; 60496963 ; 28223 ; 28,223
7132 ; 100 ; 906 ; 60508520 ; 28229 ; 28,229
7132 ; 100 ; 907 ; 60519482 ; 28234 ; 28,234
7132 ; 100 ; 908 ; 60530665 ; 28239 ; 28,239
7132 ; 100 ; 909 ; 60541960 ; 28244 ; 28,244
7132 ; 100 ; 910 ; 60553067 ; 28249 ; 28,249
7132 ; 100 ; 911 ; 60564087 ; 28255 ; 28,255
7132 ; 100 ; 912 ; 60577984 ; 28261 ; 28,261
7132 ; 100 ; 913 ; 60590060 ; 28267 ; 28,267
7132 ; 100 ; 914 ; 60601307 ; 28272 ; 28,272
7132 ; 100 ; 915 ; 60612197 ; 28277 ; 28,277
7132 ; 100 ; 916 ; 60623628 ; 28282 ; 28,282
7132 ; 100 ; 917 ; 60635011 ; 28288 ; 28,288
7132 ; 100 ; 918 ; 60645945 ; 28293 ; 28,293
7132 ; 100 ; 919 ; 60657441 ; 28298 ; 28,298
7132 ; 100 ; 920 ; 60669120 ; 28304 ; 28,304
7132 ; 100 ; 921 ; 60680573 ; 28309 ; 28,309
7132 ; 100 ; 922 ; 60691777 ; 28314 ; 28,314
7132 ; 100 ; 923 ; 60703283 ; 28320 ; 28,32
7132 ; 100 ; 924 ; 60714418 ; 28325 ; 28,325
7132 ; 100 ; 925 ; 60725290 ; 28330 ; 28,33
7132 ; 100 ; 926 ; 60736422 ; 28335 ; 28,335
7132 ; 100 ; 927 ; 60747577 ; 28340 ; 28,34
7132 ; 100 ; 928 ; 60758786 ; 28345 ; 28,345
7132 ; 100 ; 929 ; 60778538 ; 28355 ; 28,355
7132 ; 100 ; 930 ; 60799078 ; 28364 ; 28,364
7132 ; 100 ; 931 ; 60820375 ; 28374 ; 28,374
7132 ; 100 ; 932 ; 60847650 ; 28387 ; 28,387
7132 ; 100 ; 933 ; 60867427 ; 28396 ; 28,396
7132 ; 100 ; 934 ; 60879155 ; 28402 ; 28,402
7132 ; 100 ; 935 ; 60890369 ; 28407 ; 28,407
7132 ; 100 ; 936 ; 60901592 ; 28412 ; 28,412
7132 ; 100 ; 937 ; 60913110 ; 28417 ; 28,417
7132 ; 100 ; 938 ; 60925384 ; 28423 ; 28,423
7132 ; 100 ; 939 ; 60936979 ; 28429 ; 28,429
7132 ; 100 ; 940 ; 60949008 ; 28434 ; 28,434
7132 ; 100 ; 941 ; 60960228 ; 28439 ; 28,439
7132 ; 100 ; 942 ; 60971214 ; 28445 ; 28,445
7132 ; 100 ; 943 ; 60982571 ; 28450 ; 28,45
7132 ; 100 ; 944 ; 60993766 ; 28455 ; 28,455
7132 ; 100 ; 945 ; 61004910 ; 28460 ; 28,46
7132 ; 100 ; 946 ; 61016290 ; 28466 ; 28,466
7132 ; 100 ; 947 ; 61027399 ; 28471 ; 28,471
7132 ; 100 ; 948 ; 61039286 ; 28476 ; 28,476
7132 ; 100 ; 949 ; 61050304 ; 28481 ; 28,481
7132 ; 100 ; 950 ; 61061581 ; 28487 ; 28,487
7132 ; 100 ; 951 ; 61072568 ; 28492 ; 28,492
7132 ; 100 ; 952 ; 61084562 ; 28497 ; 28,497
7132 ; 100 ; 953 ; 61096335 ; 28503 ; 28,503
7132 ; 100 ; 954 ; 61107989 ; 28508 ; 28,508
7132 ; 100 ; 955 ; 61119907 ; 28514 ; 28,514
7132 ; 100 ; 956 ; 61131876 ; 28519 ; 28,519
7132 ; 100 ; 957 ; 61143714 ; 28525 ; 28,525
7132 ; 100 ; 958 ; 61155901 ; 28531 ; 28,531
7132 ; 100 ; 959 ; 61168055 ; 28536 ; 28,536
7132 ; 100 ; 960 ; 61180062 ; 28542 ; 28,542
7132 ; 100 ; 961 ; 61192037 ; 28548 ; 28,548
7132 ; 100 ; 962 ; 61203008 ; 28553 ; 28,553
7132 ; 100 ; 963 ; 61214364 ; 28558 ; 28,558
7132 ; 100 ; 964 ; 61225538 ; 28563 ; 28,563
7132 ; 100 ; 965 ; 61237017 ; 28569 ; 28,569
7132 ; 100 ; 966 ; 61247823 ; 28574 ; 28,574
7132 ; 100 ; 967 ; 61259505 ; 28579 ; 28,579
7132 ; 100 ; 968 ; 61270975 ; 28584 ; 28,584
7132 ; 100 ; 969 ; 61282388 ; 28590 ; 28,59
7132 ; 100 ; 970 ; 61293637 ; 28595 ; 28,595
7132 ; 100 ; 971 ; 61305414 ; 28600 ; 28,6
7132 ; 100 ; 972 ; 61317030 ; 28606 ; 28,606
7132 ; 100 ; 973 ; 61328329 ; 28611 ; 28,611
7132 ; 100 ; 974 ; 61339395 ; 28616 ; 28,616
7132 ; 100 ; 975 ; 61351468 ; 28622 ; 28,622
7132 ; 100 ; 976 ; 61362711 ; 28627 ; 28,627
7132 ; 100 ; 977 ; 61373892 ; 28632 ; 28,632
7132 ; 100 ; 978 ; 61384987 ; 28638 ; 28,638
7132 ; 100 ; 979 ; 61396173 ; 28643 ; 28,643
7132 ; 100 ; 980 ; 61407673 ; 28648 ; 28,648
7132 ; 100 ; 981 ; 61419176 ; 28654 ; 28,654
7132 ; 100 ; 982 ; 61430284 ; 28659 ; 28,659
7132 ; 100 ; 983 ; 61441344 ; 28664 ; 28,664
7132 ; 100 ; 984 ; 61453113 ; 28669 ; 28,669
7132 ; 100 ; 985 ; 61464003 ; 28674 ; 28,674
7132 ; 100 ; 986 ; 61475551 ; 28680 ; 28,68
7132 ; 100 ; 987 ; 61486826 ; 28685 ; 28,685
7132 ; 100 ; 988 ; 61497955 ; 28690 ; 28,69
7132 ; 100 ; 989 ; 61510294 ; 28696 ; 28,696
7132 ; 100 ; 990 ; 61527420 ; 28704 ; 28,704
7132 ; 100 ; 991 ; 61545586 ; 28713 ; 28,713
7132 ; 100 ; 992 ; 61565467 ; 28722 ; 28,722
7132 ; 100 ; 993 ; 61579480 ; 28728 ; 28,728
7132 ; 100 ; 994 ; 61592723 ; 28734 ; 28,734
7132 ; 100 ; 995 ; 61604754 ; 28740 ; 28,74
7132 ; 100 ; 996 ; 61622357 ; 28748 ; 28,748
7132 ; 100 ; 997 ; 61635235 ; 28754 ; 28,754
7132 ; 100 ; 998 ; 61646311 ; 28759 ; 28,759
7132 ; 100 ; 999 ; 61657821 ; 28765 ; 28,765
7132 ; 100 ; 1000 ; 61669375 ; 28770 ; 28,77
7132 ; 100 ; 1001 ; 61680856 ; 28776 ; 28,776
7132 ; 100 ; 1002 ; 61691738 ; 28781 ; 28,781
7132 ; 100 ; 1003 ; 61703544 ; 28786 ; 28,786
7132 ; 100 ; 1004 ; 61714538 ; 28791 ; 28,791
7132 ; 100 ; 1005 ; 61726217 ; 28797 ; 28,797
7132 ; 100 ; 1006 ; 61737575 ; 28802 ; 28,802
7132 ; 100 ; 1007 ; 61749083 ; 28807 ; 28,807
7132 ; 100 ; 1008 ; 61759942 ; 28813 ; 28,813
7132 ; 100 ; 1009 ; 61771109 ; 28818 ; 28,818
7132 ; 100 ; 1010 ; 61781953 ; 28823 ; 28,823
7132 ; 100 ; 1011 ; 61793269 ; 28828 ; 28,828
7132 ; 100 ; 1012 ; 61804401 ; 28833 ; 28,833
7132 ; 100 ; 1013 ; 61815697 ; 28839 ; 28,839
7132 ; 100 ; 1014 ; 61826563 ; 28844 ; 28,844
7132 ; 100 ; 1015 ; 61838149 ; 28849 ; 28,849
7132 ; 100 ; 1016 ; 61849301 ; 28854 ; 28,854
7132 ; 100 ; 1017 ; 61860730 ; 28860 ; 28,86
7132 ; 100 ; 1018 ; 61871796 ; 28865 ; 28,865
7132 ; 100 ; 1019 ; 61883908 ; 28870 ; 28,87
7132 ; 100 ; 1020 ; 61895856 ; 28876 ; 28,876
7132 ; 100 ; 1021 ; 61908099 ; 28882 ; 28,882
7132 ; 100 ; 1022 ; 61920551 ; 28887 ; 28,887
7132 ; 100 ; 1023 ; 61932406 ; 28893 ; 28,893
7132 ; 100 ; 1024 ; 61944386 ; 28899 ; 28,899
7132 ; 100 ; 1025 ; 61956300 ; 28904 ; 28,904
7132 ; 100 ; 1026 ; 61967963 ; 28910 ; 28,91
7132 ; 100 ; 1027 ; 61980828 ; 28916 ; 28,916
7132 ; 100 ; 1028 ; 61991822 ; 28921 ; 28,921
7132 ; 100 ; 1029 ; 62002722 ; 28926 ; 28,926
7132 ; 100 ; 1030 ; 62013953 ; 28931 ; 28,931
7132 ; 100 ; 1031 ; 62025629 ; 28936 ; 28,936
7132 ; 100 ; 1032 ; 62036554 ; 28942 ; 28,942
7132 ; 100 ; 1033 ; 62048254 ; 28947 ; 28,947
7132 ; 100 ; 1034 ; 62059789 ; 28952 ; 28,952
7132 ; 100 ; 1035 ; 62070982 ; 28958 ; 28,958
7132 ; 100 ; 1036 ; 62082016 ; 28963 ; 28,963
7132 ; 100 ; 1037 ; 62093135 ; 28968 ; 28,968
7132 ; 100 ; 1038 ; 62104235 ; 28973 ; 28,973
7132 ; 100 ; 1039 ; 62115630 ; 28978 ; 28,978
7132 ; 100 ; 1040 ; 62126785 ; 28984 ; 28,984
7132 ; 100 ; 1041 ; 62137611 ; 28989 ; 28,989
7132 ; 100 ; 1042 ; 62148974 ; 28994 ; 28,994
7132 ; 100 ; 1043 ; 62160583 ; 28999 ; 28,999
7132 ; 100 ; 1044 ; 62171767 ; 29005 ; 29,005
7132 ; 100 ; 1045 ; 62182769 ; 29010 ; 29,01
7132 ; 100 ; 1046 ; 62193917 ; 29015 ; 29,015
7132 ; 100 ; 1047 ; 62205059 ; 29020 ; 29,02
7132 ; 100 ; 1048 ; 62216298 ; 29025 ; 29,025
7132 ; 100 ; 1049 ; 62227098 ; 29030 ; 29,03
7132 ; 100 ; 1050 ; 62238279 ; 29036 ; 29,036
7132 ; 100 ; 1051 ; 62249103 ; 29041 ; 29,041
7132 ; 100 ; 1052 ; 62260281 ; 29046 ; 29,046
7132 ; 100 ; 1053 ; 62271276 ; 29051 ; 29,051
7132 ; 100 ; 1054 ; 62282600 ; 29056 ; 29,056
7132 ; 100 ; 1055 ; 62293878 ; 29062 ; 29,062
7132 ; 100 ; 1056 ; 62304976 ; 29067 ; 29,067
7132 ; 100 ; 1057 ; 62315710 ; 29072 ; 29,072
7132 ; 100 ; 1058 ; 62326829 ; 29077 ; 29,077
7132 ; 100 ; 1059 ; 62338175 ; 29082 ; 29,082
7132 ; 100 ; 1060 ; 62349194 ; 29087 ; 29,087
7132 ; 100 ; 1061 ; 62360739 ; 29093 ; 29,093
7132 ; 100 ; 1062 ; 62372054 ; 29098 ; 29,098
7132 ; 100 ; 1063 ; 62383035 ; 29103 ; 29,103
7132 ; 100 ; 1064 ; 62394109 ; 29108 ; 29,108
7132 ; 100 ; 1065 ; 62405194 ; 29114 ; 29,114
7132 ; 100 ; 1066 ; 62417391 ; 29119 ; 29,119
7132 ; 100 ; 1067 ; 62428480 ; 29124 ; 29,124
7132 ; 100 ; 1068 ; 62439591 ; 29130 ; 29,13
7132 ; 100 ; 1069 ; 62450934 ; 29135 ; 29,135
7132 ; 100 ; 1070 ; 62461854 ; 29140 ; 29,14
7132 ; 100 ; 1071 ; 62473071 ; 29145 ; 29,145
7132 ; 100 ; 1072 ; 62484050 ; 29150 ; 29,15
7132 ; 100 ; 1073 ; 62495390 ; 29156 ; 29,156
7132 ; 100 ; 1074 ; 62506649 ; 29161 ; 29,161
7132 ; 100 ; 1075 ; 62517983 ; 29166 ; 29,166
7132 ; 100 ; 1076 ; 62528935 ; 29171 ; 29,171
7132 ; 100 ; 1077 ; 62539979 ; 29176 ; 29,176
7132 ; 100 ; 1078 ; 62551092 ; 29182 ; 29,182
7132 ; 100 ; 1079 ; 62562331 ; 29187 ; 29,187
7132 ; 100 ; 1080 ; 62574304 ; 29192 ; 29,192
7132 ; 100 ; 1081 ; 62586254 ; 29198 ; 29,198
7132 ; 100 ; 1082 ; 62597657 ; 29203 ; 29,203
7132 ; 100 ; 1083 ; 62608971 ; 29209 ; 29,209
7132 ; 100 ; 1084 ; 62620189 ; 29214 ; 29,214
7132 ; 100 ; 1085 ; 62631663 ; 29219 ; 29,219
7132 ; 100 ; 1086 ; 62643195 ; 29225 ; 29,225
7132 ; 100 ; 1087 ; 62654503 ; 29230 ; 29,23
7132 ; 100 ; 1088 ; 62665802 ; 29235 ; 29,235
7132 ; 100 ; 1089 ; 62677081 ; 29240 ; 29,24
7132 ; 100 ; 1090 ; 62688551 ; 29246 ; 29,246
7132 ; 100 ; 1091 ; 62699748 ; 29251 ; 29,251
7132 ; 100 ; 1092 ; 62710672 ; 29256 ; 29,256
7132 ; 100 ; 1093 ; 62722148 ; 29261 ; 29,261
7132 ; 100 ; 1094 ; 62733388 ; 29267 ; 29,267
7132 ; 100 ; 1095 ; 62744747 ; 29272 ; 29,272
7132 ; 100 ; 1096 ; 62755827 ; 29277 ; 29,277
7132 ; 100 ; 1097 ; 62767022 ; 29282 ; 29,282
7132 ; 100 ; 1098 ; 62778329 ; 29288 ; 29,288
7132 ; 100 ; 1099 ; 62789680 ; 29293 ; 29,293
7132 ; 100 ; 1100 ; 62800848 ; 29298 ; 29,298
7132 ; 100 ; 1101 ; 62812188 ; 29303 ; 29,303
7132 ; 100 ; 1102 ; 62823905 ; 29309 ; 29,309
7132 ; 100 ; 1103 ; 62835238 ; 29314 ; 29,314
7132 ; 100 ; 1104 ; 62846382 ; 29319 ; 29,319
7132 ; 100 ; 1105 ; 62857474 ; 29325 ; 29,325
7132 ; 100 ; 1106 ; 62868671 ; 29330 ; 29,33
7132 ; 100 ; 1107 ; 62879901 ; 29335 ; 29,335
7132 ; 100 ; 1108 ; 62890873 ; 29340 ; 29,34
7132 ; 100 ; 1109 ; 62902101 ; 29345 ; 29,345
7132 ; 100 ; 1110 ; 62913595 ; 29351 ; 29,351
7132 ; 100 ; 1111 ; 62925477 ; 29356 ; 29,356
7132 ; 100 ; 1112 ; 62936756 ; 29362 ; 29,362
7132 ; 100 ; 1113 ; 62947848 ; 29367 ; 29,367
7132 ; 100 ; 1114 ; 62959112 ; 29372 ; 29,372
7132 ; 100 ; 1115 ; 62970611 ; 29377 ; 29,377
7132 ; 100 ; 1116 ; 62982059 ; 29383 ; 29,383
7132 ; 100 ; 1117 ; 62993308 ; 29388 ; 29,388
7132 ; 100 ; 1118 ; 63004479 ; 29393 ; 29,393
7132 ; 100 ; 1119 ; 63016023 ; 29399 ; 29,399
7132 ; 100 ; 1120 ; 63027303 ; 29404 ; 29,404
7132 ; 100 ; 1121 ; 63038340 ; 29409 ; 29,409
7132 ; 100 ; 1122 ; 63049898 ; 29414 ; 29,414
7132 ; 100 ; 1123 ; 63061232 ; 29420 ; 29,42
7132 ; 100 ; 1124 ; 63072492 ; 29425 ; 29,425
7132 ; 100 ; 1125 ; 63083610 ; 29430 ; 29,43
7132 ; 100 ; 1126 ; 63094649 ; 29435 ; 29,435
7132 ; 100 ; 1127 ; 63105435 ; 29440 ; 29,44
7132 ; 100 ; 1128 ; 63116712 ; 29445 ; 29,445
7132 ; 100 ; 1129 ; 63127990 ; 29451 ; 29,451
7132 ; 100 ; 1130 ; 63138929 ; 29456 ; 29,456
7132 ; 100 ; 1131 ; 63149892 ; 29461 ; 29,461
7132 ; 100 ; 1132 ; 63161157 ; 29466 ; 29,466
7132 ; 100 ; 1133 ; 63172393 ; 29471 ; 29,471
7132 ; 100 ; 1134 ; 63183667 ; 29477 ; 29,477
7132 ; 100 ; 1135 ; 63194725 ; 29482 ; 29,482
7132 ; 100 ; 1136 ; 63205922 ; 29487 ; 29,487
7132 ; 100 ; 1137 ; 63217121 ; 29492 ; 29,492
7132 ; 100 ; 1138 ; 63228363 ; 29498 ; 29,498
7132 ; 100 ; 1139 ; 63239443 ; 29503 ; 29,503
7132 ; 100 ; 1140 ; 63250506 ; 29508 ; 29,508
7132 ; 100 ; 1141 ; 63261655 ; 29513 ; 29,513
7132 ; 100 ; 1142 ; 63273063 ; 29518 ; 29,518
7132 ; 100 ; 1143 ; 63284195 ; 29524 ; 29,524
7132 ; 100 ; 1144 ; 63295449 ; 29529 ; 29,529
7132 ; 100 ; 1145 ; 63306552 ; 29534 ; 29,534
7132 ; 100 ; 1146 ; 63317761 ; 29539 ; 29,539
7132 ; 100 ; 1147 ; 63328908 ; 29544 ; 29,544
7132 ; 100 ; 1148 ; 63340052 ; 29550 ; 29,55
7132 ; 100 ; 1149 ; 63351053 ; 29555 ; 29,555
7132 ; 100 ; 1150 ; 63362163 ; 29560 ; 29,56
7132 ; 100 ; 1151 ; 63373133 ; 29565 ; 29,565
7132 ; 100 ; 1152 ; 63384115 ; 29570 ; 29,57
7132 ; 100 ; 1153 ; 63395021 ; 29575 ; 29,575
7132 ; 100 ; 1154 ; 63406244 ; 29581 ; 29,581
7132 ; 100 ; 1155 ; 63417155 ; 29586 ; 29,586
7132 ; 100 ; 1156 ; 63428106 ; 29591 ; 29,591
7132 ; 100 ; 1157 ; 63439313 ; 29596 ; 29,596
7132 ; 100 ; 1158 ; 63450486 ; 29601 ; 29,601
7132 ; 100 ; 1159 ; 63462218 ; 29607 ; 29,607
7132 ; 100 ; 1160 ; 63473220 ; 29612 ; 29,612
7132 ; 100 ; 1161 ; 63484360 ; 29617 ; 29,617
7132 ; 100 ; 1162 ; 63495283 ; 29622 ; 29,622
7132 ; 100 ; 1163 ; 63506537 ; 29627 ; 29,627
7132 ; 100 ; 1164 ; 63517670 ; 29633 ; 29,633
7132 ; 100 ; 1165 ; 63529100 ; 29638 ; 29,638
7132 ; 100 ; 1166 ; 63540255 ; 29643 ; 29,643
7132 ; 100 ; 1167 ; 63552182 ; 29649 ; 29,649
7132 ; 100 ; 1168 ; 63563534 ; 29654 ; 29,654
7132 ; 100 ; 1169 ; 63574841 ; 29659 ; 29,659
7132 ; 100 ; 1170 ; 63585468 ; 29664 ; 29,664
7132 ; 100 ; 1171 ; 63596591 ; 29669 ; 29,669
7132 ; 100 ; 1172 ; 63607438 ; 29674 ; 29,674
7132 ; 100 ; 1173 ; 63618500 ; 29680 ; 29,68
7132 ; 100 ; 1174 ; 63629194 ; 29685 ; 29,685
7132 ; 100 ; 1175 ; 63640217 ; 29690 ; 29,69
7132 ; 100 ; 1176 ; 63651057 ; 29695 ; 29,695
7132 ; 100 ; 1177 ; 63662115 ; 29700 ; 29,7
7132 ; 100 ; 1178 ; 63673093 ; 29705 ; 29,705
7132 ; 100 ; 1179 ; 63684149 ; 29710 ; 29,71
7132 ; 100 ; 1180 ; 63695259 ; 29715 ; 29,715
7132 ; 100 ; 1181 ; 63706237 ; 29721 ; 29,721
7132 ; 100 ; 1182 ; 63716803 ; 29725 ; 29,725
7132 ; 100 ; 1183 ; 63728120 ; 29731 ; 29,731
7132 ; 100 ; 1184 ; 63739198 ; 29736 ; 29,736
7132 ; 100 ; 1185 ; 63750265 ; 29741 ; 29,741
7132 ; 100 ; 1186 ; 63761196 ; 29746 ; 29,746
7132 ; 100 ; 1187 ; 63772132 ; 29751 ; 29,751
7132 ; 100 ; 1188 ; 63783139 ; 29756 ; 29,756
7132 ; 100 ; 1189 ; 63794208 ; 29762 ; 29,762
7132 ; 100 ; 1190 ; 63805169 ; 29767 ; 29,767
7132 ; 100 ; 1191 ; 63816045 ; 29772 ; 29,772
7132 ; 100 ; 1192 ; 63826936 ; 29777 ; 29,777
7132 ; 100 ; 1193 ; 63837552 ; 29782 ; 29,782
7132 ; 100 ; 1194 ; 63848543 ; 29787 ; 29,787
7132 ; 100 ; 1195 ; 63859535 ; 29792 ; 29,792
7132 ; 100 ; 1196 ; 63870975 ; 29797 ; 29,797
7132 ; 100 ; 1197 ; 63882150 ; 29803 ; 29,803
7132 ; 100 ; 1198 ; 63893244 ; 29808 ; 29,808
7132 ; 100 ; 1199 ; 63904482 ; 29813 ; 29,813
7132 ; 100 ; 1200 ; 63915681 ; 29818 ; 29,818
7132 ; 100 ; 1201 ; 63926941 ; 29823 ; 29,823
7132 ; 100 ; 1202 ; 63938357 ; 29829 ; 29,829
7132 ; 100 ; 1203 ; 63949671 ; 29834 ; 29,834
7132 ; 100 ; 1204 ; 63961134 ; 29839 ; 29,839
7132 ; 100 ; 1205 ; 63972300 ; 29845 ; 29,845
7132 ; 100 ; 1206 ; 63983763 ; 29850 ; 29,85
7132 ; 100 ; 1207 ; 63995107 ; 29855 ; 29,855
7132 ; 100 ; 1208 ; 64006589 ; 29861 ; 29,861
7132 ; 100 ; 1209 ; 64017622 ; 29866 ; 29,866
7132 ; 100 ; 1210 ; 64029354 ; 29871 ; 29,871
7132 ; 100 ; 1211 ; 64040666 ; 29877 ; 29,877
7132 ; 100 ; 1212 ; 64052080 ; 29882 ; 29,882
7132 ; 100 ; 1213 ; 64063202 ; 29887 ; 29,887
7132 ; 100 ; 1214 ; 64074445 ; 29892 ; 29,892
7132 ; 100 ; 1215 ; 64086316 ; 29898 ; 29,898
7132 ; 100 ; 1216 ; 64097546 ; 29903 ; 29,903
7132 ; 100 ; 1217 ; 64109133 ; 29908 ; 29,908
7132 ; 100 ; 1218 ; 64120440 ; 29914 ; 29,914
7132 ; 100 ; 1219 ; 64131773 ; 29919 ; 29,919
7132 ; 100 ; 1220 ; 64142907 ; 29924 ; 29,924
7132 ; 100 ; 1221 ; 64153950 ; 29929 ; 29,929
7132 ; 100 ; 1222 ; 64165340 ; 29935 ; 29,935
7132 ; 100 ; 1223 ; 64176452 ; 29940 ; 29,94
7132 ; 100 ; 1224 ; 64188090 ; 29945 ; 29,945
7132 ; 100 ; 1225 ; 64199189 ; 29950 ; 29,95
7132 ; 100 ; 1226 ; 64210394 ; 29956 ; 29,956
7132 ; 100 ; 1227 ; 64221583 ; 29961 ; 29,961
7132 ; 100 ; 1228 ; 64232831 ; 29966 ; 29,966
7132 ; 100 ; 1229 ; 64243750 ; 29971 ; 29,971
7132 ; 100 ; 1230 ; 64254788 ; 29976 ; 29,976
7132 ; 100 ; 1231 ; 64266078 ; 29982 ; 29,982
7132 ; 100 ; 1232 ; 64277104 ; 29987 ; 29,987
7132 ; 100 ; 1233 ; 64287967 ; 29992 ; 29,992
7132 ; 100 ; 1234 ; 64299205 ; 29997 ; 29,997
7132 ; 100 ; 1235 ; 64310978 ; 30003 ; 30,003