Rozwiązanie dla problemu tsp_171:
Scieżka: 161 - 169 - 125 - 80 - 50 - 114 - 77 - 72 - 17 - 170 - 140 - 9 - 91 - 8 - 68 - 84 - 10 - 60 - 85 - 11 - 129 - 167 - 101 - 138 - 164 - 94 - 42 - 109 - 95 - 14 - 87 - 128 - 132 - 144 - 76 - 159 - 19 - 135 - 153 - 165 - 78 - 69 - 65 - 130 - 63 - 163 - 136 - 25 - 3 - 137 - 121 - 145 - 107 - 12 - 90 - 168 - 0 - 105 - 146 - 35 - 99 - 158 - 20 - 7 - 58 - 62 - 70 - 133 - 141 - 160 - 82 - 39 - 100 - 89 - 112 - 22 - 38 - 113 - 102 - 162 - 79 - 1 - 44 - 148 - 93 - 104 - 122 - 45 - 150 - 51 - 5 - 40 - 116 - 149 - 147 - 75 - 61 - 92 - 43 - 55 - 52 - 28 - 26 - 2 - 67 - 97 - 124 - 59 - 119 - 106 - 139 - 71 - 127 - 143 - 96 - 156 - 151 - 24 - 53 - 32 - 18 - 49 - 4 - 120 - 98 - 88 - 166 - 73 - 155 - 48 - 27 - 16 - 31 - 54 - 66 - 64 - 118 - 110 - 126 - 103 - 47 - 108 - 152 - 34 - 134 - 23 - 30 - 29 - 36 - 15 - 37 - 86 - 21 - 46 - 41 - 33 - 57 - 157 - 74 - 83 - 6 - 56 - 154 - 123 - 13 - 142 - 115 - 131 - 111 - 81 - 117 - 161
Koszt: 23280
Czas znalezienia[takty]: 26067177
Czas znalezienia[ms]: 12161
Czas znalezienia[s]: 12
Iteracja znalezienia: 8974
Błąd względny = 745,009074410163
